(export (version D)
  (design
    (source /home/eda/Chips4Makers/Retro-uC/KiCad/Retro_uC-Breadboard/Retro_uC-Breadboard.sch)
    (date "Sat 27 Jan 2018 03:07:05 PM CET")
    (tool "Eeschema 4.0.7-e2-6376~58~ubuntu16.04.1")
    (sheet (number 1) (name /) (tstamps /)
      (title_block
        (title)
        (company)
        (rev)
        (date)
        (source Retro_uC-Breadboard.sch)
        (comment (number 1) (value ""))
        (comment (number 2) (value ""))
        (comment (number 3) (value ""))
        (comment (number 4) (value "")))))
  (components
    (comp (ref J1)
      (value Conn_01x20)
      (footprint Socket_Strips:Socket_Strip_Straight_1x20)
      (libsource (lib conn) (part Conn_01x20))
      (sheetpath (names /) (tstamps /))
      (tstamp 5A5E1F5B))
    (comp (ref J2)
      (value VIAS_01X20_POWBB)
      (footprint Socket_Strips:Socket_Strip_Straight_1x20)
      (libsource (lib Retro_uC) (part VIAS_01X20_POWBB))
      (sheetpath (names /) (tstamps /))
      (tstamp 5A5E209F))
    (comp (ref RUC1)
      (value Retro_uC-QFN100)
      (footprint Retro_uC:QFN_100_12x12_0.4)
      (fields
        (field (name MPN) C4M2018RUC))
      (libsource (lib C4M) (part Retro_uC-QFN100))
      (sheetpath (names /) (tstamps /))
      (tstamp 5A5E21CF))
    (comp (ref DIP1)
      (value "DIP switch 4 SPST")
      (footprint Housings_SOIC:SO-8_5.3x6.2mm_Pitch1.27mm)
      (fields
        (field (name MPN) 218-4LPST))
      (libsource (lib Retro_uC) (part IKH0404000))
      (sheetpath (names /) (tstamps /))
      (tstamp 5A5E2279))
    (comp (ref J3)
      (value Conn_02x10_Odd_Even)
      (footprint Socket_Strips:Socket_Strip_Straight_2x10)
      (libsource (lib conn) (part Conn_02x10_Odd_Even))
      (sheetpath (names /) (tstamps /))
      (tstamp 5A60FF2E))
    (comp (ref J4)
      (value Conn_02x10_Odd_Even)
      (footprint Socket_Strips:Socket_Strip_Straight_2x10)
      (libsource (lib conn) (part Conn_02x10_Odd_Even))
      (sheetpath (names /) (tstamps /))
      (tstamp 5A610FF8)))
  (libparts
    (libpart (lib conn) (part Conn_01x20)
      (description "Generic connector, single row, 01x20")
      (docs ~)
      (footprints
        (fp Connector*:*_??x*mm*)
        (fp Connector*:*1x??x*mm*)
        (fp Pin?Header?Straight?1X*)
        (fp Pin?Header?Angled?1X*)
        (fp Socket?Strip?Straight?1X*)
        (fp Socket?Strip?Angled?1X*))
      (fields
        (field (name Reference) J)
        (field (name Value) Conn_01x20))
      (pins
        (pin (num 1) (name Pin_1) (type passive))
        (pin (num 2) (name Pin_2) (type passive))
        (pin (num 3) (name Pin_3) (type passive))
        (pin (num 4) (name Pin_4) (type passive))
        (pin (num 5) (name Pin_5) (type passive))
        (pin (num 6) (name Pin_6) (type passive))
        (pin (num 7) (name Pin_7) (type passive))
        (pin (num 8) (name Pin_8) (type passive))
        (pin (num 9) (name Pin_9) (type passive))
        (pin (num 10) (name Pin_10) (type passive))
        (pin (num 11) (name Pin_11) (type passive))
        (pin (num 12) (name Pin_12) (type passive))
        (pin (num 13) (name Pin_13) (type passive))
        (pin (num 14) (name Pin_14) (type passive))
        (pin (num 15) (name Pin_15) (type passive))
        (pin (num 16) (name Pin_16) (type passive))
        (pin (num 17) (name Pin_17) (type passive))
        (pin (num 18) (name Pin_18) (type passive))
        (pin (num 19) (name Pin_19) (type passive))
        (pin (num 20) (name Pin_20) (type passive))))
    (libpart (lib conn) (part Conn_02x10_Odd_Even)
      (description "Generic connector, double row, 02x10, odd/even pin numbering scheme (row 1 odd numbers, row 2 even numbers)")
      (docs ~)
      (footprints
        (fp Connector*:*2x??x*mm*)
        (fp Connector*:*2x???Pitch*)
        (fp Pin_Header_Straight_2X*)
        (fp Pin_Header_Angled_2X*)
        (fp Socket_Strip_Straight_2X*)
        (fp Socket_Strip_Angled_2X*))
      (fields
        (field (name Reference) J)
        (field (name Value) Conn_02x10_Odd_Even))
      (pins
        (pin (num 1) (name Pin_1) (type passive))
        (pin (num 2) (name Pin_2) (type passive))
        (pin (num 3) (name Pin_3) (type passive))
        (pin (num 4) (name Pin_4) (type passive))
        (pin (num 5) (name Pin_5) (type passive))
        (pin (num 6) (name Pin_6) (type passive))
        (pin (num 7) (name Pin_7) (type passive))
        (pin (num 8) (name Pin_8) (type passive))
        (pin (num 9) (name Pin_9) (type passive))
        (pin (num 10) (name Pin_10) (type passive))
        (pin (num 11) (name Pin_11) (type passive))
        (pin (num 12) (name Pin_12) (type passive))
        (pin (num 13) (name Pin_13) (type passive))
        (pin (num 14) (name Pin_14) (type passive))
        (pin (num 15) (name Pin_15) (type passive))
        (pin (num 16) (name Pin_16) (type passive))
        (pin (num 17) (name Pin_17) (type passive))
        (pin (num 18) (name Pin_18) (type passive))
        (pin (num 19) (name Pin_19) (type passive))
        (pin (num 20) (name Pin_20) (type passive))))
    (libpart (lib Retro_uC) (part IKH0404000)
      (fields
        (field (name Reference) DIP)
        (field (name Value) IKH0404000))
      (pins
        (pin (num 1) (name B1) (type power_in))
        (pin (num 2) (name B2) (type power_in))
        (pin (num 3) (name B3) (type power_in))
        (pin (num 4) (name B4) (type power_in))
        (pin (num 5) (name T4) (type BiDi))
        (pin (num 6) (name T3) (type BiDi))
        (pin (num 7) (name T2) (type BiDi))
        (pin (num 8) (name T1) (type BiDi))))
    (libpart (lib C4M) (part Retro_uC-QFN100)
      (fields
        (field (name Reference) RUC)
        (field (name Value) Retro_uC-QFN100))
      (pins
        (pin (num 1) (name PA1) (type BiDi))
        (pin (num 2) (name PA2) (type BiDi))
        (pin (num 3) (name PA3) (type BiDi))
        (pin (num 4) (name PA4) (type BiDi))
        (pin (num 5) (name PA5) (type BiDi))
        (pin (num 6) (name PA6) (type BiDi))
        (pin (num 7) (name PA7) (type BiDi))
        (pin (num 8) (name PA8) (type BiDi))
        (pin (num 9) (name PA9) (type BiDi))
        (pin (num 10) (name PA10) (type BiDi))
        (pin (num 11) (name VCORE) (type power_in))
        (pin (num 12) (name GND) (type power_in))
        (pin (num 13) (name GNDIO) (type power_in))
        (pin (num 14) (name VIO) (type power_in))
        (pin (num 15) (name TDI) (type BiDi))
        (pin (num 16) (name TDO) (type BiDi))
        (pin (num 17) (name TCK) (type BiDi))
        (pin (num 18) (name TMS) (type BiDi))
        (pin (num 19) (name TRST_N) (type BiDi))
        (pin (num 20) (name RESET_N) (type BiDi))
        (pin (num 21) (name CLK) (type BiDi))
        (pin (num 22) (name I2CBOOT) (type BiDi))
        (pin (num 23) (name ENM68K) (type BiDi))
        (pin (num 24) (name ENZ80) (type BiDi))
        (pin (num 25) (name EN6502) (type BiDi))
        (pin (num 26) (name PB1) (type BiDi))
        (pin (num 27) (name PB2) (type BiDi))
        (pin (num 28) (name PB3) (type BiDi))
        (pin (num 29) (name PB4) (type BiDi))
        (pin (num 30) (name PB5) (type BiDi))
        (pin (num 31) (name PB6) (type BiDi))
        (pin (num 32) (name PB7) (type BiDi))
        (pin (num 33) (name PB8) (type BiDi))
        (pin (num 34) (name PB9) (type BiDi))
        (pin (num 35) (name PB10) (type BiDi))
        (pin (num 36) (name VCORE) (type power_in))
        (pin (num 37) (name GND) (type power_in))
        (pin (num 38) (name GNDIO) (type power_in))
        (pin (num 39) (name VIO) (type power_in))
        (pin (num 40) (name PB11) (type BiDi))
        (pin (num 41) (name PB12) (type BiDi))
        (pin (num 42) (name PB13) (type BiDi))
        (pin (num 43) (name PB14) (type BiDi))
        (pin (num 44) (name PB15) (type BiDi))
        (pin (num 45) (name PB16) (type BiDi))
        (pin (num 46) (name PB17) (type BiDi))
        (pin (num 47) (name PB18) (type BiDi))
        (pin (num 48) (name PB19) (type BiDi))
        (pin (num 49) (name PB20) (type BiDi))
        (pin (num 50) (name PB21) (type BiDi))
        (pin (num 51) (name PC21) (type BiDi))
        (pin (num 52) (name PC20) (type BiDi))
        (pin (num 53) (name PC19) (type BiDi))
        (pin (num 54) (name PC18) (type BiDi))
        (pin (num 55) (name PC17) (type BiDi))
        (pin (num 56) (name PC16) (type BiDi))
        (pin (num 57) (name PC15) (type BiDi))
        (pin (num 58) (name PC14) (type BiDi))
        (pin (num 59) (name PC13) (type BiDi))
        (pin (num 60) (name PC12) (type BiDi))
        (pin (num 61) (name PC11) (type BiDi))
        (pin (num 62) (name VIO) (type power_in))
        (pin (num 63) (name GNDIO) (type power_in))
        (pin (num 64) (name GND) (type power_in))
        (pin (num 65) (name VCORE) (type power_in))
        (pin (num 66) (name PC10) (type BiDi))
        (pin (num 67) (name PC9) (type BiDi))
        (pin (num 68) (name PC8) (type BiDi))
        (pin (num 69) (name PC7) (type BiDi))
        (pin (num 70) (name PC6) (type BiDi))
        (pin (num 71) (name PC5) (type BiDi))
        (pin (num 72) (name PC4) (type BiDi))
        (pin (num 73) (name PC3) (type BiDi))
        (pin (num 74) (name PC2) (type BiDi))
        (pin (num 75) (name PC1) (type BiDi))
        (pin (num 76) (name PD21) (type BiDi))
        (pin (num 77) (name PD20) (type BiDi))
        (pin (num 78) (name PD19) (type BiDi))
        (pin (num 79) (name PD18) (type BiDi))
        (pin (num 80) (name PD17) (type BiDi))
        (pin (num 81) (name PD16) (type BiDi))
        (pin (num 82) (name PD15) (type BiDi))
        (pin (num 83) (name PD14) (type BiDi))
        (pin (num 84) (name PD13) (type BiDi))
        (pin (num 85) (name PD12) (type BiDi))
        (pin (num 86) (name PD11) (type BiDi))
        (pin (num 87) (name VIO) (type power_in))
        (pin (num 88) (name GNDIO) (type power_in))
        (pin (num 89) (name GND) (type power_in))
        (pin (num 90) (name VCORE) (type power_in))
        (pin (num 91) (name PD10) (type BiDi))
        (pin (num 92) (name PD9) (type BiDi))
        (pin (num 93) (name PD8) (type BiDi))
        (pin (num 94) (name PD7) (type BiDi))
        (pin (num 95) (name PD6) (type BiDi))
        (pin (num 96) (name PD5) (type BiDi))
        (pin (num 97) (name PD4) (type BiDi))
        (pin (num 98) (name PD3) (type BiDi))
        (pin (num 99) (name PD2) (type BiDi))
        (pin (num 100) (name PD1) (type BiDi))))
    (libpart (lib Retro_uC) (part VIAS_01X20_POWBB)
      (description "Generic connector, single row, 01x20")
      (docs ~)
      (footprints
        (fp Connector*:*_??x*mm*)
        (fp Connector*:*1x??x*mm*)
        (fp Pin?Header?Straight?1X*)
        (fp Pin?Header?Angled?1X*)
        (fp Socket?Strip?Straight?1X*)
        (fp Socket?Strip?Angled?1X*))
      (fields
        (field (name Reference) J)
        (field (name Value) VIAS_01X20_POWBB))
      (pins
        (pin (num 1) (name Pin_1) (type power_out))
        (pin (num 2) (name Pin_2) (type power_out))
        (pin (num 3) (name Pin_3) (type power_out))
        (pin (num 4) (name Pin_4) (type passive))
        (pin (num 5) (name Pin_5) (type passive))
        (pin (num 6) (name Pin_6) (type passive))
        (pin (num 7) (name Pin_7) (type passive))
        (pin (num 8) (name Pin_8) (type passive))
        (pin (num 9) (name Pin_9) (type passive))
        (pin (num 10) (name Pin_10) (type passive))
        (pin (num 11) (name Pin_11) (type passive))
        (pin (num 12) (name Pin_12) (type passive))
        (pin (num 13) (name Pin_13) (type passive))
        (pin (num 14) (name Pin_14) (type passive))
        (pin (num 15) (name Pin_15) (type passive))
        (pin (num 16) (name Pin_16) (type passive))
        (pin (num 17) (name Pin_17) (type passive))
        (pin (num 18) (name Pin_18) (type passive))
        (pin (num 19) (name Pin_19) (type passive))
        (pin (num 20) (name Pin_20) (type passive)))))
  (libraries
    (library (logical conn)
      (uri /usr/share/kicad/library/conn.lib))
    (library (logical Retro_uC)
      (uri /home/eda/Chips4Makers/Retro-uC/KiCad/library/Retro_uC.lib))
    (library (logical C4M)
      (uri /home/eda/Chips4Makers/Retro-uC/KiCad/library/C4M.lib)))
  (nets
    (net (code 1) (name /IO15)
      (node (ref J3) (pin 15))
      (node (ref RUC1) (pin 95)))
    (net (code 2) (name /IO25)
      (node (ref J3) (pin 6))
      (node (ref RUC1) (pin 29)))
    (net (code 3) (name /IO28)
      (node (ref RUC1) (pin 32))
      (node (ref J3) (pin 12)))
    (net (code 4) (name /IO27)
      (node (ref RUC1) (pin 31))
      (node (ref J3) (pin 10)))
    (net (code 5) (name /IO31)
      (node (ref RUC1) (pin 35))
      (node (ref J3) (pin 18)))
    (net (code 6) (name /IO30)
      (node (ref J3) (pin 16))
      (node (ref RUC1) (pin 34)))
    (net (code 7) (name /IO29)
      (node (ref J3) (pin 14))
      (node (ref RUC1) (pin 33)))
    (net (code 8) (name /IO26)
      (node (ref J3) (pin 8))
      (node (ref RUC1) (pin 30)))
    (net (code 9) (name /IO23)
      (node (ref RUC1) (pin 82))
      (node (ref J3) (pin 2)))
    (net (code 10) (name /IO24)
      (node (ref J3) (pin 4))
      (node (ref RUC1) (pin 81)))
    (net (code 11) (name /IO32)
      (node (ref J3) (pin 20))
      (node (ref RUC1) (pin 83)))
    (net (code 12) (name /IO14)
      (node (ref RUC1) (pin 96))
      (node (ref J3) (pin 17)))
    (net (code 13) (name /IO13)
      (node (ref RUC1) (pin 97))
      (node (ref J3) (pin 19)))
    (net (code 14) (name /IO16)
      (node (ref J3) (pin 13))
      (node (ref RUC1) (pin 94)))
    (net (code 15) (name /IO12)
      (node (ref J1) (pin 20))
      (node (ref RUC1) (pin 98)))
    (net (code 16) (name /IO19)
      (node (ref RUC1) (pin 91))
      (node (ref J3) (pin 7)))
    (net (code 17) (name /IO17)
      (node (ref J3) (pin 11))
      (node (ref RUC1) (pin 93)))
    (net (code 18) (name /IO21)
      (node (ref J3) (pin 3))
      (node (ref RUC1) (pin 85)))
    (net (code 19) (name /IO22)
      (node (ref RUC1) (pin 84))
      (node (ref J3) (pin 1)))
    (net (code 20) (name /IO18)
      (node (ref J3) (pin 9))
      (node (ref RUC1) (pin 92)))
    (net (code 21) (name /IO20)
      (node (ref J3) (pin 5))
      (node (ref RUC1) (pin 86)))
    (net (code 22) (name /IO68)
      (node (ref J2) (pin 5))
      (node (ref RUC1) (pin 53)))
    (net (code 23) (name /IO67)
      (node (ref RUC1) (pin 54))
      (node (ref J2) (pin 6)))
    (net (code 24) (name /IO53)
      (node (ref RUC1) (pin 55))
      (node (ref J2) (pin 20)))
    (net (code 25) (name /IO54)
      (node (ref J2) (pin 19))
      (node (ref RUC1) (pin 56)))
    (net (code 26) (name /IO66)
      (node (ref J2) (pin 7))
      (node (ref RUC1) (pin 57)))
    (net (code 27) (name /IO55)
      (node (ref J2) (pin 18))
      (node (ref RUC1) (pin 58)))
    (net (code 28) (name /IO56)
      (node (ref RUC1) (pin 59))
      (node (ref J2) (pin 17)))
    (net (code 29) (name /IO65)
      (node (ref RUC1) (pin 60))
      (node (ref J2) (pin 8)))
    (net (code 30) (name /IO69)
      (node (ref J2) (pin 4))
      (node (ref RUC1) (pin 50)))
    (net (code 31) (name /IO63)
      (node (ref J2) (pin 10))
      (node (ref RUC1) (pin 66)))
    (net (code 32) (name /IO57)
      (node (ref RUC1) (pin 51))
      (node (ref J2) (pin 16)))
    (net (code 33) (name /IO58)
      (node (ref J2) (pin 15))
      (node (ref RUC1) (pin 52)))
    (net (code 34) (name /IO59)
      (node (ref J2) (pin 14))
      (node (ref RUC1) (pin 47)))
    (net (code 35) (name /IO60)
      (node (ref J2) (pin 13))
      (node (ref RUC1) (pin 48)))
    (net (code 36) (name /IO61)
      (node (ref RUC1) (pin 49))
      (node (ref J2) (pin 12)))
    (net (code 37) (name /IO62)
      (node (ref J2) (pin 11))
      (node (ref RUC1) (pin 67)))
    (net (code 38) (name /IO64)
      (node (ref J2) (pin 9))
      (node (ref RUC1) (pin 61)))
    (net (code 39) (name /IO52)
      (node (ref RUC1) (pin 46))
      (node (ref J4) (pin 20)))
    (net (code 40) (name /IO51)
      (node (ref J4) (pin 18))
      (node (ref RUC1) (pin 45)))
    (net (code 41) (name /IO48)
      (node (ref RUC1) (pin 42))
      (node (ref J4) (pin 12)))
    (net (code 42) (name /IO49)
      (node (ref RUC1) (pin 43))
      (node (ref J4) (pin 14)))
    (net (code 43) (name /IO50)
      (node (ref RUC1) (pin 44))
      (node (ref J4) (pin 16)))
    (net (code 44) (name "Net-(RUC1-Pad26)")
      (node (ref RUC1) (pin 26)))
    (net (code 45) (name "Net-(RUC1-Pad27)")
      (node (ref RUC1) (pin 27)))
    (net (code 46) (name "Net-(RUC1-Pad28)")
      (node (ref RUC1) (pin 28)))
    (net (code 47) (name /IO43)
      (node (ref RUC1) (pin 74))
      (node (ref J4) (pin 2)))
    (net (code 48) (name /IO45)
      (node (ref RUC1) (pin 70))
      (node (ref J4) (pin 6)))
    (net (code 49) (name /IO46)
      (node (ref J4) (pin 8))
      (node (ref RUC1) (pin 69)))
    (net (code 50) (name /IO47)
      (node (ref J4) (pin 10))
      (node (ref RUC1) (pin 68)))
    (net (code 51) (name /IO44)
      (node (ref RUC1) (pin 73))
      (node (ref J4) (pin 4)))
    (net (code 52) (name /IO39)
      (node (ref RUC1) (pin 72))
      (node (ref J4) (pin 7)))
    (net (code 53) (name /IO38)
      (node (ref RUC1) (pin 71))
      (node (ref J4) (pin 9)))
    (net (code 54) (name /IO42)
      (node (ref J4) (pin 1))
      (node (ref RUC1) (pin 77)))
    (net (code 55) (name /IO41)
      (node (ref J4) (pin 3))
      (node (ref RUC1) (pin 76)))
    (net (code 56) (name /IO40)
      (node (ref J4) (pin 5))
      (node (ref RUC1) (pin 75)))
    (net (code 57) (name /IO37)
      (node (ref J4) (pin 11))
      (node (ref RUC1) (pin 40)))
    (net (code 58) (name /IO36)
      (node (ref RUC1) (pin 41))
      (node (ref J4) (pin 13)))
    (net (code 59) (name /IO33)
      (node (ref RUC1) (pin 80))
      (node (ref J4) (pin 19)))
    (net (code 60) (name /IO35)
      (node (ref RUC1) (pin 78))
      (node (ref J4) (pin 15)))
    (net (code 61) (name /IO34)
      (node (ref J4) (pin 17))
      (node (ref RUC1) (pin 79)))
    (net (code 62) (name "Net-(DIP1-Pad6)")
      (node (ref DIP1) (pin 6))
      (node (ref RUC1) (pin 24)))
    (net (code 63) (name "Net-(DIP1-Pad5)")
      (node (ref RUC1) (pin 25))
      (node (ref DIP1) (pin 5)))
    (net (code 64) (name "Net-(DIP1-Pad7)")
      (node (ref DIP1) (pin 7))
      (node (ref RUC1) (pin 23)))
    (net (code 65) (name /IO11)
      (node (ref J1) (pin 19))
      (node (ref RUC1) (pin 99)))
    (net (code 66) (name /IO10)
      (node (ref RUC1) (pin 100))
      (node (ref J1) (pin 18)))
    (net (code 67) (name /RESET)
      (node (ref RUC1) (pin 20))
      (node (ref J1) (pin 2)))
    (net (code 68) (name "Net-(DIP1-Pad8)")
      (node (ref DIP1) (pin 8))
      (node (ref RUC1) (pin 22)))
    (net (code 69) (name /IO3)
      (node (ref J1) (pin 11))
      (node (ref RUC1) (pin 7)))
    (net (code 70) (name /IO9)
      (node (ref J1) (pin 17))
      (node (ref RUC1) (pin 1)))
    (net (code 71) (name /IO8)
      (node (ref RUC1) (pin 2))
      (node (ref J1) (pin 16)))
    (net (code 72) (name /IO7)
      (node (ref RUC1) (pin 3))
      (node (ref J1) (pin 15)))
    (net (code 73) (name /IO6)
      (node (ref RUC1) (pin 4))
      (node (ref J1) (pin 14)))
    (net (code 74) (name /IO5)
      (node (ref J1) (pin 13))
      (node (ref RUC1) (pin 5)))
    (net (code 75) (name /IO4)
      (node (ref RUC1) (pin 6))
      (node (ref J1) (pin 12)))
    (net (code 76) (name /IO2)
      (node (ref RUC1) (pin 8))
      (node (ref J1) (pin 10)))
    (net (code 77) (name /IO1)
      (node (ref J1) (pin 9))
      (node (ref RUC1) (pin 9)))
    (net (code 78) (name /IO0)
      (node (ref J1) (pin 8))
      (node (ref RUC1) (pin 10)))
    (net (code 79) (name /CLK)
      (node (ref RUC1) (pin 21))
      (node (ref J1) (pin 1)))
    (net (code 80) (name /TRST)
      (node (ref J1) (pin 3))
      (node (ref RUC1) (pin 19)))
    (net (code 81) (name /TMS)
      (node (ref J1) (pin 4))
      (node (ref RUC1) (pin 18)))
    (net (code 82) (name /TCK)
      (node (ref RUC1) (pin 17))
      (node (ref J1) (pin 5)))
    (net (code 83) (name /TDO)
      (node (ref J1) (pin 6))
      (node (ref RUC1) (pin 16)))
    (net (code 84) (name +3V3)
      (node (ref RUC1) (pin 36))
      (node (ref RUC1) (pin 65))
      (node (ref RUC1) (pin 11))
      (node (ref RUC1) (pin 90))
      (node (ref J2) (pin 3)))
    (net (code 85) (name GND)
      (node (ref RUC1) (pin 89))
      (node (ref RUC1) (pin 64))
      (node (ref RUC1) (pin 63))
      (node (ref RUC1) (pin 13))
      (node (ref RUC1) (pin 12))
      (node (ref DIP1) (pin 1))
      (node (ref RUC1) (pin 37))
      (node (ref DIP1) (pin 2))
      (node (ref RUC1) (pin 38))
      (node (ref DIP1) (pin 3))
      (node (ref DIP1) (pin 4))
      (node (ref J2) (pin 1))
      (node (ref RUC1) (pin 88)))
    (net (code 86) (name +5V)
      (node (ref RUC1) (pin 87))
      (node (ref J2) (pin 2))
      (node (ref RUC1) (pin 39))
      (node (ref RUC1) (pin 14))
      (node (ref RUC1) (pin 62)))
    (net (code 87) (name /TDI)
      (node (ref RUC1) (pin 15))
      (node (ref J1) (pin 7)))))