EESchema Schematic File Version 2
LIBS:power
LIBS:device
LIBS:switches
LIBS:relays
LIBS:motors
LIBS:transistors
LIBS:conn
LIBS:linear
LIBS:regul
LIBS:74xx
LIBS:cmos4000
LIBS:adc-dac
LIBS:memory
LIBS:xilinx
LIBS:microcontrollers
LIBS:dsp
LIBS:microchip
LIBS:analog_switches
LIBS:motorola
LIBS:texas
LIBS:intel
LIBS:audio
LIBS:interface
LIBS:digital-audio
LIBS:philips
LIBS:display
LIBS:cypress
LIBS:siliconi
LIBS:opto
LIBS:atmel
LIBS:contrib
LIBS:valves
LIBS:dc-dc
LIBS:stm32
LIBS:Retro_uC
LIBS:Retro_uC-Mini_Retrino-cache
EELAYER 25 0
EELAYER END
$Descr A4 11693 8268
encoding utf-8
Sheet 1 1
Title ""
Date ""
Rev ""
Comp ""
Comment1 ""
Comment2 ""
Comment3 ""
Comment4 ""
$EndDescr
$Comp
L Conn_01x08 P4
U 1 1 5A4106A0
P 6250 1150
F 0 "P4" H 6250 1600 50  0000 C CNN
F 1 "IO" V 6350 1150 50  0000 C CNN
F 2 "Socket_Arduino_Uno:Socket_Strip_Arduino_1x08" V 6250 1150 50  0001 C CNN
F 3 "" H 6250 1150 50  0000 C CNN
	1    6250 1150
	0    -1   -1   0   
$EndComp
$Comp
L Conn_01x10 P3
U 1 1 5A4106A1
P 3950 1150
F 0 "P3" H 3950 1700 50  0000 C CNN
F 1 "IO" V 4050 1150 50  0000 C CNN
F 2 "Socket_Arduino_Uno:Socket_Strip_Arduino_1x10" V 3950 1150 50  0001 C CNN
F 3 "" H 3950 1150 50  0000 C CNN
	1    3950 1150
	0    -1   -1   0   
$EndComp
$Comp
L Conn_01x06 P2
U 1 1 5A410DB8
P 6175 6100
F 0 "P2" H 6175 6425 50  0000 C CNN
F 1 "IO" V 6275 6075 50  0000 C CNN
F 2 "Socket_Arduino_Uno:Socket_Strip_Arduino_1x06" H 6175 6100 50  0001 C CNN
F 3 "" H 6175 6100 50  0001 C CNN
	1    6175 6100
	0    -1   1    0   
$EndComp
$Comp
L Conn_01x01 P8
U 1 1 5A410FBA
P 9675 825
F 0 "P8" H 9675 925 50  0000 C CNN
F 1 "Conn_01x01" H 9675 725 50  0000 C CNN
F 2 "Socket_Arduino_Uno:Arduino_1pin" H 9675 825 50  0001 C CNN
F 3 "" H 9675 825 50  0001 C CNN
	1    9675 825 
	0    -1   -1   0   
$EndComp
$Comp
L Conn_01x01 P9
U 1 1 5A411025
P 9975 825
F 0 "P9" H 9975 925 50  0000 C CNN
F 1 "Conn_01x01" H 9975 725 50  0000 C CNN
F 2 "Socket_Arduino_Uno:Arduino_1pin" H 9975 825 50  0001 C CNN
F 3 "" H 9975 825 50  0001 C CNN
	1    9975 825 
	0    -1   -1   0   
$EndComp
$Comp
L Conn_01x01 P10
U 1 1 5A411050
P 10250 825
F 0 "P10" H 10250 925 50  0000 C CNN
F 1 "Conn_01x01" H 10250 725 50  0000 C CNN
F 2 "Socket_Arduino_Uno:Arduino_1pin" H 10250 825 50  0001 C CNN
F 3 "" H 10250 825 50  0001 C CNN
	1    10250 825 
	0    -1   -1   0   
$EndComp
$Comp
L Conn_01x01 P11
U 1 1 5A411086
P 10525 825
F 0 "P11" H 10525 925 50  0000 C CNN
F 1 "Conn_01x01" H 10525 725 50  0000 C CNN
F 2 "Socket_Arduino_Uno:Arduino_1pin" H 10525 825 50  0001 C CNN
F 3 "" H 10525 825 50  0001 C CNN
	1    10525 825 
	0    -1   -1   0   
$EndComp
NoConn ~ 9675 1025
NoConn ~ 9975 1025
NoConn ~ 10250 1025
NoConn ~ 10525 1025
Text Notes 10300 1175 0    60   ~ 0
Holes
$Comp
L Conn_01x08 P1
U 1 1 5A411348
P 5100 6100
F 0 "P1" H 5100 6550 50  0000 C CNN
F 1 "Power" V 5200 6100 50  0000 C CNN
F 2 "Socket_Arduino_Uno:Socket_Strip_Arduino_1x08" V 5100 6100 50  0001 C CNN
F 3 "" H 5100 6100 50  0000 C CNN
	1    5100 6100
	0    -1   1    0   
$EndComp
NoConn ~ 3750 1350
$Comp
L +5V #PWR01
U 1 1 5A411EA8
P 5200 5900
F 0 "#PWR01" H 5200 5750 50  0001 C CNN
F 1 "+5V" H 5200 6040 50  0000 C CNN
F 2 "" H 5200 5900 50  0001 C CNN
F 3 "" H 5200 5900 50  0001 C CNN
	1    5200 5900
	1    0    0    -1  
$EndComp
$Comp
L +3V3 #PWR02
U 1 1 5A411F16
P 5100 5900
F 0 "#PWR02" H 5100 5750 50  0001 C CNN
F 1 "+3V3" H 5100 6040 50  0000 C CNN
F 2 "" H 5100 5900 50  0001 C CNN
F 3 "" H 5100 5900 50  0001 C CNN
	1    5100 5900
	1    0    0    -1  
$EndComp
$Comp
L +5V #PWR03
U 1 1 5A41220E
P 5500 5900
F 0 "#PWR03" H 5500 5750 50  0001 C CNN
F 1 "+5V" H 5500 6040 50  0000 C CNN
F 2 "" H 5500 5900 50  0001 C CNN
F 3 "" H 5500 5900 50  0001 C CNN
	1    5500 5900
	1    0    0    -1  
$EndComp
Text Label 5000 5900 1    60   ~ 0
RESET_N
$Comp
L GND #PWR04
U 1 1 5A412343
P 5350 5750
F 0 "#PWR04" H 5350 5500 50  0001 C CNN
F 1 "GND" H 5350 5600 50  0000 C CNN
F 2 "" H 5350 5750 50  0001 C CNN
F 3 "" H 5350 5750 50  0001 C CNN
	1    5350 5750
	1    0    0    -1  
$EndComp
$Comp
L STM32F070BxT6 U1
U 1 1 5A494118
P 2975 3200
F 0 "U1" H 2975 3150 60  0000 C CNN
F 1 "STM32F070BxT6" H 2975 3250 60  0000 C CNN
F 2 "Housings_QFP:LQFP-48_7x7mm_Pitch0.5mm" H 2975 3200 60  0001 C CNN
F 3 "" H 2975 3200 60  0001 C CNN
	1    2975 3200
	1    0    0    -1  
$EndComp
Text Label 4000 3350 0    60   ~ 0
RUCCLK
Text Label 4000 3050 0    60   ~ 0
D-
Text Label 4000 2950 0    60   ~ 0
D+
Text Label 4000 3250 0    60   ~ 0
RUCRST_N
Text Label 3325 4550 1    60   ~ 0
ENM68K
Text Label 3225 4550 1    60   ~ 0
ENZ80
Text Label 3125 4550 1    60   ~ 0
EN6502
Text Label 3325 2175 1    60   ~ 0
RUCTCK
Text Label 3225 2175 1    60   ~ 0
RUCTDO
Text Label 3125 2175 1    60   ~ 0
RUCTDI
Text Label 3425 2175 1    60   ~ 0
RUCTMS
NoConn ~ 3525 2175
NoConn ~ 3025 2175
NoConn ~ 2925 2175
NoConn ~ 2725 2175
NoConn ~ 2625 2175
NoConn ~ 2000 2750
NoConn ~ 2000 2850
NoConn ~ 2000 2950
NoConn ~ 2000 3050
NoConn ~ 2000 3150
NoConn ~ 2000 3550
NoConn ~ 2000 3650
NoConn ~ 2000 3750
NoConn ~ 2425 4175
NoConn ~ 2525 4175
NoConn ~ 2625 4175
NoConn ~ 2725 4175
NoConn ~ 2825 4175
NoConn ~ 2925 4175
NoConn ~ 3025 4175
NoConn ~ 4000 3750
NoConn ~ 4000 3650
NoConn ~ 4000 3550
NoConn ~ 4000 3450
NoConn ~ 4000 3150
NoConn ~ 4000 2850
$Comp
L +3V3 #PWR017
U 1 1 5A495A9B
P 2425 2050
F 0 "#PWR017" H 2425 1900 50  0001 C CNN
F 1 "+3V3" H 2425 2190 50  0000 C CNN
F 2 "" H 2425 2050 50  0001 C CNN
F 3 "" H 2425 2050 50  0001 C CNN
	1    2425 2050
	1    0    0    -1  
$EndComp
$Comp
L +3V3 #PWR018
U 1 1 5A495AC3
P 4125 2650
F 0 "#PWR018" H 4125 2500 50  0001 C CNN
F 1 "+3V3" H 4125 2790 50  0000 C CNN
F 2 "" H 4125 2650 50  0001 C CNN
F 3 "" H 4125 2650 50  0001 C CNN
	1    4125 2650
	1    0    0    -1  
$EndComp
$Comp
L +3V3 #PWR019
U 1 1 5A495B79
P 3625 4300
F 0 "#PWR019" H 3625 4150 50  0001 C CNN
F 1 "+3V3" H 3625 4440 50  0000 C CNN
F 2 "" H 3625 4300 50  0001 C CNN
F 3 "" H 3625 4300 50  0001 C CNN
	1    3625 4300
	1    0    0    -1  
$EndComp
$Comp
L GND #PWR020
U 1 1 5A495C31
P 3425 4300
F 0 "#PWR020" H 3425 4050 50  0001 C CNN
F 1 "GND" H 3425 4150 50  0000 C CNN
F 2 "" H 3425 4300 50  0001 C CNN
F 3 "" H 3425 4300 50  0001 C CNN
	1    3425 4300
	1    0    0    -1  
$EndComp
$Comp
L GND #PWR021
U 1 1 5A495C95
P 2600 1950
F 0 "#PWR021" H 2600 1700 50  0001 C CNN
F 1 "GND" H 2600 1800 50  0000 C CNN
F 2 "" H 2600 1950 50  0001 C CNN
F 3 "" H 2600 1950 50  0001 C CNN
	1    2600 1950
	1    0    0    -1  
$EndComp
$Comp
L +3V3 #PWR022
U 1 1 5A495D7E
P 1925 2650
F 0 "#PWR022" H 1925 2500 50  0001 C CNN
F 1 "+3V3" H 1925 2790 50  0000 C CNN
F 2 "" H 1925 2650 50  0001 C CNN
F 3 "" H 1925 2650 50  0001 C CNN
	1    1925 2650
	1    0    0    -1  
$EndComp
$Comp
L GND #PWR023
U 1 1 5A495DCA
P 4125 2750
F 0 "#PWR023" H 4125 2500 50  0001 C CNN
F 1 "GND" H 4125 2600 50  0000 C CNN
F 2 "" H 4125 2750 50  0001 C CNN
F 3 "" H 4125 2750 50  0001 C CNN
	1    4125 2750
	1    0    0    -1  
$EndComp
$Comp
L GND #PWR024
U 1 1 5A495E83
P 1775 3350
F 0 "#PWR024" H 1775 3100 50  0001 C CNN
F 1 "GND" H 1775 3200 50  0000 C CNN
F 2 "" H 1775 3350 50  0001 C CNN
F 3 "" H 1775 3350 50  0001 C CNN
	1    1775 3350
	1    0    0    -1  
$EndComp
$Comp
L +3V3 #PWR025
U 1 1 5A495F3E
P 1825 3750
F 0 "#PWR025" H 1825 3600 50  0001 C CNN
F 1 "+3V3" H 1825 3890 50  0000 C CNN
F 2 "" H 1825 3750 50  0001 C CNN
F 3 "" H 1825 3750 50  0001 C CNN
	1    1825 3750
	1    0    0    -1  
$EndComp
$Comp
L SW_Push SW1
U 1 1 5A4A5DBC
P 1225 3450
F 0 "SW1" H 1275 3550 50  0000 L CNN
F 1 "SW_Push" H 1225 3390 50  0000 C CNN
F 2 "Buttons_Switches_SMD:SW_SPST_B3U-1000P" H 1225 3650 50  0001 C CNN
F 3 "" H 1225 3650 50  0001 C CNN
	1    1225 3450
	0    -1   -1   0   
$EndComp
$Comp
L GND #PWR026
U 1 1 5A4A5ECE
P 1425 3700
F 0 "#PWR026" H 1425 3450 50  0001 C CNN
F 1 "GND" H 1425 3550 50  0000 C CNN
F 2 "" H 1425 3700 50  0001 C CNN
F 3 "" H 1425 3700 50  0001 C CNN
	1    1425 3700
	1    0    0    -1  
$EndComp
$Comp
L C_Small C1
U 1 1 5A4A5EF1
P 1525 3550
F 0 "C1" H 1535 3620 50  0000 L CNN
F 1 "0.1uF,20%,16V" V 1535 3470 50  0000 C CNN
F 2 "Capacitors_SMD:C_0603" H 1525 3550 50  0001 C CNN
F 3 "" H 1525 3550 50  0001 C CNN
	1    1525 3550
	1    0    0    -1  
$EndComp
$Comp
L R_Small R1
U 1 1 5A4A615B
P 1525 3050
F 0 "R1" H 1555 3070 50  0000 L CNN
F 1 "100k,5%" H 1555 3010 50  0000 L CNN
F 2 "Resistors_SMD:R_0603" H 1525 3050 50  0001 C CNN
F 3 "" H 1525 3050 50  0001 C CNN
	1    1525 3050
	1    0    0    -1  
$EndComp
$Comp
L +3V3 #PWR027
U 1 1 5A4A61FC
P 1525 2900
F 0 "#PWR027" H 1525 2750 50  0001 C CNN
F 1 "+3V3" H 1525 3040 50  0000 C CNN
F 2 "" H 1525 2900 50  0001 C CNN
F 3 "" H 1525 2900 50  0001 C CNN
	1    1525 2900
	1    0    0    -1  
$EndComp
$Comp
L R_Small R2
U 1 1 5A4A639F
P 2825 2050
F 0 "R2" V 2775 2000 50  0000 L CNN
F 1 "100k,5%" V 2855 2010 50  0000 L CNN
F 2 "Resistors_SMD:R_0603" H 2825 2050 50  0001 C CNN
F 3 "" H 2825 2050 50  0001 C CNN
	1    2825 2050
	1    0    0    -1  
$EndComp
Text Label 1550 3250 0    60   ~ 0
RESET_N
NoConn ~ 4800 5900
$Comp
L USB_OTG_Slave J1
U 1 1 5A4A68C6
P -850 1075
F 0 "J1" H -1050 1525 50  0000 L CNN
F 1 "USB_OTG_Slave" H -1050 1425 50  0000 L CNN
F 2 "Connectors_USB:USB_Micro-B_Molex-105017-0001" H -700 1025 50  0001 C CNN
F 3 "" H -700 1025 50  0001 C CNN
	1    -850 1075
	1    0    0    -1  
$EndComp
$Comp
L GND #PWR028
U 1 1 5A4A69DB
P -850 1800
F 0 "#PWR028" H -850 1550 50  0001 C CNN
F 1 "GND" H -850 1650 50  0000 C CNN
F 2 "" H -850 1800 50  0001 C CNN
F 3 "" H -850 1800 50  0001 C CNN
	1    -850 1800
	1    0    0    -1  
$EndComp
$Comp
L R_Small R3
U 1 1 5A4A6B7B
P -400 975
F 0 "R3" H -370 995 50  0000 L CNN
F 1 "1.5k,5%" H -370 935 50  0000 L CNN
F 2 "Resistors_SMD:R_0603" H -400 975 50  0001 C CNN
F 3 "" H -400 975 50  0001 C CNN
	1    -400 975 
	1    0    0    -1  
$EndComp
NoConn ~ -550 1275
$Comp
L R_Small R4
U 1 1 5A4A6D83
P -200 1075
F 0 "R4" V -200 925 50  0000 L CNN
F 1 "22R,5%" V -175 1025 50  0000 L CNN
F 2 "Resistors_SMD:R_0603" H -200 1075 50  0001 C CNN
F 3 "" H -200 1075 50  0001 C CNN
	1    -200 1075
	0    1    1    0   
$EndComp
$Comp
L R_Small R5
U 1 1 5A4A6EC4
P -200 1175
F 0 "R5" V -200 1025 50  0000 L CNN
F 1 "22R,5%" V -170 1135 50  0000 L CNN
F 2 "Resistors_SMD:R_0603" H -200 1175 50  0001 C CNN
F 3 "" H -200 1175 50  0001 C CNN
	1    -200 1175
	0    1    1    0   
$EndComp
Text Label 250  1075 2    60   ~ 0
D+
Text Label 250  1175 2    60   ~ 0
D-
$Comp
L LD1117S33TR U2
U 1 1 5A4A7333
P 950 875
F 0 "U2" H 800 1000 50  0000 C CNN
F 1 "LD1117S33TR" H 950 1000 50  0000 L CNN
F 2 "TO_SOT_Packages_SMD:SOT-223-3Lead_TabPin2" H 950 1075 50  0001 C CNN
F 3 "" H 1050 625 50  0001 C CNN
	1    950  875 
	1    0    0    -1  
$EndComp
$Comp
L GND #PWR029
U 1 1 5A4A7463
P 950 1275
F 0 "#PWR029" H 950 1025 50  0001 C CNN
F 1 "GND" H 950 1125 50  0000 C CNN
F 2 "" H 950 1275 50  0001 C CNN
F 3 "" H 950 1275 50  0001 C CNN
	1    950  1275
	1    0    0    -1  
$EndComp
$Comp
L C_Small C2
U 1 1 5A4A755A
P 550 1175
F 0 "C2" H 560 1245 50  0000 L CNN
F 1 "10uF,20%,16V" H 550 1150 50  0000 C CNN
F 2 "Capacitors_SMD:C_1206" H 550 1175 50  0001 C CNN
F 3 "" H 550 1175 50  0001 C CNN
	1    550  1175
	1    0    0    -1  
$EndComp
$Comp
L C_Small C3
U 1 1 5A4A7816
P 1350 1175
F 0 "C3" H 1360 1245 50  0000 L CNN
F 1 "10uF,20%,16V" H 1350 1150 50  0000 C CNN
F 2 "Capacitors_SMD:C_1206" H 1350 1175 50  0001 C CNN
F 3 "" H 1350 1175 50  0001 C CNN
	1    1350 1175
	1    0    0    -1  
$EndComp
$Comp
L +5V #PWR030
U 1 1 5A4A7A40
P 75 825
F 0 "#PWR030" H 75  675 50  0001 C CNN
F 1 "+5V" H 75  965 50  0000 C CNN
F 2 "" H 75  825 50  0001 C CNN
F 3 "" H 75  825 50  0001 C CNN
	1    75   825 
	1    0    0    -1  
$EndComp
$Comp
L +3V3 #PWR031
U 1 1 5A4A7A8A
P 1350 825
F 0 "#PWR031" H 1350 675 50  0001 C CNN
F 1 "+3V3" H 1350 965 50  0000 C CNN
F 2 "" H 1350 825 50  0001 C CNN
F 3 "" H 1350 825 50  0001 C CNN
	1    1350 825 
	1    0    0    -1  
$EndComp
Wire Wire Line
	5000 5900 5000 5500
Wire Wire Line
	5300 5900 5300 5750
Wire Wire Line
	5300 5750 5350 5750
Wire Wire Line
	5350 5750 5400 5750
Wire Wire Line
	5400 5750 5400 5900
Wire Wire Line
	4000 3350 4425 3350
Wire Wire Line
	4000 3050 4425 3050
Wire Wire Line
	4000 2950 4425 2950
Wire Wire Line
	4000 3250 4425 3250
Wire Wire Line
	3325 4175 3325 4550
Wire Wire Line
	3225 4550 3225 4175
Wire Wire Line
	3125 4175 3125 4550
Wire Wire Line
	3325 2175 3325 1750
Wire Wire Line
	3225 2175 3225 1750
Wire Wire Line
	3125 1750 3125 2175
Wire Wire Line
	3425 2175 3425 1750
Wire Wire Line
	4000 2750 4125 2750
Wire Wire Line
	4125 2650 4000 2650
Wire Wire Line
	2525 1950 2525 2175
Wire Wire Line
	2425 2050 2425 2175
Wire Wire Line
	2000 2650 1925 2650
Wire Wire Line
	3525 4175 3525 4300
Wire Wire Line
	3525 4300 3625 4300
Wire Wire Line
	3425 4300 3425 4175
Wire Wire Line
	2525 1950 2600 1950
Wire Wire Line
	2600 1950 2825 1950
Wire Wire Line
	2000 3350 1775 3350
Wire Wire Line
	2000 3450 1950 3450
Wire Wire Line
	1950 3450 1950 3750
Wire Wire Line
	1950 3750 1825 3750
Wire Wire Line
	1225 3250 1525 3250
Wire Wire Line
	1525 3250 2000 3250
Wire Wire Line
	1525 3150 1525 3250
Wire Wire Line
	1525 3250 1525 3450
Connection ~ 1525 3250
Wire Wire Line
	1525 3700 1525 3650
Wire Wire Line
	1225 3700 1425 3700
Wire Wire Line
	1425 3700 1525 3700
Wire Wire Line
	1225 3700 1225 3650
Connection ~ 1425 3700
Wire Wire Line
	1525 2950 1525 2900
Connection ~ 2600 1950
Wire Wire Line
	2825 2150 2825 2175
Wire Wire Line
	-850 1475 -850 1750
Wire Wire Line
	-850 1750 -850 1800
Wire Wire Line
	-950 1475 -950 1750
Wire Wire Line
	-950 1750 -850 1750
Connection ~ -850 1750
Wire Wire Line
	-550 1075 -400 1075
Wire Wire Line
	-400 1075 -300 1075
Connection ~ -400 1075
Wire Wire Line
	-550 1175 -300 1175
Wire Wire Line
	-100 1075 250  1075
Wire Wire Line
	-100 1175 250  1175
Connection ~ -400 875 
Wire Wire Line
	950  1125 950  1275
Wire Wire Line
	550  825  550  875 
Wire Wire Line
	550  875  550  1075
Connection ~ 550  875 
Wire Wire Line
	550  1275 950  1275
Wire Wire Line
	950  1275 1350 1275
Connection ~ 950  1275
Wire Wire Line
	1350 825  1350 875 
Wire Wire Line
	1350 875  1350 1075
Connection ~ 1350 875 
NoConn ~ 3850 1350
Text Label -850 1700 1    60   ~ 0
GND
Wire Wire Line
	75   875  75   825 
Connection ~ 75   875 
Text Label -525 875  0    60   ~ 0
5V
Text Label 1350 1025 1    60   ~ 0
3V3
Wire Wire Line
	5350 5750 5350 5750
Connection ~ 5350 5750
Wire Wire Line
	-550 875  -400 875 
Wire Wire Line
	-400 875  75   875 
Wire Wire Line
	75   875  550  875 
$Comp
L C_Small C4
U 1 1 5A4ABD15
P 950 6800
F 0 "C4" H 960 6870 50  0000 L CNN
F 1 "0.1uF,20%,16V" V 960 6720 50  0000 C CNN
F 2 "Capacitors_SMD:C_0603" H 950 6800 50  0001 C CNN
F 3 "" H 950 6800 50  0001 C CNN
	1    950  6800
	1    0    0    -1  
$EndComp
$Comp
L C_Small C5
U 1 1 5A4ABE6A
P 1175 6800
F 0 "C5" H 1185 6870 50  0000 L CNN
F 1 "0.1uF,20%,16V" V 1185 6720 50  0000 C CNN
F 2 "Capacitors_SMD:C_0603" H 1175 6800 50  0001 C CNN
F 3 "" H 1175 6800 50  0001 C CNN
	1    1175 6800
	1    0    0    -1  
$EndComp
$Comp
L C_Small C6
U 1 1 5A4ABED4
P 1375 6800
F 0 "C6" H 1385 6870 50  0000 L CNN
F 1 "0.1uF,20%,16V" V 1385 6720 50  0000 C CNN
F 2 "Capacitors_SMD:C_0603" H 1375 6800 50  0001 C CNN
F 3 "" H 1375 6800 50  0001 C CNN
	1    1375 6800
	1    0    0    -1  
$EndComp
$Comp
L C_Small C7
U 1 1 5A4ABFB8
P 1675 6800
F 0 "C7" H 1685 6870 50  0000 L CNN
F 1 "0.1uF,20%,16V" V 1685 6720 50  0000 C CNN
F 2 "Capacitors_SMD:C_0603" H 1675 6800 50  0001 C CNN
F 3 "" H 1675 6800 50  0001 C CNN
	1    1675 6800
	1    0    0    -1  
$EndComp
$Comp
L C_Small C8
U 1 1 5A4AC028
P 1875 6800
F 0 "C8" H 1885 6870 50  0000 L CNN
F 1 "0.1uF,20%,16V" V 1885 6720 50  0000 C CNN
F 2 "Capacitors_SMD:C_0603" H 1875 6800 50  0001 C CNN
F 3 "" H 1875 6800 50  0001 C CNN
	1    1875 6800
	1    0    0    -1  
$EndComp
$Comp
L C_Small C9
U 1 1 5A4AC091
P 2075 6800
F 0 "C9" H 2085 6870 50  0000 L CNN
F 1 "0.1uF,20%,16V" V 2085 6720 50  0000 C CNN
F 2 "Capacitors_SMD:C_0603" H 2075 6800 50  0001 C CNN
F 3 "" H 2075 6800 50  0001 C CNN
	1    2075 6800
	1    0    0    -1  
$EndComp
Wire Wire Line
	2075 7200 2075 6900
Wire Wire Line
	950  7200 1175 7200
Wire Wire Line
	1175 7200 1375 7200
Wire Wire Line
	1375 7200 1525 7200
Wire Wire Line
	1525 7200 1675 7200
Wire Wire Line
	1675 7200 1875 7200
Wire Wire Line
	1875 7200 2075 7200
Wire Wire Line
	950  7200 950  6900
Wire Wire Line
	1175 6900 1175 7200
Connection ~ 1175 7200
Wire Wire Line
	1375 6900 1375 7200
Connection ~ 1375 7200
Wire Wire Line
	1675 6900 1675 7200
Connection ~ 1675 7200
Wire Wire Line
	1875 6900 1875 7200
Connection ~ 1875 7200
Wire Wire Line
	2075 6525 2075 6700
Wire Wire Line
	1675 6525 1875 6525
Wire Wire Line
	1875 6525 2075 6525
Wire Wire Line
	1675 6525 1675 6700
Wire Wire Line
	1875 6475 1875 6525
Wire Wire Line
	1875 6525 1875 6700
Connection ~ 1875 6525
Wire Wire Line
	1375 6525 1375 6700
Wire Wire Line
	950  6525 1175 6525
Wire Wire Line
	1175 6525 1375 6525
Wire Wire Line
	950  6525 950  6700
Wire Wire Line
	1175 6475 1175 6525
Wire Wire Line
	1175 6525 1175 6700
Connection ~ 1175 6525
$Comp
L GND #PWR032
U 1 1 5A4AC873
P 1525 7225
F 0 "#PWR032" H 1525 6975 50  0001 C CNN
F 1 "GND" H 1525 7075 50  0000 C CNN
F 2 "" H 1525 7225 50  0001 C CNN
F 3 "" H 1525 7225 50  0001 C CNN
	1    1525 7225
	1    0    0    -1  
$EndComp
Wire Wire Line
	1525 7225 1525 7200
Connection ~ 1525 7200
$Comp
L +3V3 #PWR033
U 1 1 5A4AC9A1
P 1175 6475
F 0 "#PWR033" H 1175 6325 50  0001 C CNN
F 1 "+3V3" H 1175 6615 50  0000 C CNN
F 2 "" H 1175 6475 50  0001 C CNN
F 3 "" H 1175 6475 50  0001 C CNN
	1    1175 6475
	1    0    0    -1  
$EndComp
$Comp
L +5V #PWR034
U 1 1 5A4AC9ED
P 1875 6475
F 0 "#PWR034" H 1875 6325 50  0001 C CNN
F 1 "+5V" H 1875 6615 50  0000 C CNN
F 2 "" H 1875 6475 50  0001 C CNN
F 3 "" H 1875 6475 50  0001 C CNN
	1    1875 6475
	1    0    0    -1  
$EndComp
$Comp
L +5V #PWR?
U 1 1 5A5A25DA
P 4900 5900
F 0 "#PWR?" H 4900 5750 50  0001 C CNN
F 1 "+5V" H 4900 6040 50  0000 C CNN
F 2 "" H 4900 5900 50  0001 C CNN
F 3 "" H 4900 5900 50  0001 C CNN
	1    4900 5900
	1    0    0    -1  
$EndComp
$Comp
L Conn_01x01 P12
U 1 1 5A5A264D
P 10800 825
F 0 "P12" H 10800 925 50  0000 C CNN
F 1 "Conn_01x01" H 10800 725 50  0000 C CNN
F 2 "Socket_Arduino_Uno:Arduino_1pin" H 10800 825 50  0001 C CNN
F 3 "" H 10800 825 50  0001 C CNN
	1    10800 825 
	0    -1   -1   0   
$EndComp
$Comp
L Conn_01x01 P13
U 1 1 5A5A274B
P 11075 825
F 0 "P13" H 11075 925 50  0000 C CNN
F 1 "Conn_01x01" H 11075 725 50  0000 C CNN
F 2 "Socket_Arduino_Uno:Arduino_1pin" H 11075 825 50  0001 C CNN
F 3 "" H 11075 825 50  0001 C CNN
	1    11075 825 
	0    -1   -1   0   
$EndComp
NoConn ~ 10800 1025
NoConn ~ 11075 1025
$EndSCHEMATC
