EESchema Schematic File Version 2
LIBS:Retro_uC-Mini_Retrino-rescue
LIBS:power
LIBS:device
LIBS:switches
LIBS:relays
LIBS:motors
LIBS:transistors
LIBS:conn
LIBS:linear
LIBS:regul
LIBS:74xx
LIBS:cmos4000
LIBS:adc-dac
LIBS:memory
LIBS:xilinx
LIBS:microcontrollers
LIBS:dsp
LIBS:microchip
LIBS:analog_switches
LIBS:motorola
LIBS:texas
LIBS:intel
LIBS:audio
LIBS:interface
LIBS:digital-audio
LIBS:philips
LIBS:display
LIBS:cypress
LIBS:siliconi
LIBS:opto
LIBS:atmel
LIBS:contrib
LIBS:valves
LIBS:dc-dc
LIBS:stm32
LIBS:Retro_uC
LIBS:Retro_uC-Mini_Retrino-cache
EELAYER 25 0
EELAYER END
$Descr A4 11693 8268
encoding utf-8
Sheet 1 1
Title ""
Date ""
Rev ""
Comp ""
Comment1 ""
Comment2 ""
Comment3 ""
Comment4 ""
$EndDescr
$Comp
L Conn_01x08 P4
U 1 1 5A4106A0
P 6250 1150
F 0 "P4" H 6250 1600 50  0000 C CNN
F 1 "Digital" V 6350 1150 50  0000 C CNN
F 2 "Socket_Arduino_Uno:Socket_Strip_Arduino_1x08" V 6250 1150 50  0001 C CNN
F 3 "" H 6250 1150 50  0000 C CNN
	1    6250 1150
	0    -1   -1   0   
$EndComp
$Comp
L Conn_01x10 P3
U 1 1 5A4106A1
P 3950 1150
F 0 "P3" H 3950 1700 50  0000 C CNN
F 1 "Digital" V 4050 1150 50  0000 C CNN
F 2 "Socket_Arduino_Uno:Socket_Strip_Arduino_1x10" V 3950 1150 50  0001 C CNN
F 3 "" H 3950 1150 50  0000 C CNN
	1    3950 1150
	0    -1   -1   0   
$EndComp
$Comp
L Retro_uC-Mini_QFN RuC1
U 1 1 5A410798
P 5150 3225
F 0 "RuC1" H 5150 3150 60  0000 C CNN
F 1 "Retro_uC-Mini_QFN" H 5150 3275 60  0000 C CNN
F 2 "Retro_uC:QFN_48" H 5475 3225 60  0001 C CNN
F 3 "" H 5475 3225 60  0000 C CNN
	1    5150 3225
	-1   0    0    1   
$EndComp
$Comp
L Conn_01x06 P2
U 1 1 5A410DB8
P 5875 5300
F 0 "P2" H 5875 5625 50  0000 C CNN
F 1 "Analog" V 5975 5275 50  0000 C CNN
F 2 "Socket_Arduino_Uno:Socket_Strip_Arduino_1x06" H 5875 5300 50  0001 C CNN
F 3 "" H 5875 5300 50  0001 C CNN
	1    5875 5300
	0    -1   1    0   
$EndComp
$Comp
L Conn_01x01 P5
U 1 1 5A410FBA
P 9675 825
F 0 "P5" H 9675 925 50  0000 C CNN
F 1 "Conn_01x01" H 9675 725 50  0000 C CNN
F 2 "Socket_Arduino_Uno:Arduino_1pin" H 9675 825 50  0001 C CNN
F 3 "" H 9675 825 50  0001 C CNN
	1    9675 825 
	0    -1   -1   0   
$EndComp
$Comp
L Conn_01x01 P6
U 1 1 5A411025
P 9925 825
F 0 "P6" H 9925 925 50  0000 C CNN
F 1 "Conn_01x01" H 9925 725 50  0000 C CNN
F 2 "Socket_Arduino_Uno:Arduino_1pin" H 9925 825 50  0001 C CNN
F 3 "" H 9925 825 50  0001 C CNN
	1    9925 825 
	0    -1   -1   0   
$EndComp
$Comp
L Conn_01x01 P7
U 1 1 5A411050
P 10175 825
F 0 "P7" H 10175 925 50  0000 C CNN
F 1 "Conn_01x01" H 10175 725 50  0000 C CNN
F 2 "Socket_Arduino_Uno:Arduino_1pin" H 10175 825 50  0001 C CNN
F 3 "" H 10175 825 50  0001 C CNN
	1    10175 825 
	0    -1   -1   0   
$EndComp
$Comp
L Conn_01x01 P8
U 1 1 5A411086
P 10450 825
F 0 "P8" H 10450 925 50  0000 C CNN
F 1 "Conn_01x01" H 10450 725 50  0000 C CNN
F 2 "Socket_Arduino_Uno:Arduino_1pin" H 10450 825 50  0001 C CNN
F 3 "" H 10450 825 50  0001 C CNN
	1    10450 825 
	0    -1   -1   0   
$EndComp
NoConn ~ 9675 1025
NoConn ~ 9925 1025
NoConn ~ 10175 1025
NoConn ~ 10450 1025
Text Notes 10000 1250 0    60   ~ 0
Holes
$Comp
L Conn_01x08 P1
U 1 1 5A411348
P 4800 5300
F 0 "P1" H 4800 5750 50  0000 C CNN
F 1 "Power" V 4900 5300 50  0000 C CNN
F 2 "Socket_Arduino_Uno:Socket_Strip_Arduino_1x08" V 4800 5300 50  0001 C CNN
F 3 "" H 4800 5300 50  0000 C CNN
	1    4800 5300
	0    -1   1    0   
$EndComp
Text Label 5600 4400 1    60   ~ 0
A0
Text Label 5700 4375 1    60   ~ 0
A1
Text Label 5925 4200 0    60   ~ 0
A2
Text Label 6050 4300 0    60   ~ 0
A3
Text Label 6125 4400 0    60   ~ 0
A4
Text Label 6225 4500 0    60   ~ 0
A5
NoConn ~ 3750 1350
Text Label 6225 2975 0    60   ~ 0
D0
Text Label 6225 2875 0    60   ~ 0
D1
Text Label 6225 2775 0    60   ~ 0
D2
Text Label 6225 2675 0    60   ~ 0
D3
Text Label 5725 1850 0    60   ~ 0
D4
Text Label 5675 1750 0    60   ~ 0
D5
Text Label 5600 1650 0    60   ~ 0
D6
Text Label 5550 1550 0    60   ~ 0
D7
Text Label 4150 2100 0    60   ~ 0
D8
Text Label 4050 2000 0    60   ~ 0
D9
Text Label 3975 1900 0    60   ~ 0
D10
Text Label 3900 1800 0    60   ~ 0
D11
Text Label 3825 1700 0    60   ~ 0
D12
Text Label 3750 1600 0    60   ~ 0
D13
Text Label 3450 1500 0    60   ~ 0
SDA
Text Label 3350 1400 0    60   ~ 0
SCL
$Comp
L +5V #PWR01
U 1 1 5A411EA8
P 4900 5100
F 0 "#PWR01" H 4900 4950 50  0001 C CNN
F 1 "+5V" H 4900 5240 50  0000 C CNN
F 2 "" H 4900 5100 50  0001 C CNN
F 3 "" H 4900 5100 50  0001 C CNN
	1    4900 5100
	1    0    0    -1  
$EndComp
$Comp
L +3V3 #PWR02
U 1 1 5A411F16
P 4800 5100
F 0 "#PWR02" H 4800 4950 50  0001 C CNN
F 1 "+3V3" H 4800 5240 50  0000 C CNN
F 2 "" H 4800 5100 50  0001 C CNN
F 3 "" H 4800 5100 50  0001 C CNN
	1    4800 5100
	1    0    0    -1  
$EndComp
Text Label 5500 4575 1    60   ~ 0
RUCRST_N
Text Label 5400 4575 1    60   ~ 0
RUCCLK
Text Label 4900 4575 1    60   ~ 0
RUCTMS
Text Label 4800 4575 1    60   ~ 0
RUCTCK
Text Label 4700 4575 1    60   ~ 0
RUCTDO
Text Label 4600 4575 1    60   ~ 0
RUCTDI
$Comp
L +5V #PWR03
U 1 1 5A41220E
P 5200 5100
F 0 "#PWR03" H 5200 4950 50  0001 C CNN
F 1 "+5V" H 5200 5240 50  0000 C CNN
F 2 "" H 5200 5100 50  0001 C CNN
F 3 "" H 5200 5100 50  0001 C CNN
	1    5200 5100
	1    0    0    -1  
$EndComp
Text Label 4700 5100 1    60   ~ 0
RESET_N
$Comp
L GND #PWR04
U 1 1 5A412343
P 5050 4950
F 0 "#PWR04" H 5050 4700 50  0001 C CNN
F 1 "GND" H 5050 4800 50  0000 C CNN
F 2 "" H 5050 4950 50  0001 C CNN
F 3 "" H 5050 4950 50  0001 C CNN
	1    5050 4950
	1    0    0    -1  
$EndComp
$Comp
L +3V3 #PWR05
U 1 1 5A412369
P 4900 4800
F 0 "#PWR05" H 4900 4650 50  0001 C CNN
F 1 "+3V3" H 4900 4940 50  0000 C CNN
F 2 "" H 4900 4800 50  0001 C CNN
F 3 "" H 4900 4800 50  0001 C CNN
	1    4900 4800
	1    0    0    -1  
$EndComp
$Comp
L +5V #PWR06
U 1 1 5A4123ED
P 5400 4800
F 0 "#PWR06" H 5400 4650 50  0001 C CNN
F 1 "+5V" H 5400 4940 50  0000 C CNN
F 2 "" H 5400 4800 50  0001 C CNN
F 3 "" H 5400 4800 50  0001 C CNN
	1    5400 4800
	1    0    0    -1  
$EndComp
$Comp
L GND #PWR07
U 1 1 5A4124D6
P 5150 4475
F 0 "#PWR07" H 5150 4225 50  0001 C CNN
F 1 "GND" H 5150 4325 50  0000 C CNN
F 2 "" H 5150 4475 50  0001 C CNN
F 3 "" H 5150 4475 50  0001 C CNN
	1    5150 4475
	1    0    0    -1  
$EndComp
$Comp
L +3V3 #PWR08
U 1 1 5A41258F
P 3700 3075
F 0 "#PWR08" H 3700 2925 50  0001 C CNN
F 1 "+3V3" H 3700 3215 50  0000 C CNN
F 2 "" H 3700 3075 50  0001 C CNN
F 3 "" H 3700 3075 50  0001 C CNN
	1    3700 3075
	1    0    0    -1  
$EndComp
$Comp
L +5V #PWR09
U 1 1 5A4125BE
P 3700 3375
F 0 "#PWR09" H 3700 3225 50  0001 C CNN
F 1 "+5V" H 3700 3515 50  0000 C CNN
F 2 "" H 3700 3375 50  0001 C CNN
F 3 "" H 3700 3375 50  0001 C CNN
	1    3700 3375
	1    0    0    -1  
$EndComp
$Comp
L GND #PWR010
U 1 1 5A41264A
P 3850 3175
F 0 "#PWR010" H 3850 2925 50  0001 C CNN
F 1 "GND" H 3850 3025 50  0000 C CNN
F 2 "" H 3850 3175 50  0001 C CNN
F 3 "" H 3850 3175 50  0001 C CNN
	1    3850 3175
	1    0    0    -1  
$EndComp
$Comp
L +3V3 #PWR011
U 1 1 5A412752
P 6750 3075
F 0 "#PWR011" H 6750 2925 50  0001 C CNN
F 1 "+3V3" H 6750 3215 50  0000 C CNN
F 2 "" H 6750 3075 50  0001 C CNN
F 3 "" H 6750 3075 50  0001 C CNN
	1    6750 3075
	1    0    0    -1  
$EndComp
$Comp
L +5V #PWR012
U 1 1 5A412850
P 6750 3375
F 0 "#PWR012" H 6750 3225 50  0001 C CNN
F 1 "+5V" H 6750 3515 50  0000 C CNN
F 2 "" H 6750 3375 50  0001 C CNN
F 3 "" H 6750 3375 50  0001 C CNN
	1    6750 3375
	1    0    0    -1  
$EndComp
$Comp
L GND #PWR013
U 1 1 5A412876
P 6550 3175
F 0 "#PWR013" H 6550 2925 50  0001 C CNN
F 1 "GND" H 6550 3025 50  0000 C CNN
F 2 "" H 6550 3175 50  0001 C CNN
F 3 "" H 6550 3175 50  0001 C CNN
	1    6550 3175
	1    0    0    -1  
$EndComp
Text Label 4800 2250 1    60   ~ 0
ENM68K
Text Label 4900 2250 1    60   ~ 0
ENZ80
Text Label 5400 2250 1    60   ~ 0
EN6502
$Comp
L +3V3 #PWR014
U 1 1 5A412BF2
P 5000 1900
F 0 "#PWR014" H 5000 1750 50  0001 C CNN
F 1 "+3V3" H 5000 2040 50  0000 C CNN
F 2 "" H 5000 1900 50  0001 C CNN
F 3 "" H 5000 1900 50  0001 C CNN
	1    5000 1900
	1    0    0    -1  
$EndComp
$Comp
L +5V #PWR015
U 1 1 5A412D7D
P 5300 1900
F 0 "#PWR015" H 5300 1750 50  0001 C CNN
F 1 "+5V" H 5300 2040 50  0000 C CNN
F 2 "" H 5300 1900 50  0001 C CNN
F 3 "" H 5300 1900 50  0001 C CNN
	1    5300 1900
	1    0    0    -1  
$EndComp
$Comp
L GND #PWR016
U 1 1 5A412DA3
P 5150 2075
F 0 "#PWR016" H 5150 1825 50  0001 C CNN
F 1 "GND" H 5150 1925 50  0000 C CNN
F 2 "" H 5150 2075 50  0001 C CNN
F 3 "" H 5150 2075 50  0001 C CNN
	1    5150 2075
	1    0    0    -1  
$EndComp
$Comp
L STM32F070BxT6 U1
U 1 1 5A494118
P 8900 3250
F 0 "U1" H 8900 3200 60  0000 C CNN
F 1 "STM32F070BxT6" H 8900 3300 60  0000 C CNN
F 2 "Housings_QFP:LQFP-48_7x7mm_Pitch0.5mm" H 8900 3250 60  0001 C CNN
F 3 "" H 8900 3250 60  0001 C CNN
	1    8900 3250
	1    0    0    -1  
$EndComp
Text Label 9925 3400 0    60   ~ 0
RUCCLK
Text Label 9925 3100 0    60   ~ 0
D-
Text Label 9925 3000 0    60   ~ 0
D+
Text Label 9925 3300 0    60   ~ 0
RUCRST_N
Text Label 9250 4600 1    60   ~ 0
ENM68K
Text Label 9150 4600 1    60   ~ 0
ENZ80
Text Label 9050 4600 1    60   ~ 0
EN6502
Text Label 9250 2225 1    60   ~ 0
RUCTCK
Text Label 9150 2225 1    60   ~ 0
RUCTDO
Text Label 9050 2225 1    60   ~ 0
RUCTDI
Text Label 9350 2225 1    60   ~ 0
RUCTMS
NoConn ~ 9450 2225
NoConn ~ 8950 2225
NoConn ~ 8850 2225
NoConn ~ 8650 2225
NoConn ~ 8550 2225
NoConn ~ 7925 2800
NoConn ~ 7925 2900
NoConn ~ 7925 3000
NoConn ~ 7925 3100
NoConn ~ 7925 3200
NoConn ~ 7925 3600
NoConn ~ 7925 3700
NoConn ~ 7925 3800
NoConn ~ 8350 4225
NoConn ~ 8450 4225
NoConn ~ 8550 4225
NoConn ~ 8650 4225
NoConn ~ 8750 4225
NoConn ~ 8850 4225
NoConn ~ 8950 4225
NoConn ~ 9925 3800
NoConn ~ 9925 3700
NoConn ~ 9925 3600
NoConn ~ 9925 3500
NoConn ~ 9925 3200
NoConn ~ 9925 2900
$Comp
L +3V3 #PWR017
U 1 1 5A495A9B
P 8350 2100
F 0 "#PWR017" H 8350 1950 50  0001 C CNN
F 1 "+3V3" H 8350 2240 50  0000 C CNN
F 2 "" H 8350 2100 50  0001 C CNN
F 3 "" H 8350 2100 50  0001 C CNN
	1    8350 2100
	1    0    0    -1  
$EndComp
$Comp
L +3V3 #PWR018
U 1 1 5A495AC3
P 10050 2700
F 0 "#PWR018" H 10050 2550 50  0001 C CNN
F 1 "+3V3" H 10050 2840 50  0000 C CNN
F 2 "" H 10050 2700 50  0001 C CNN
F 3 "" H 10050 2700 50  0001 C CNN
	1    10050 2700
	1    0    0    -1  
$EndComp
$Comp
L +3V3 #PWR019
U 1 1 5A495B79
P 9550 4350
F 0 "#PWR019" H 9550 4200 50  0001 C CNN
F 1 "+3V3" H 9550 4490 50  0000 C CNN
F 2 "" H 9550 4350 50  0001 C CNN
F 3 "" H 9550 4350 50  0001 C CNN
	1    9550 4350
	1    0    0    -1  
$EndComp
$Comp
L GND #PWR020
U 1 1 5A495C31
P 9350 4350
F 0 "#PWR020" H 9350 4100 50  0001 C CNN
F 1 "GND" H 9350 4200 50  0000 C CNN
F 2 "" H 9350 4350 50  0001 C CNN
F 3 "" H 9350 4350 50  0001 C CNN
	1    9350 4350
	1    0    0    -1  
$EndComp
$Comp
L GND #PWR021
U 1 1 5A495C95
P 8525 2000
F 0 "#PWR021" H 8525 1750 50  0001 C CNN
F 1 "GND" H 8525 1850 50  0000 C CNN
F 2 "" H 8525 2000 50  0001 C CNN
F 3 "" H 8525 2000 50  0001 C CNN
	1    8525 2000
	1    0    0    -1  
$EndComp
$Comp
L +3V3 #PWR022
U 1 1 5A495D7E
P 7850 2700
F 0 "#PWR022" H 7850 2550 50  0001 C CNN
F 1 "+3V3" H 7850 2840 50  0000 C CNN
F 2 "" H 7850 2700 50  0001 C CNN
F 3 "" H 7850 2700 50  0001 C CNN
	1    7850 2700
	1    0    0    -1  
$EndComp
$Comp
L GND #PWR023
U 1 1 5A495DCA
P 10050 2800
F 0 "#PWR023" H 10050 2550 50  0001 C CNN
F 1 "GND" H 10050 2650 50  0000 C CNN
F 2 "" H 10050 2800 50  0001 C CNN
F 3 "" H 10050 2800 50  0001 C CNN
	1    10050 2800
	1    0    0    -1  
$EndComp
$Comp
L GND #PWR024
U 1 1 5A495E83
P 7700 3400
F 0 "#PWR024" H 7700 3150 50  0001 C CNN
F 1 "GND" H 7700 3250 50  0000 C CNN
F 2 "" H 7700 3400 50  0001 C CNN
F 3 "" H 7700 3400 50  0001 C CNN
	1    7700 3400
	1    0    0    -1  
$EndComp
$Comp
L +3V3 #PWR025
U 1 1 5A495F3E
P 7750 3800
F 0 "#PWR025" H 7750 3650 50  0001 C CNN
F 1 "+3V3" H 7750 3940 50  0000 C CNN
F 2 "" H 7750 3800 50  0001 C CNN
F 3 "" H 7750 3800 50  0001 C CNN
	1    7750 3800
	1    0    0    -1  
$EndComp
$Comp
L SW_Push SW1
U 1 1 5A4A5DBC
P 7000 3500
F 0 "SW1" H 7050 3600 50  0000 L CNN
F 1 "SW_Push" H 7000 3440 50  0000 C CNN
F 2 "Buttons_Switches_SMD:SW_SPST_B3U-1000P" H 7000 3700 50  0001 C CNN
F 3 "" H 7000 3700 50  0001 C CNN
	1    7000 3500
	0    -1   -1   0   
$EndComp
$Comp
L GND #PWR026
U 1 1 5A4A5ECE
P 7200 3750
F 0 "#PWR026" H 7200 3500 50  0001 C CNN
F 1 "GND" H 7200 3600 50  0000 C CNN
F 2 "" H 7200 3750 50  0001 C CNN
F 3 "" H 7200 3750 50  0001 C CNN
	1    7200 3750
	1    0    0    -1  
$EndComp
$Comp
L C_Small C1
U 1 1 5A4A5EF1
P 7300 3600
F 0 "C1" H 7310 3670 50  0000 L CNN
F 1 "0.1uF,20%,16V" H 7310 3520 50  0000 L CNN
F 2 "Capacitors_SMD:C_0603" H 7300 3600 50  0001 C CNN
F 3 "" H 7300 3600 50  0001 C CNN
	1    7300 3600
	1    0    0    -1  
$EndComp
$Comp
L R_Small R1
U 1 1 5A4A615B
P 7300 3100
F 0 "R1" H 7330 3120 50  0000 L CNN
F 1 "100k,5%" H 7330 3060 50  0000 L CNN
F 2 "Resistors_SMD:R_0603" H 7300 3100 50  0001 C CNN
F 3 "" H 7300 3100 50  0001 C CNN
	1    7300 3100
	1    0    0    -1  
$EndComp
$Comp
L +3V3 #PWR027
U 1 1 5A4A61FC
P 7300 2950
F 0 "#PWR027" H 7300 2800 50  0001 C CNN
F 1 "+3V3" H 7300 3090 50  0000 C CNN
F 2 "" H 7300 2950 50  0001 C CNN
F 3 "" H 7300 2950 50  0001 C CNN
	1    7300 2950
	1    0    0    -1  
$EndComp
$Comp
L R_Small R2
U 1 1 5A4A639F
P 8750 2100
F 0 "R2" V 8700 2050 50  0000 L CNN
F 1 "100k,5%" V 8780 2060 50  0000 L CNN
F 2 "Resistors_SMD:R_0603" H 8750 2100 50  0001 C CNN
F 3 "" H 8750 2100 50  0001 C CNN
	1    8750 2100
	1    0    0    -1  
$EndComp
Text Label 7475 3300 0    60   ~ 0
RESET_N
NoConn ~ 4500 5100
NoConn ~ 4600 5100
$Comp
L USB_OTG_Slave J1
U 1 1 5A4A68C6
P 7600 5250
F 0 "J1" H 7400 5700 50  0000 L CNN
F 1 "USB_OTG_Slave" H 7400 5600 50  0000 L CNN
F 2 "Connectors_USB:USB_Micro-B_Molex-105017-0001" H 7750 5200 50  0001 C CNN
F 3 "" H 7750 5200 50  0001 C CNN
	1    7600 5250
	1    0    0    -1  
$EndComp
$Comp
L GND #PWR028
U 1 1 5A4A69DB
P 7600 5975
F 0 "#PWR028" H 7600 5725 50  0001 C CNN
F 1 "GND" H 7600 5825 50  0000 C CNN
F 2 "" H 7600 5975 50  0001 C CNN
F 3 "" H 7600 5975 50  0001 C CNN
	1    7600 5975
	1    0    0    -1  
$EndComp
$Comp
L R_Small R3
U 1 1 5A4A6B7B
P 8050 5150
F 0 "R3" H 8080 5170 50  0000 L CNN
F 1 "1.5k,5%" H 8080 5110 50  0000 L CNN
F 2 "Resistors_SMD:R_0603" H 8050 5150 50  0001 C CNN
F 3 "" H 8050 5150 50  0001 C CNN
	1    8050 5150
	1    0    0    -1  
$EndComp
NoConn ~ 7900 5450
$Comp
L R_Small R4
U 1 1 5A4A6D83
P 8250 5250
F 0 "R4" V 8250 5100 50  0000 L CNN
F 1 "22R,5%" V 8275 5200 50  0000 L CNN
F 2 "Resistors_SMD:R_0603" H 8250 5250 50  0001 C CNN
F 3 "" H 8250 5250 50  0001 C CNN
	1    8250 5250
	0    1    1    0   
$EndComp
$Comp
L R_Small R5
U 1 1 5A4A6EC4
P 8250 5350
F 0 "R5" V 8250 5200 50  0000 L CNN
F 1 "22R,5%" V 8280 5310 50  0000 L CNN
F 2 "Resistors_SMD:R_0603" H 8250 5350 50  0001 C CNN
F 3 "" H 8250 5350 50  0001 C CNN
	1    8250 5350
	0    1    1    0   
$EndComp
Text Label 8700 5250 2    60   ~ 0
D+
Text Label 8700 5350 2    60   ~ 0
D-
$Comp
L LD1117S33TR U2
U 1 1 5A4A7333
P 9850 5050
F 0 "U2" H 9700 5175 50  0000 C CNN
F 1 "LD1117S33TR" H 9850 5175 50  0000 L CNN
F 2 "TO_SOT_Packages_SMD:SOT-223-3Lead_TabPin2" H 9850 5250 50  0001 C CNN
F 3 "" H 9950 4800 50  0001 C CNN
	1    9850 5050
	1    0    0    -1  
$EndComp
$Comp
L GND #PWR029
U 1 1 5A4A7463
P 9850 5450
F 0 "#PWR029" H 9850 5200 50  0001 C CNN
F 1 "GND" H 9850 5300 50  0000 C CNN
F 2 "" H 9850 5450 50  0001 C CNN
F 3 "" H 9850 5450 50  0001 C CNN
	1    9850 5450
	1    0    0    -1  
$EndComp
$Comp
L C_Small C2
U 1 1 5A4A755A
P 9450 5350
F 0 "C2" H 9460 5420 50  0000 L CNN
F 1 "10uF,20%,16V" H 9450 5325 50  0000 C CNN
F 2 "Capacitors_SMD:C_1206" H 9450 5350 50  0001 C CNN
F 3 "" H 9450 5350 50  0001 C CNN
	1    9450 5350
	1    0    0    -1  
$EndComp
$Comp
L C_Small C3
U 1 1 5A4A7816
P 10250 5350
F 0 "C3" H 10260 5420 50  0000 L CNN
F 1 "10uF,20%,16V" H 10250 5325 50  0000 C CNN
F 2 "Capacitors_SMD:C_1206" H 10250 5350 50  0001 C CNN
F 3 "" H 10250 5350 50  0001 C CNN
	1    10250 5350
	1    0    0    -1  
$EndComp
$Comp
L +5V #PWR030
U 1 1 5A4A7A40
P 8525 5000
F 0 "#PWR030" H 8525 4850 50  0001 C CNN
F 1 "+5V" H 8525 5140 50  0000 C CNN
F 2 "" H 8525 5000 50  0001 C CNN
F 3 "" H 8525 5000 50  0001 C CNN
	1    8525 5000
	1    0    0    -1  
$EndComp
$Comp
L +3V3 #PWR031
U 1 1 5A4A7A8A
P 10250 5000
F 0 "#PWR031" H 10250 4850 50  0001 C CNN
F 1 "+3V3" H 10250 5140 50  0000 C CNN
F 2 "" H 10250 5000 50  0001 C CNN
F 3 "" H 10250 5000 50  0001 C CNN
	1    10250 5000
	1    0    0    -1  
$EndComp
Wire Wire Line
	5600 4225 5600 4475
Wire Wire Line
	5600 4475 5675 4475
Wire Wire Line
	5675 4475 5675 5100
Wire Wire Line
	5700 4225 5700 4425
Wire Wire Line
	5700 4425 5775 4425
Wire Wire Line
	5775 4425 5775 5100
Wire Wire Line
	6125 3775 6125 4200
Wire Wire Line
	6125 4200 5875 4200
Wire Wire Line
	5875 4200 5875 5100
Wire Wire Line
	6125 3675 6200 3675
Wire Wire Line
	6200 3675 6200 4300
Wire Wire Line
	6200 4300 5975 4300
Wire Wire Line
	5975 4300 5975 5100
Wire Wire Line
	6125 3575 6300 3575
Wire Wire Line
	6300 3575 6300 4400
Wire Wire Line
	6300 4400 6075 4400
Wire Wire Line
	6075 4400 6075 5100
Wire Wire Line
	6125 3475 6400 3475
Wire Wire Line
	6400 3475 6400 4500
Wire Wire Line
	6400 4500 6175 4500
Wire Wire Line
	6175 4500 6175 5100
Wire Wire Line
	6125 2975 6650 2975
Wire Wire Line
	6650 2975 6650 1350
Wire Wire Line
	6550 1350 6550 2875
Wire Wire Line
	6550 2875 6125 2875
Wire Wire Line
	6125 2775 6450 2775
Wire Wire Line
	6450 2775 6450 1350
Wire Wire Line
	6350 1350 6350 2675
Wire Wire Line
	6350 2675 6125 2675
Wire Wire Line
	6250 1350 6250 1850
Wire Wire Line
	6250 1850 5700 1850
Wire Wire Line
	5700 1850 5700 2250
Wire Wire Line
	6150 1350 6150 1750
Wire Wire Line
	6150 1750 5600 1750
Wire Wire Line
	5600 1750 5600 2250
Wire Wire Line
	6050 1350 6050 1650
Wire Wire Line
	6050 1650 4700 1650
Wire Wire Line
	4700 1650 4700 2250
Wire Wire Line
	5950 1550 5950 1350
Wire Wire Line
	4600 1550 5950 1550
Wire Wire Line
	4600 1550 4600 2250
Wire Wire Line
	4175 2675 4050 2675
Wire Wire Line
	4050 2675 4050 2100
Wire Wire Line
	4050 2100 4450 2100
Wire Wire Line
	4450 2100 4450 1350
Wire Wire Line
	4350 1350 4350 2000
Wire Wire Line
	4350 2000 3950 2000
Wire Wire Line
	3950 2000 3950 2775
Wire Wire Line
	3950 2775 4175 2775
Wire Wire Line
	4250 1350 4250 1900
Wire Wire Line
	4250 1900 3850 1900
Wire Wire Line
	3850 1900 3850 2875
Wire Wire Line
	3850 2875 4175 2875
Wire Wire Line
	4175 2975 3750 2975
Wire Wire Line
	3750 2975 3750 1800
Wire Wire Line
	3750 1800 4150 1800
Wire Wire Line
	4150 1800 4150 1350
Wire Wire Line
	4050 1700 4050 1350
Wire Wire Line
	3650 1700 4050 1700
Wire Wire Line
	3650 1700 3650 3475
Wire Wire Line
	3650 3475 4175 3475
Wire Wire Line
	3950 1350 3950 1600
Wire Wire Line
	3950 1600 3550 1600
Wire Wire Line
	3550 1600 3550 3575
Wire Wire Line
	3550 3575 4175 3575
Wire Wire Line
	3650 1350 3650 1500
Wire Wire Line
	3650 1500 3450 1500
Wire Wire Line
	3450 1500 3450 3675
Wire Wire Line
	3450 3675 4175 3675
Wire Wire Line
	4175 3775 3350 3775
Wire Wire Line
	3350 3775 3350 1400
Wire Wire Line
	3350 1400 3550 1400
Wire Wire Line
	3550 1400 3550 1350
Wire Wire Line
	5500 4225 5500 4600
Wire Wire Line
	5400 4225 5400 4600
Wire Wire Line
	4900 4225 4900 4600
Wire Wire Line
	4800 4225 4800 4600
Wire Wire Line
	4700 4225 4700 4600
Wire Wire Line
	4600 4225 4600 4600
Wire Wire Line
	4700 5100 4700 4700
Wire Wire Line
	5000 5100 5000 4950
Wire Wire Line
	5000 4950 5100 4950
Wire Wire Line
	5100 4950 5100 5100
Wire Wire Line
	4900 4800 5000 4800
Wire Wire Line
	5000 4800 5000 4225
Wire Wire Line
	5400 4800 5300 4800
Wire Wire Line
	5300 4800 5300 4225
Wire Wire Line
	5200 4450 5200 4225
Wire Wire Line
	5100 4450 5200 4450
Wire Wire Line
	5100 4450 5100 4225
Wire Wire Line
	4175 3075 3700 3075
Wire Wire Line
	3700 3375 4175 3375
Wire Wire Line
	3850 3175 4175 3175
Wire Wire Line
	4175 3275 4050 3275
Wire Wire Line
	4050 3275 4050 3175
Connection ~ 4050 3175
Wire Wire Line
	6750 3075 6125 3075
Wire Wire Line
	6125 3375 6750 3375
Wire Wire Line
	6125 3175 6550 3175
Wire Wire Line
	6125 3275 6300 3275
Wire Wire Line
	6300 3275 6300 3175
Connection ~ 6300 3175
Wire Wire Line
	4800 2250 4800 1800
Wire Wire Line
	4900 1800 4900 2250
Wire Wire Line
	5400 2250 5400 1800
Wire Wire Line
	5000 1900 5000 2250
Wire Wire Line
	5100 2250 5100 2050
Wire Wire Line
	5100 2050 5200 2050
Wire Wire Line
	5200 1700 5200 2250
Wire Wire Line
	5300 2250 5300 1900
Wire Wire Line
	9925 3400 10350 3400
Wire Wire Line
	9925 3100 10350 3100
Wire Wire Line
	9925 3000 10350 3000
Wire Wire Line
	5500 1700 5200 1700
Connection ~ 5200 2050
Wire Wire Line
	9925 3300 10350 3300
Wire Wire Line
	9250 4225 9250 4600
Wire Wire Line
	9150 4600 9150 4225
Wire Wire Line
	9050 4225 9050 4600
Wire Wire Line
	9250 2225 9250 1800
Wire Wire Line
	9150 2225 9150 1800
Wire Wire Line
	9050 1800 9050 2225
Wire Wire Line
	9350 2225 9350 1800
Wire Wire Line
	9925 2800 10050 2800
Wire Wire Line
	10050 2700 9925 2700
Wire Wire Line
	8450 2000 8450 2225
Wire Wire Line
	8350 2100 8350 2225
Wire Wire Line
	7925 2700 7850 2700
Wire Wire Line
	9450 4225 9450 4350
Wire Wire Line
	9450 4350 9550 4350
Wire Wire Line
	9350 4350 9350 4225
Wire Wire Line
	8450 2000 8750 2000
Wire Wire Line
	7925 3400 7700 3400
Wire Wire Line
	7925 3500 7875 3500
Wire Wire Line
	7875 3500 7875 3800
Wire Wire Line
	7875 3800 7750 3800
Wire Wire Line
	7000 3300 7925 3300
Wire Wire Line
	7300 3200 7300 3500
Connection ~ 7300 3300
Wire Wire Line
	7300 3750 7300 3700
Wire Wire Line
	7000 3750 7300 3750
Wire Wire Line
	7000 3750 7000 3700
Connection ~ 7200 3750
Wire Wire Line
	7300 3000 7300 2950
Connection ~ 8525 2000
Wire Wire Line
	8750 2200 8750 2225
Wire Wire Line
	7600 5650 7600 5975
Wire Wire Line
	7500 5650 7500 5925
Wire Wire Line
	7500 5925 7600 5925
Connection ~ 7600 5925
Wire Wire Line
	7900 5250 8150 5250
Connection ~ 8050 5250
Wire Wire Line
	7900 5350 8150 5350
Wire Wire Line
	8350 5250 8700 5250
Wire Wire Line
	8350 5350 8700 5350
Connection ~ 8050 5050
Wire Wire Line
	9850 5300 9850 5450
Wire Wire Line
	9450 5000 9450 5250
Connection ~ 9450 5050
Wire Wire Line
	9450 5450 10250 5450
Connection ~ 9850 5450
Wire Wire Line
	10250 5000 10250 5250
Connection ~ 10250 5050
NoConn ~ 3850 1350
Text Label 7600 5875 1    60   ~ 0
GND
Wire Wire Line
	8525 5000 8525 5050
Connection ~ 8525 5050
Text Label 7925 5050 0    60   ~ 0
5V
Text Label 10250 5200 1    60   ~ 0
3V3
$Comp
L R_Small R6
U 1 1 5A4A9C37
P 5500 2100
F 0 "R6" V 5450 2050 50  0000 L CNN
F 1 "100k,5%" V 5530 2060 50  0000 L CNN
F 2 "Resistors_SMD:R_0603" H 5500 2100 50  0001 C CNN
F 3 "" H 5500 2100 50  0001 C CNN
	1    5500 2100
	1    0    0    -1  
$EndComp
Wire Wire Line
	5500 2200 5500 2250
Wire Wire Line
	5500 2000 5500 1700
Wire Wire Line
	5150 2075 5150 2050
Connection ~ 5150 2050
Wire Wire Line
	5150 4475 5150 4450
Connection ~ 5150 4450
Wire Wire Line
	5050 4950 5050 4950
Connection ~ 5050 4950
Wire Wire Line
	7900 5050 9450 5050
$Comp
L C_Small C4
U 1 1 5A4ABD15
P 1425 4275
F 0 "C4" H 1435 4345 50  0000 L CNN
F 1 "0.1uF,20%,16V" V 1435 4195 50  0000 C CNN
F 2 "Capacitors_SMD:C_0603" H 1425 4275 50  0001 C CNN
F 3 "" H 1425 4275 50  0001 C CNN
	1    1425 4275
	1    0    0    -1  
$EndComp
$Comp
L C_Small C5
U 1 1 5A4ABE6A
P 1650 4275
F 0 "C5" H 1660 4345 50  0000 L CNN
F 1 "0.1uF,20%,16V" V 1660 4195 50  0000 C CNN
F 2 "Capacitors_SMD:C_0603" H 1650 4275 50  0001 C CNN
F 3 "" H 1650 4275 50  0001 C CNN
	1    1650 4275
	1    0    0    -1  
$EndComp
$Comp
L C_Small C6
U 1 1 5A4ABED4
P 1850 4275
F 0 "C6" H 1860 4345 50  0000 L CNN
F 1 "0.1uF,20%,16V" V 1860 4195 50  0000 C CNN
F 2 "Capacitors_SMD:C_0603" H 1850 4275 50  0001 C CNN
F 3 "" H 1850 4275 50  0001 C CNN
	1    1850 4275
	1    0    0    -1  
$EndComp
$Comp
L C_Small C7
U 1 1 5A4ABFB8
P 2150 4275
F 0 "C7" H 2160 4345 50  0000 L CNN
F 1 "0.1uF,20%,16V" V 2160 4195 50  0000 C CNN
F 2 "Capacitors_SMD:C_0603" H 2150 4275 50  0001 C CNN
F 3 "" H 2150 4275 50  0001 C CNN
	1    2150 4275
	1    0    0    -1  
$EndComp
$Comp
L C_Small C8
U 1 1 5A4AC028
P 2350 4275
F 0 "C8" H 2360 4345 50  0000 L CNN
F 1 "0.1uF,20%,16V" V 2360 4195 50  0000 C CNN
F 2 "Capacitors_SMD:C_0603" H 2350 4275 50  0001 C CNN
F 3 "" H 2350 4275 50  0001 C CNN
	1    2350 4275
	1    0    0    -1  
$EndComp
$Comp
L C_Small C9
U 1 1 5A4AC091
P 2550 4275
F 0 "C9" H 2560 4345 50  0000 L CNN
F 1 "0.1uF,20%,16V" V 2560 4195 50  0000 C CNN
F 2 "Capacitors_SMD:C_0603" H 2550 4275 50  0001 C CNN
F 3 "" H 2550 4275 50  0001 C CNN
	1    2550 4275
	1    0    0    -1  
$EndComp
Wire Wire Line
	2550 4375 2550 4675
Wire Wire Line
	2550 4675 1425 4675
Wire Wire Line
	1425 4675 1425 4375
Wire Wire Line
	1650 4375 1650 4675
Connection ~ 1650 4675
Wire Wire Line
	1850 4375 1850 4675
Connection ~ 1850 4675
Wire Wire Line
	2150 4375 2150 4675
Connection ~ 2150 4675
Wire Wire Line
	2350 4375 2350 4675
Connection ~ 2350 4675
Wire Wire Line
	2550 4175 2550 4000
Wire Wire Line
	2550 4000 2150 4000
Wire Wire Line
	2150 4000 2150 4175
Wire Wire Line
	2350 3950 2350 4175
Connection ~ 2350 4000
Wire Wire Line
	1850 4175 1850 4000
Wire Wire Line
	1850 4000 1425 4000
Wire Wire Line
	1425 4000 1425 4175
Wire Wire Line
	1650 3950 1650 4175
Connection ~ 1650 4000
$Comp
L GND #PWR032
U 1 1 5A4AC873
P 2000 4700
F 0 "#PWR032" H 2000 4450 50  0001 C CNN
F 1 "GND" H 2000 4550 50  0000 C CNN
F 2 "" H 2000 4700 50  0001 C CNN
F 3 "" H 2000 4700 50  0001 C CNN
	1    2000 4700
	1    0    0    -1  
$EndComp
Wire Wire Line
	2000 4700 2000 4675
Connection ~ 2000 4675
$Comp
L +3V3 #PWR033
U 1 1 5A4AC9A1
P 1650 3950
F 0 "#PWR033" H 1650 3800 50  0001 C CNN
F 1 "+3V3" H 1650 4090 50  0000 C CNN
F 2 "" H 1650 3950 50  0001 C CNN
F 3 "" H 1650 3950 50  0001 C CNN
	1    1650 3950
	1    0    0    -1  
$EndComp
$Comp
L +5V #PWR034
U 1 1 5A4AC9ED
P 2350 3950
F 0 "#PWR034" H 2350 3800 50  0001 C CNN
F 1 "+5V" H 2350 4090 50  0000 C CNN
F 2 "" H 2350 3950 50  0001 C CNN
F 3 "" H 2350 3950 50  0001 C CNN
	1    2350 3950
	1    0    0    -1  
$EndComp
$EndSCHEMATC
