EESchema Schematic File Version 2
LIBS:power
LIBS:device
LIBS:switches
LIBS:relays
LIBS:motors
LIBS:transistors
LIBS:conn
LIBS:linear
LIBS:regul
LIBS:74xx
LIBS:cmos4000
LIBS:adc-dac
LIBS:memory
LIBS:xilinx
LIBS:microcontrollers
LIBS:dsp
LIBS:microchip
LIBS:analog_switches
LIBS:motorola
LIBS:texas
LIBS:intel
LIBS:audio
LIBS:interface
LIBS:digital-audio
LIBS:philips
LIBS:display
LIBS:cypress
LIBS:siliconi
LIBS:opto
LIBS:atmel
LIBS:contrib
LIBS:valves
LIBS:Retro_uC
LIBS:Retro_uC-PerfMini-cache
EELAYER 25 0
EELAYER END
$Descr A4 11693 8268
encoding utf-8
Sheet 1 1
Title ""
Date ""
Rev ""
Comp ""
Comment1 ""
Comment2 ""
Comment3 ""
Comment4 ""
$EndDescr
$Comp
L PERF+_20_25_R PRF1
U 1 1 5A1219D2
P 3450 3925
F 0 "PRF1" V 3100 4450 60  0000 C CNN
F 1 "PERF+_20_25_R" V 3100 3425 60  0000 C CNN
F 2 "Retro_uC:PERF+_20_25_R" H 3450 3850 60  0001 C CNN
F 3 "" H 3450 3850 60  0001 C CNN
	1    3450 3925
	1    0    0    -1  
$EndComp
$Comp
L Retro_uC-mini DIE1
U 1 1 5A121A19
P 5675 3925
F 0 "DIE1" H 5675 3850 60  0000 C CNN
F 1 "Retro_uC-mini" H 5675 3975 60  0000 C CNN
F 2 "Retro_uC:COBWB_48_60_90" H 6000 3925 60  0001 C CNN
F 3 "" H 6000 3925 60  0000 C CNN
	1    5675 3925
	1    0    0    -1  
$EndComp
$Comp
L PERF+_20_25_L PRF2
U 1 1 5A121A7E
P 7825 3925
F 0 "PRF2" V 8175 4450 60  0000 C CNN
F 1 "PERF+_20_25_L" V 8175 3425 60  0000 C CNN
F 2 "Retro_uC:PERF+_20_25_L" H 7825 3850 60  0001 C CNN
F 3 "" H 7825 3850 60  0001 C CNN
	1    7825 3925
	1    0    0    -1  
$EndComp
Wire Wire Line
	3650 3875 4325 3875
Wire Wire Line
	4325 3875 4325 3675
Wire Wire Line
	4325 3675 4700 3675
Wire Wire Line
	3650 3775 4275 3775
Wire Wire Line
	4275 3775 4275 3575
Wire Wire Line
	4275 3575 4700 3575
Wire Wire Line
	3650 3675 4225 3675
Wire Wire Line
	4225 3675 4225 3475
Wire Wire Line
	4225 3475 4700 3475
Wire Wire Line
	3650 3575 4175 3575
Wire Wire Line
	4175 3575 4175 3375
Wire Wire Line
	4175 3375 4700 3375
Wire Wire Line
	3650 3475 4125 3475
Wire Wire Line
	4125 3475 4125 2875
Wire Wire Line
	4125 2875 5125 2875
Wire Wire Line
	5125 2875 5125 2925
Wire Wire Line
	5225 2925 5225 2825
Wire Wire Line
	5225 2825 4075 2825
Wire Wire Line
	4075 2825 4075 3375
Wire Wire Line
	4075 3375 3650 3375
Wire Wire Line
	3650 3275 4025 3275
Wire Wire Line
	4025 3275 4025 2775
Wire Wire Line
	4025 2775 5325 2775
Wire Wire Line
	5325 2775 5325 2925
Wire Wire Line
	5425 2925 5425 2725
Wire Wire Line
	5425 2725 3975 2725
Wire Wire Line
	3975 2725 3975 3175
Wire Wire Line
	3975 3175 3650 3175
Wire Wire Line
	3650 3975 4325 3975
Wire Wire Line
	4325 3975 4325 4175
Wire Wire Line
	4325 4175 4700 4175
Wire Wire Line
	3650 4075 4275 4075
Wire Wire Line
	4275 4075 4275 4275
Wire Wire Line
	4275 4275 4700 4275
Wire Wire Line
	4700 4375 4225 4375
Wire Wire Line
	4225 4375 4225 4175
Wire Wire Line
	4225 4175 3650 4175
Wire Wire Line
	3650 4275 4175 4275
Wire Wire Line
	4175 4275 4175 4475
Wire Wire Line
	4175 4475 4700 4475
Wire Wire Line
	3650 4375 4125 4375
Wire Wire Line
	4125 4375 4125 4975
Wire Wire Line
	4125 4975 5125 4975
Wire Wire Line
	5125 4975 5125 4900
Wire Wire Line
	5225 4900 5225 5025
Wire Wire Line
	5225 5025 4075 5025
Wire Wire Line
	4075 5025 4075 4475
Wire Wire Line
	4075 4475 3650 4475
Wire Wire Line
	3650 4575 4025 4575
Wire Wire Line
	4025 4575 4025 5075
Wire Wire Line
	4025 5075 5325 5075
Wire Wire Line
	5325 5075 5325 4900
Wire Wire Line
	5425 4900 5425 5125
Wire Wire Line
	5425 5125 3975 5125
Wire Wire Line
	3975 5125 3975 4675
Wire Wire Line
	3975 4675 3650 4675
Wire Wire Line
	6650 3675 6975 3675
Wire Wire Line
	6975 3675 6975 3875
Wire Wire Line
	6975 3875 7625 3875
Wire Wire Line
	7625 3775 7025 3775
Wire Wire Line
	7025 3775 7025 3575
Wire Wire Line
	7025 3575 6650 3575
Wire Wire Line
	6650 3475 7075 3475
Wire Wire Line
	7075 3475 7075 3675
Wire Wire Line
	7075 3675 7625 3675
Wire Wire Line
	7625 3575 7125 3575
Wire Wire Line
	7125 3575 7125 3375
Wire Wire Line
	7125 3375 6650 3375
Wire Wire Line
	7625 3475 7175 3475
Wire Wire Line
	7175 3475 7175 2875
Wire Wire Line
	7175 2875 6225 2875
Wire Wire Line
	6225 2875 6225 2925
Wire Wire Line
	6125 2925 6125 2925
Wire Wire Line
	6125 2925 6125 2825
Wire Wire Line
	6125 2825 7225 2825
Wire Wire Line
	7225 2825 7225 3375
Wire Wire Line
	7225 3375 7625 3375
Wire Wire Line
	7625 3275 7275 3275
Wire Wire Line
	7275 3275 7275 2775
Wire Wire Line
	7275 2775 6025 2775
Wire Wire Line
	6025 2775 6025 2925
Wire Wire Line
	5925 2925 5925 2750
Wire Wire Line
	5925 2750 7325 2750
Wire Wire Line
	7325 2750 7325 3175
Wire Wire Line
	7325 3175 7625 3175
Wire Wire Line
	7625 3975 6975 3975
Wire Wire Line
	6975 3975 6975 4175
Wire Wire Line
	6975 4175 6650 4175
Wire Wire Line
	7025 4275 6650 4275
Wire Wire Line
	7025 4075 7025 4275
Wire Wire Line
	7025 4075 7625 4075
Wire Wire Line
	7625 4175 7075 4175
Wire Wire Line
	7075 4175 7075 4375
Wire Wire Line
	7075 4375 6650 4375
Wire Wire Line
	6650 4475 7125 4475
Wire Wire Line
	7125 4475 7125 4275
Wire Wire Line
	7125 4275 7625 4275
Wire Wire Line
	7625 4375 7175 4375
Wire Wire Line
	7175 4375 7175 4975
Wire Wire Line
	7175 4975 6225 4975
Wire Wire Line
	6225 4975 6225 4900
Wire Wire Line
	6125 4900 6125 5025
Wire Wire Line
	6125 5025 7225 5025
Wire Wire Line
	7225 5025 7225 4475
Wire Wire Line
	7225 4475 7625 4475
Wire Wire Line
	7625 4575 7275 4575
Wire Wire Line
	7275 4575 7275 5075
Wire Wire Line
	7275 5075 6025 5075
Wire Wire Line
	6025 5075 6025 4900
Wire Wire Line
	5925 4900 5925 5125
Wire Wire Line
	5925 5125 7325 5125
Wire Wire Line
	7325 5125 7325 4675
Wire Wire Line
	7325 4675 7625 4675
Wire Wire Line
	6650 3775 6925 3775
Wire Wire Line
	6650 3975 6925 3975
Wire Wire Line
	6650 4075 6925 4075
Wire Wire Line
	6650 3875 6650 3975
Wire Wire Line
	4700 3775 4425 3775
Wire Wire Line
	4700 3975 4425 3975
Wire Wire Line
	4425 4075 4700 4075
Wire Wire Line
	5525 2925 5525 2675
Wire Wire Line
	5725 2925 5725 2675
Wire Wire Line
	5825 2675 5825 2925
Wire Wire Line
	5525 4900 5525 5175
Wire Wire Line
	5725 5175 5725 4900
Wire Wire Line
	5825 4900 5825 5175
Wire Wire Line
	4700 3875 4700 3975
Wire Wire Line
	5625 2925 5725 2925
Wire Wire Line
	5725 4900 5625 4900
Text Label 4425 3775 0    60   ~ 0
VIO
Text Label 4425 3975 0    60   ~ 0
GND
Text Label 4425 4075 0    60   ~ 0
VCORE
Text Label 5825 2675 3    60   ~ 0
VCORE
Text Label 5725 2675 3    60   ~ 0
GND
Text Label 5525 2675 3    60   ~ 0
VIO
Text Label 5525 5175 1    60   ~ 0
VIO
Text Label 5725 5175 1    60   ~ 0
GND
Text Label 5825 5175 1    60   ~ 0
VCORE
Text Label 6925 3775 2    60   ~ 0
VIO
Text Label 6925 3975 2    60   ~ 0
GND
Text Label 6925 4075 2    60   ~ 0
VCORE
NoConn ~ 3650 2975
NoConn ~ 3650 3075
NoConn ~ 3650 4775
NoConn ~ 7625 4775
Wire Wire Line
	3650 4875 3950 4875
Text Label 3950 4875 2    60   ~ 0
GND
Wire Wire Line
	7625 4875 7350 4875
Text Label 7350 4875 0    60   ~ 0
GND
Wire Wire Line
	7625 2975 7350 2975
Wire Wire Line
	7350 3075 7625 3075
Text Label 7350 3075 0    60   ~ 0
VCORE
Text Label 7350 2975 0    60   ~ 0
VIO
$Comp
L Fiducial F1
U 1 1 5A12D485
P 10800 725
F 0 "F1" H 10800 675 60  0000 C CNN
F 1 "Fiducial" H 10800 750 60  0000 C CNN
F 2 "Retro_uC:Fiducial" H 10800 675 60  0001 C CNN
F 3 "" H 10800 675 60  0000 C CNN
	1    10800 725 
	1    0    0    -1  
$EndComp
$Comp
L Fiducial F2
U 1 1 5A12D4EE
P 10800 975
F 0 "F2" H 10800 925 60  0000 C CNN
F 1 "Fiducial" H 10800 1000 60  0000 C CNN
F 2 "Retro_uC:Fiducial" H 10800 925 60  0001 C CNN
F 3 "" H 10800 925 60  0000 C CNN
	1    10800 975 
	1    0    0    -1  
$EndComp
$Comp
L Fiducial F3
U 1 1 5A12D50D
P 10800 1250
F 0 "F3" H 10800 1200 60  0000 C CNN
F 1 "Fiducial" H 10800 1275 60  0000 C CNN
F 2 "Retro_uC:Fiducial" H 10800 1200 60  0001 C CNN
F 3 "" H 10800 1200 60  0000 C CNN
	1    10800 1250
	1    0    0    -1  
$EndComp
$EndSCHEMATC
