EESchema Schematic File Version 2
LIBS:power
LIBS:device
LIBS:transistors
LIBS:conn
LIBS:linear
LIBS:regul
LIBS:74xx
LIBS:cmos4000
LIBS:adc-dac
LIBS:memory
LIBS:xilinx
LIBS:microcontrollers
LIBS:dsp
LIBS:microchip
LIBS:analog_switches
LIBS:motorola
LIBS:texas
LIBS:intel
LIBS:audio
LIBS:interface
LIBS:digital-audio
LIBS:philips
LIBS:display
LIBS:cypress
LIBS:siliconi
LIBS:opto
LIBS:atmel
LIBS:contrib
LIBS:valves
LIBS:C4M
LIBS:Retro_uC
LIBS:Retro_uC-Retrino-cache
EELAYER 25 0
EELAYER END
$Descr A4 11693 8268
encoding utf-8
Sheet 1 1
Title ""
Date ""
Rev ""
Comp ""
Comment1 ""
Comment2 ""
Comment3 ""
Comment4 ""
$EndDescr
$Comp
L Conn_01x08 P6
U 1 1 5A4106A0
P 6200 600
F 0 "P6" H 6200 1050 50  0000 C CNN
F 1 "IO" V 6300 600 50  0000 C CNN
F 2 "Socket_Arduino_Mega:Socket_Strip_Arduino_1x08" V 6200 600 50  0001 C CNN
F 3 "" H 6200 600 50  0000 C CNN
F 4 "PPTC081LFBN-RC" H 6200 600 60  0001 C CNN "MPN"
	1    6200 600 
	0    -1   -1   0   
$EndComp
$Comp
L Conn_01x10 P5
U 1 1 5A4106A1
P 3400 600
F 0 "P5" H 3400 1150 50  0000 C CNN
F 1 "IO" V 3500 600 50  0000 C CNN
F 2 "Socket_Arduino_Mega:Socket_Strip_Arduino_1x10" V 3400 600 50  0001 C CNN
F 3 "" H 3400 600 50  0000 C CNN
F 4 "PPTC101LFBN-RC" H 3400 600 60  0001 C CNN "MPN"
	1    3400 600 
	0    -1   -1   0   
$EndComp
$Comp
L Conn_01x01 P8
U 1 1 5A410FBA
P 9675 825
F 0 "P8" H 9675 925 50  0000 C CNN
F 1 "Conn_01x01" H 9675 725 50  0000 C CNN
F 2 "Socket_Arduino_Mega:Arduino_1pin" H 9675 825 50  0001 C CNN
F 3 "" H 9675 825 50  0001 C CNN
	1    9675 825 
	0    -1   -1   0   
$EndComp
$Comp
L Conn_01x01 P9
U 1 1 5A411025
P 9975 825
F 0 "P9" H 9975 925 50  0000 C CNN
F 1 "Conn_01x01" H 9975 725 50  0000 C CNN
F 2 "Socket_Arduino_Mega:Arduino_1pin" H 9975 825 50  0001 C CNN
F 3 "" H 9975 825 50  0001 C CNN
	1    9975 825 
	0    -1   -1   0   
$EndComp
$Comp
L Conn_01x01 P10
U 1 1 5A411050
P 10250 825
F 0 "P10" H 10250 925 50  0000 C CNN
F 1 "Conn_01x01" H 10250 725 50  0000 C CNN
F 2 "Socket_Arduino_Mega:Arduino_1pin" H 10250 825 50  0001 C CNN
F 3 "" H 10250 825 50  0001 C CNN
	1    10250 825 
	0    -1   -1   0   
$EndComp
$Comp
L Conn_01x01 P11
U 1 1 5A411086
P 10525 825
F 0 "P11" H 10525 925 50  0000 C CNN
F 1 "Conn_01x01" H 10525 725 50  0000 C CNN
F 2 "Socket_Arduino_Mega:Arduino_1pin" H 10525 825 50  0001 C CNN
F 3 "" H 10525 825 50  0001 C CNN
	1    10525 825 
	0    -1   -1   0   
$EndComp
NoConn ~ 9675 1025
NoConn ~ 9975 1025
NoConn ~ 10250 1025
NoConn ~ 10525 1025
Text Notes 10300 1175 0    60   ~ 0
Holes
$Comp
L Conn_01x08 P2
U 1 1 5A411348
P 3175 6225
F 0 "P2" H 3175 6675 50  0000 C CNN
F 1 "Power" V 3275 6225 50  0000 C CNN
F 2 "Socket_Arduino_Mega:Socket_Strip_Arduino_1x08" V 3175 6225 50  0001 C CNN
F 3 "" H 3175 6225 50  0000 C CNN
F 4 "PPTC081LFBN-RC" H 3175 6225 60  0001 C CNN "MPN"
	1    3175 6225
	0    -1   1    0   
$EndComp
NoConn ~ 3200 800 
$Comp
L +5V #PWR01
U 1 1 5A411EA8
P 3275 6025
F 0 "#PWR01" H 3275 5875 50  0001 C CNN
F 1 "+5V" H 3275 6165 50  0000 C CNN
F 2 "" H 3275 6025 50  0001 C CNN
F 3 "" H 3275 6025 50  0001 C CNN
	1    3275 6025
	1    0    0    -1  
$EndComp
$Comp
L +3V3 #PWR02
U 1 1 5A411F16
P 3175 6025
F 0 "#PWR02" H 3175 5875 50  0001 C CNN
F 1 "+3V3" H 3175 6165 50  0000 C CNN
F 2 "" H 3175 6025 50  0001 C CNN
F 3 "" H 3175 6025 50  0001 C CNN
	1    3175 6025
	1    0    0    -1  
$EndComp
$Comp
L +5V #PWR03
U 1 1 5A41220E
P 3575 6025
F 0 "#PWR03" H 3575 5875 50  0001 C CNN
F 1 "+5V" H 3575 6165 50  0000 C CNN
F 2 "" H 3575 6025 50  0001 C CNN
F 3 "" H 3575 6025 50  0001 C CNN
	1    3575 6025
	1    0    0    -1  
$EndComp
Text Label 3075 6025 1    60   ~ 0
RESET_N
$Comp
L GND #PWR04
U 1 1 5A412343
P 3425 5875
F 0 "#PWR04" H 3425 5625 50  0001 C CNN
F 1 "GND" H 3425 5725 50  0000 C CNN
F 2 "" H 3425 5875 50  0001 C CNN
F 3 "" H 3425 5875 50  0001 C CNN
	1    3425 5875
	1    0    0    -1  
$EndComp
$Comp
L STM32F070BxT6 U1
U 1 1 5A494118
P 3650 3000
F 0 "U1" H 3650 2950 60  0000 C CNN
F 1 "STM32F070CBT6" H 3650 3050 60  0000 C CNN
F 2 "Housings_QFP:LQFP-48_7x7mm_Pitch0.5mm" H 3650 3000 60  0001 C CNN
F 3 "" H 3650 3000 60  0001 C CNN
F 4 "STM32F070CBT6" H 3650 3000 60  0001 C CNN "MPN"
	1    3650 3000
	1    0    0    -1  
$EndComp
Text Label 4675 3150 0    60   ~ 0
RUCCLK
Text Label 4675 2850 0    60   ~ 0
D-
Text Label 4675 2750 0    60   ~ 0
D+
Text Label 4675 3050 0    60   ~ 0
RUCRST_N
Text Label 4000 4550 1    60   ~ 0
ENM68K
Text Label 3900 4350 1    60   ~ 0
ENZ80
Text Label 3800 4350 1    60   ~ 0
EN6502
Text Label 4000 1975 1    60   ~ 0
RUCTCK
Text Label 3900 1975 1    60   ~ 0
RUCTDO
Text Label 3800 1975 1    60   ~ 0
RUCTDI
Text Label 4100 1975 1    60   ~ 0
RUCTMS
NoConn ~ 3700 1975
NoConn ~ 3600 1975
NoConn ~ 3400 1975
NoConn ~ 3300 1975
NoConn ~ 2675 2550
NoConn ~ 2675 2650
NoConn ~ 2675 2750
NoConn ~ 2675 3350
NoConn ~ 2675 3450
NoConn ~ 2675 3550
NoConn ~ 3100 3975
NoConn ~ 3200 3975
NoConn ~ 3300 3975
NoConn ~ 3400 3975
NoConn ~ 3500 3975
NoConn ~ 3600 3975
NoConn ~ 3700 3975
NoConn ~ 4675 3550
NoConn ~ 4675 3450
NoConn ~ 4675 3350
NoConn ~ 4675 3250
NoConn ~ 4675 2950
NoConn ~ 4675 2650
$Comp
L +3V3 #PWR05
U 1 1 5A495A9B
P 3100 1850
F 0 "#PWR05" H 3100 1700 50  0001 C CNN
F 1 "+3V3" H 3100 1990 50  0000 C CNN
F 2 "" H 3100 1850 50  0001 C CNN
F 3 "" H 3100 1850 50  0001 C CNN
	1    3100 1850
	1    0    0    -1  
$EndComp
$Comp
L +3V3 #PWR06
U 1 1 5A495AC3
P 4800 2450
F 0 "#PWR06" H 4800 2300 50  0001 C CNN
F 1 "+3V3" H 4800 2590 50  0000 C CNN
F 2 "" H 4800 2450 50  0001 C CNN
F 3 "" H 4800 2450 50  0001 C CNN
	1    4800 2450
	1    0    0    -1  
$EndComp
$Comp
L +3V3 #PWR07
U 1 1 5A495B79
P 4300 4100
F 0 "#PWR07" H 4300 3950 50  0001 C CNN
F 1 "+3V3" H 4300 4240 50  0000 C CNN
F 2 "" H 4300 4100 50  0001 C CNN
F 3 "" H 4300 4100 50  0001 C CNN
	1    4300 4100
	1    0    0    -1  
$EndComp
$Comp
L GND #PWR08
U 1 1 5A495C31
P 4100 4100
F 0 "#PWR08" H 4100 3850 50  0001 C CNN
F 1 "GND" H 4100 3950 50  0000 C CNN
F 2 "" H 4100 4100 50  0001 C CNN
F 3 "" H 4100 4100 50  0001 C CNN
	1    4100 4100
	1    0    0    -1  
$EndComp
$Comp
L GND #PWR09
U 1 1 5A495C95
P 3275 1750
F 0 "#PWR09" H 3275 1500 50  0001 C CNN
F 1 "GND" H 3275 1600 50  0000 C CNN
F 2 "" H 3275 1750 50  0001 C CNN
F 3 "" H 3275 1750 50  0001 C CNN
	1    3275 1750
	1    0    0    -1  
$EndComp
$Comp
L +3V3 #PWR010
U 1 1 5A495D7E
P 2600 2450
F 0 "#PWR010" H 2600 2300 50  0001 C CNN
F 1 "+3V3" H 2600 2590 50  0000 C CNN
F 2 "" H 2600 2450 50  0001 C CNN
F 3 "" H 2600 2450 50  0001 C CNN
	1    2600 2450
	1    0    0    -1  
$EndComp
$Comp
L GND #PWR011
U 1 1 5A495DCA
P 4800 2550
F 0 "#PWR011" H 4800 2300 50  0001 C CNN
F 1 "GND" H 4800 2400 50  0000 C CNN
F 2 "" H 4800 2550 50  0001 C CNN
F 3 "" H 4800 2550 50  0001 C CNN
	1    4800 2550
	1    0    0    -1  
$EndComp
$Comp
L GND #PWR012
U 1 1 5A495E83
P 2450 3150
F 0 "#PWR012" H 2450 2900 50  0001 C CNN
F 1 "GND" H 2450 3000 50  0000 C CNN
F 2 "" H 2450 3150 50  0001 C CNN
F 3 "" H 2450 3150 50  0001 C CNN
	1    2450 3150
	1    0    0    -1  
$EndComp
$Comp
L +3V3 #PWR013
U 1 1 5A495F3E
P 2500 3550
F 0 "#PWR013" H 2500 3400 50  0001 C CNN
F 1 "+3V3" H 2500 3690 50  0000 C CNN
F 2 "" H 2500 3550 50  0001 C CNN
F 3 "" H 2500 3550 50  0001 C CNN
	1    2500 3550
	1    0    0    -1  
$EndComp
$Comp
L SW_Push SW1
U 1 1 5A4A5DBC
P 700 3250
F 0 "SW1" H 750 3350 50  0000 L CNN
F 1 "SW_Push" H 700 3190 50  0000 C CNN
F 2 "Buttons_Switches_SMD:SW_SPST_B3U-1000P" H 700 3450 50  0001 C CNN
F 3 "" H 700 3450 50  0001 C CNN
F 4 "B3U-1000P" H 700 3250 60  0001 C CNN "MPN"
	1    700  3250
	0    -1   -1   0   
$EndComp
$Comp
L GND #PWR014
U 1 1 5A4A5ECE
P 900 3500
F 0 "#PWR014" H 900 3250 50  0001 C CNN
F 1 "GND" H 900 3350 50  0000 C CNN
F 2 "" H 900 3500 50  0001 C CNN
F 3 "" H 900 3500 50  0001 C CNN
	1    900  3500
	1    0    0    -1  
$EndComp
$Comp
L C_Small C1
U 1 1 5A4A5EF1
P 1000 3350
F 0 "C1" H 1010 3420 50  0000 L CNN
F 1 "0.1uF,20%,16V" V 1010 3270 50  0000 C CNN
F 2 "Capacitors_SMD:C_0603" H 1000 3350 50  0001 C CNN
F 3 "" H 1000 3350 50  0001 C CNN
F 4 "GPC0603104" H 1000 3350 60  0001 C CNN "MPN"
	1    1000 3350
	1    0    0    -1  
$EndComp
$Comp
L R_Small R1
U 1 1 5A4A615B
P 1000 2850
F 0 "R1" H 1030 2870 50  0000 L CNN
F 1 "100k,5%" H 1030 2810 50  0000 L CNN
F 2 "Resistors_SMD:R_0603" H 1000 2850 50  0001 C CNN
F 3 "" H 1000 2850 50  0001 C CNN
F 4 "GPR0603100K" H 1000 2850 60  0001 C CNN "MPN"
	1    1000 2850
	1    0    0    -1  
$EndComp
$Comp
L +3V3 #PWR015
U 1 1 5A4A61FC
P 1000 2700
F 0 "#PWR015" H 1000 2550 50  0001 C CNN
F 1 "+3V3" H 1000 2840 50  0000 C CNN
F 2 "" H 1000 2700 50  0001 C CNN
F 3 "" H 1000 2700 50  0001 C CNN
	1    1000 2700
	1    0    0    -1  
$EndComp
$Comp
L R_Small R2
U 1 1 5A4A639F
P 3500 1850
F 0 "R2" V 3450 1800 50  0000 L CNN
F 1 "100k,5%" V 3530 1810 50  0000 L CNN
F 2 "Resistors_SMD:R_0603" H 3500 1850 50  0001 C CNN
F 3 "" H 3500 1850 50  0001 C CNN
F 4 "GPR0603100K" V 3500 1850 60  0001 C CNN "MPN"
	1    3500 1850
	1    0    0    -1  
$EndComp
Text Label 1025 3050 0    60   ~ 0
RESET_N
NoConn ~ 2875 6025
$Comp
L USB_OTG_Slave J1
U 1 1 5A4A68C6
P 875 4850
F 0 "J1" H 675 5300 50  0000 L CNN
F 1 "USB_OTG_Slave" H 675 5200 50  0000 L CNN
F 2 "Connectors_USB:USB_Micro-B_Molex-105017-0001" H 1025 4800 50  0001 C CNN
F 3 "" H 1025 4800 50  0001 C CNN
F 4 "105017-0001" H 875 4850 60  0001 C CNN "MPN"
	1    875  4850
	1    0    0    -1  
$EndComp
$Comp
L GND #PWR016
U 1 1 5A4A69DB
P 875 5575
F 0 "#PWR016" H 875 5325 50  0001 C CNN
F 1 "GND" H 875 5425 50  0000 C CNN
F 2 "" H 875 5575 50  0001 C CNN
F 3 "" H 875 5575 50  0001 C CNN
	1    875  5575
	1    0    0    -1  
$EndComp
$Comp
L R_Small R3
U 1 1 5A4A6B7B
P 1325 4750
F 0 "R3" H 1355 4770 50  0000 L CNN
F 1 "1.5k,5%" H 1355 4710 50  0000 L CNN
F 2 "Resistors_SMD:R_0603" H 1325 4750 50  0001 C CNN
F 3 "" H 1325 4750 50  0001 C CNN
F 4 "GPR06031K5" H 1325 4750 60  0001 C CNN "MPN"
	1    1325 4750
	1    0    0    -1  
$EndComp
NoConn ~ 1175 5050
$Comp
L R_Small R4
U 1 1 5A4A6D83
P 1525 4850
F 0 "R4" V 1525 4700 50  0000 L CNN
F 1 "22R,5%" V 1550 4800 50  0000 L CNN
F 2 "Resistors_SMD:R_0603" H 1525 4850 50  0001 C CNN
F 3 "" H 1525 4850 50  0001 C CNN
F 4 "GPR060322R" V 1525 4850 60  0001 C CNN "MPN"
	1    1525 4850
	0    1    1    0   
$EndComp
$Comp
L R_Small R5
U 1 1 5A4A6EC4
P 1525 4950
F 0 "R5" V 1525 4800 50  0000 L CNN
F 1 "22R,5%" V 1555 4910 50  0000 L CNN
F 2 "Resistors_SMD:R_0603" H 1525 4950 50  0001 C CNN
F 3 "" H 1525 4950 50  0001 C CNN
F 4 "GPR060322R" V 1525 4950 60  0001 C CNN "MPN"
	1    1525 4950
	0    1    1    0   
$EndComp
Text Label 1975 4850 2    60   ~ 0
D+
Text Label 1975 4950 2    60   ~ 0
D-
$Comp
L LD1117S33TR U2
U 1 1 5A4A7333
P 2675 4650
F 0 "U2" H 2525 4775 50  0000 C CNN
F 1 "LD1117S33TR" H 2675 4775 50  0000 L CNN
F 2 "TO_SOT_Packages_SMD:SOT-223-3Lead_TabPin2" H 2675 4850 50  0001 C CNN
F 3 "" H 2775 4400 50  0001 C CNN
F 4 "LD1117AS33TR" H 2675 4650 60  0001 C CNN "MPN"
	1    2675 4650
	1    0    0    -1  
$EndComp
$Comp
L GND #PWR017
U 1 1 5A4A7463
P 2675 5050
F 0 "#PWR017" H 2675 4800 50  0001 C CNN
F 1 "GND" H 2675 4900 50  0000 C CNN
F 2 "" H 2675 5050 50  0001 C CNN
F 3 "" H 2675 5050 50  0001 C CNN
	1    2675 5050
	1    0    0    -1  
$EndComp
$Comp
L C_Small C2
U 1 1 5A4A755A
P 2275 4950
F 0 "C2" H 2285 5020 50  0000 L CNN
F 1 "10uF,20%,16V" H 2275 4925 50  0000 C CNN
F 2 "Capacitors_SMD:C_1206" H 2275 4950 50  0001 C CNN
F 3 "" H 2275 4950 50  0001 C CNN
F 4 "GRM31CR61H106MA12L" H 2275 4950 60  0001 C CNN "MPN"
	1    2275 4950
	1    0    0    -1  
$EndComp
$Comp
L C_Small C3
U 1 1 5A4A7816
P 3075 4950
F 0 "C3" H 3085 5020 50  0000 L CNN
F 1 "10uF,20%,16V" H 3075 4925 50  0000 C CNN
F 2 "Capacitors_SMD:C_1206" H 3075 4950 50  0001 C CNN
F 3 "" H 3075 4950 50  0001 C CNN
F 4 "GRM31CR61H106MA12L" H 3075 4950 60  0001 C CNN "MPN"
	1    3075 4950
	1    0    0    -1  
$EndComp
$Comp
L +5V #PWR018
U 1 1 5A4A7A40
P 1800 4600
F 0 "#PWR018" H 1800 4450 50  0001 C CNN
F 1 "+5V" H 1800 4740 50  0000 C CNN
F 2 "" H 1800 4600 50  0001 C CNN
F 3 "" H 1800 4600 50  0001 C CNN
	1    1800 4600
	1    0    0    -1  
$EndComp
$Comp
L +3V3 #PWR019
U 1 1 5A4A7A8A
P 3075 4600
F 0 "#PWR019" H 3075 4450 50  0001 C CNN
F 1 "+3V3" H 3075 4740 50  0000 C CNN
F 2 "" H 3075 4600 50  0001 C CNN
F 3 "" H 3075 4600 50  0001 C CNN
	1    3075 4600
	1    0    0    -1  
$EndComp
Text Label 875  5475 1    60   ~ 0
GND
Text Label 1200 4650 0    60   ~ 0
5V
Text Label 3075 4800 1    60   ~ 0
3V3
$Comp
L C_Small C4
U 1 1 5A4ABD15
P 950 6800
F 0 "C4" H 960 6870 50  0000 L CNN
F 1 "0.1uF,20%,16V" V 960 6720 50  0000 C CNN
F 2 "Capacitors_SMD:C_0603" H 950 6800 50  0001 C CNN
F 3 "" H 950 6800 50  0001 C CNN
F 4 "GPC0603104" H 950 6800 60  0001 C CNN "MPN"
	1    950  6800
	1    0    0    -1  
$EndComp
$Comp
L C_Small C5
U 1 1 5A4ABE6A
P 1175 6800
F 0 "C5" H 1185 6870 50  0000 L CNN
F 1 "0.1uF,20%,16V" V 1185 6720 50  0000 C CNN
F 2 "Capacitors_SMD:C_0603" H 1175 6800 50  0001 C CNN
F 3 "" H 1175 6800 50  0001 C CNN
F 4 "GPC0603104" H 1175 6800 60  0001 C CNN "MPN"
	1    1175 6800
	1    0    0    -1  
$EndComp
$Comp
L C_Small C6
U 1 1 5A4ABED4
P 1375 6800
F 0 "C6" H 1385 6870 50  0000 L CNN
F 1 "0.1uF,20%,16V" V 1385 6720 50  0000 C CNN
F 2 "Capacitors_SMD:C_0603" H 1375 6800 50  0001 C CNN
F 3 "" H 1375 6800 50  0001 C CNN
F 4 "GPC0603104" H 1375 6800 60  0001 C CNN "MPN"
	1    1375 6800
	1    0    0    -1  
$EndComp
$Comp
L C_Small C7
U 1 1 5A4ABFB8
P 1675 6800
F 0 "C7" H 1685 6870 50  0000 L CNN
F 1 "0.1uF,20%,16V" V 1685 6720 50  0000 C CNN
F 2 "Capacitors_SMD:C_0603" H 1675 6800 50  0001 C CNN
F 3 "" H 1675 6800 50  0001 C CNN
F 4 "GPC0603104" H 1675 6800 60  0001 C CNN "MPN"
	1    1675 6800
	1    0    0    -1  
$EndComp
$Comp
L C_Small C8
U 1 1 5A4AC028
P 1875 6800
F 0 "C8" H 1885 6870 50  0000 L CNN
F 1 "0.1uF,20%,16V" V 1885 6720 50  0000 C CNN
F 2 "Capacitors_SMD:C_0603" H 1875 6800 50  0001 C CNN
F 3 "" H 1875 6800 50  0001 C CNN
F 4 "GPC0603104" H 1875 6800 60  0001 C CNN "MPN"
	1    1875 6800
	1    0    0    -1  
$EndComp
$Comp
L C_Small C9
U 1 1 5A4AC091
P 2075 6800
F 0 "C9" H 2085 6870 50  0000 L CNN
F 1 "0.1uF,20%,16V" V 2085 6720 50  0000 C CNN
F 2 "Capacitors_SMD:C_0603" H 2075 6800 50  0001 C CNN
F 3 "" H 2075 6800 50  0001 C CNN
F 4 "GPC0603104" H 2075 6800 60  0001 C CNN "MPN"
	1    2075 6800
	1    0    0    -1  
$EndComp
$Comp
L GND #PWR020
U 1 1 5A4AC873
P 1525 7225
F 0 "#PWR020" H 1525 6975 50  0001 C CNN
F 1 "GND" H 1525 7075 50  0000 C CNN
F 2 "" H 1525 7225 50  0001 C CNN
F 3 "" H 1525 7225 50  0001 C CNN
	1    1525 7225
	1    0    0    -1  
$EndComp
$Comp
L +3V3 #PWR021
U 1 1 5A4AC9A1
P 1175 6475
F 0 "#PWR021" H 1175 6325 50  0001 C CNN
F 1 "+3V3" H 1175 6615 50  0000 C CNN
F 2 "" H 1175 6475 50  0001 C CNN
F 3 "" H 1175 6475 50  0001 C CNN
	1    1175 6475
	1    0    0    -1  
$EndComp
$Comp
L +5V #PWR022
U 1 1 5A4AC9ED
P 1875 6475
F 0 "#PWR022" H 1875 6325 50  0001 C CNN
F 1 "+5V" H 1875 6615 50  0000 C CNN
F 2 "" H 1875 6475 50  0001 C CNN
F 3 "" H 1875 6475 50  0001 C CNN
	1    1875 6475
	1    0    0    -1  
$EndComp
$Comp
L +5V #PWR023
U 1 1 5A5A25DA
P 2975 6025
F 0 "#PWR023" H 2975 5875 50  0001 C CNN
F 1 "+5V" H 2975 6165 50  0000 C CNN
F 2 "" H 2975 6025 50  0001 C CNN
F 3 "" H 2975 6025 50  0001 C CNN
	1    2975 6025
	1    0    0    -1  
$EndComp
$Comp
L Conn_01x01 P12
U 1 1 5A5A264D
P 10800 825
F 0 "P12" H 10800 925 50  0000 C CNN
F 1 "Conn_01x01" H 10800 725 50  0000 C CNN
F 2 "Socket_Arduino_Mega:Arduino_1pin" H 10800 825 50  0001 C CNN
F 3 "" H 10800 825 50  0001 C CNN
	1    10800 825 
	0    -1   -1   0   
$EndComp
$Comp
L Conn_01x01 P13
U 1 1 5A5A274B
P 11075 825
F 0 "P13" H 11075 925 50  0000 C CNN
F 1 "Conn_01x01" H 11075 725 50  0000 C CNN
F 2 "Socket_Arduino_Mega:Arduino_1pin" H 11075 825 50  0001 C CNN
F 3 "" H 11075 825 50  0001 C CNN
	1    11075 825 
	0    -1   -1   0   
$EndComp
NoConn ~ 10800 1025
NoConn ~ 11075 1025
$Comp
L Conn_01x08 P7
U 1 1 5A5A3954
P 8550 600
F 0 "P7" H 8550 1050 50  0000 C CNN
F 1 "IO" V 8650 600 50  0000 C CNN
F 2 "Socket_Arduino_Mega:Socket_Strip_Arduino_1x08" V 8550 600 50  0001 C CNN
F 3 "" H 8550 600 50  0000 C CNN
F 4 "PPTC081LFBN-RC" H 8550 600 60  0001 C CNN "MPN"
	1    8550 600 
	0    -1   -1   0   
$EndComp
$Comp
L Conn_01x08 P3
U 1 1 5A5A3ACF
P 6350 6350
F 0 "P3" H 6350 6800 50  0000 C CNN
F 1 "IO" V 6450 6350 50  0000 C CNN
F 2 "Socket_Arduino_Mega:Socket_Strip_Arduino_1x08" V 6350 6350 50  0001 C CNN
F 3 "" H 6350 6350 50  0000 C CNN
F 4 "PPTC081LFBN-RC" H 6350 6350 60  0001 C CNN "MPN"
	1    6350 6350
	0    -1   1    0   
$EndComp
$Comp
L Conn_01x08 P4
U 1 1 5A5A3D52
P 8750 6350
F 0 "P4" H 8750 6800 50  0000 C CNN
F 1 "IO" V 8850 6350 50  0000 C CNN
F 2 "Socket_Arduino_Mega:Socket_Strip_Arduino_1x08" V 8750 6350 50  0001 C CNN
F 3 "" H 8750 6350 50  0000 C CNN
F 4 "PPTC081LFBN-RC" H 8750 6350 60  0001 C CNN "MPN"
	1    8750 6350
	0    -1   1    0   
$EndComp
$Comp
L Conn_02x18_Odd_Even P1
U 1 1 5A5A3FB2
P 10650 3625
F 0 "P1" H 10700 4525 50  0000 C CNN
F 1 "IO" H 10700 2625 50  0000 C CNN
F 2 "Socket_Arduino_Mega:Socket_Strip_Arduino_2x18" H 10650 3625 50  0001 C CNN
F 3 "" H 10650 3625 50  0001 C CNN
F 4 "PPTC182LFBN-RC" H 10650 3625 60  0001 C CNN "MPN"
	1    10650 3625
	1    0    0    1   
$EndComp
$Comp
L GND #PWR024
U 1 1 5A5A3203
P 3300 800
F 0 "#PWR024" H 3300 550 50  0001 C CNN
F 1 "GND" H 3300 650 50  0000 C CNN
F 2 "" H 3300 800 50  0001 C CNN
F 3 "" H 3300 800 50  0001 C CNN
	1    3300 800 
	1    0    0    -1  
$EndComp
$Comp
L GND #PWR025
U 1 1 5A5A69D0
P 11025 4575
F 0 "#PWR025" H 11025 4325 50  0001 C CNN
F 1 "GND" H 11025 4425 50  0000 C CNN
F 2 "" H 11025 4575 50  0001 C CNN
F 3 "" H 11025 4575 50  0001 C CNN
	1    11025 4575
	1    0    0    -1  
$EndComp
$Comp
L +5V #PWR026
U 1 1 5A5A6D10
P 11000 2525
F 0 "#PWR026" H 11000 2375 50  0001 C CNN
F 1 "+5V" H 11000 2665 50  0000 C CNN
F 2 "" H 11000 2525 50  0001 C CNN
F 3 "" H 11000 2525 50  0001 C CNN
	1    11000 2525
	1    0    0    -1  
$EndComp
Text Label 8950 1050 1    60   ~ 0
IO0
Text Label 8850 1050 1    60   ~ 0
IO1
Text Label 8750 1050 1    60   ~ 0
IO2
Text Label 8650 1050 1    60   ~ 0
IO3
Text Label 8550 1050 1    60   ~ 0
IO4
Text Label 8450 1050 1    60   ~ 0
IO5
Text Label 8350 1050 1    60   ~ 0
IO6
Text Label 8250 1050 1    60   ~ 0
IO7
Text Label 6600 1050 1    60   ~ 0
IO8
Text Label 6500 1050 1    60   ~ 0
IO9
Text Label 6400 1050 1    60   ~ 0
IO10
Text Label 6300 1050 1    60   ~ 0
IO11
Text Label 6200 1050 1    60   ~ 0
IO12
Text Label 6100 1050 1    60   ~ 0
IO13
Text Label 6000 1050 1    60   ~ 0
IO14
Text Label 5900 1050 1    60   ~ 0
IO15
Text Label 3900 1050 1    60   ~ 0
IO16
Text Label 3800 1050 1    60   ~ 0
IO17
Text Label 3700 1050 1    60   ~ 0
IO18
Text Label 3600 1050 1    60   ~ 0
IO19
Text Label 3500 1050 1    60   ~ 0
IO20
Text Label 3400 1050 1    60   ~ 0
IO21
Text Label 3100 1050 1    60   ~ 0
IO22
Text Label 3000 1050 1    60   ~ 0
IO23
Text Label 6050 5925 3    60   ~ 0
IO24
Text Label 6150 5925 3    60   ~ 0
IO25
Text Label 6250 5925 3    60   ~ 0
IO26
Text Label 6350 5925 3    60   ~ 0
IO27
Text Label 6450 5925 3    60   ~ 0
IO28
Text Label 6550 5925 3    60   ~ 0
IO29
Text Label 6650 5925 3    60   ~ 0
IO30
Text Label 6750 5925 3    60   ~ 0
IO31
Text Label 8450 5925 3    60   ~ 0
IO32
Text Label 8550 5925 3    60   ~ 0
IO33
Text Label 8650 5925 3    60   ~ 0
IO34
Text Label 8750 5925 3    60   ~ 0
IO35
Text Label 8850 5925 3    60   ~ 0
IO36
Text Label 8950 5925 3    60   ~ 0
IO37
Text Label 9050 5925 3    60   ~ 0
IO38
Text Label 9150 5925 3    60   ~ 0
IO39
Text Label 11200 4325 2    60   ~ 0
IO40
Text Label 11200 4225 2    60   ~ 0
IO42
Text Label 11200 4125 2    60   ~ 0
IO44
Text Label 11200 4025 2    60   ~ 0
IO46
Text Label 11200 3925 2    60   ~ 0
IO48
Text Label 11200 3825 2    60   ~ 0
IO50
Text Label 11200 3725 2    60   ~ 0
IO52
Text Label 11200 3625 2    60   ~ 0
IO54
Text Label 11200 3525 2    60   ~ 0
IO56
Text Label 11200 3425 2    60   ~ 0
IO58
Text Label 11200 3325 2    60   ~ 0
IO60
Text Label 11200 3225 2    60   ~ 0
IO62
Text Label 11200 3125 2    60   ~ 0
IO64
Text Label 11200 3025 2    60   ~ 0
IO66
Text Label 11200 2925 2    60   ~ 0
IO68
Text Label 11200 2825 2    60   ~ 0
IO70
Text Label 10150 4325 0    60   ~ 0
IO41
Text Label 10150 4225 0    60   ~ 0
IO43
Text Label 10150 4125 0    60   ~ 0
IO45
Text Label 10150 4025 0    60   ~ 0
IO47
Text Label 10150 3925 0    60   ~ 0
IO49
Text Label 10150 3825 0    60   ~ 0
IO51
Text Label 10150 3725 0    60   ~ 0
IO53
Text Label 10150 3625 0    60   ~ 0
IO55
Text Label 10150 3525 0    60   ~ 0
IO57
Text Label 10150 3425 0    60   ~ 0
IO59
Text Label 10150 3325 0    60   ~ 0
IO61
Text Label 10150 3225 0    60   ~ 0
IO63
Text Label 10150 3125 0    60   ~ 0
IO65
Text Label 10150 3025 0    60   ~ 0
IO67
Text Label 10150 2925 0    60   ~ 0
IO69
Text Label 10150 2825 0    60   ~ 0
IO71
Text Label 4200 1975 1    60   ~ 0
RUCTRSTN
$Comp
L Retro_uC-QFN100 RUC1
U 1 1 5A5A90B8
P 5500 2350
F 0 "RUC1" H 7650 1175 60  0000 R CNN
F 1 "Retro_uC-QFN100" H 7975 1050 60  0000 R CNN
F 2 "Retro_uC:QFN_100_12x12_0.4" H 5500 2350 60  0001 C CNN
F 3 "" H 5500 2350 60  0001 C CNN
F 4 "C4M2018RUC" H 5500 2350 60  0001 C CNN "MPN"
	1    5500 2350
	1    0    0    -1  
$EndComp
$Comp
L +5V #PWR027
U 1 1 5A5B13A8
P 5225 3650
F 0 "#PWR027" H 5225 3500 50  0001 C CNN
F 1 "+5V" H 5225 3790 50  0000 C CNN
F 2 "" H 5225 3650 50  0001 C CNN
F 3 "" H 5225 3650 50  0001 C CNN
	1    5225 3650
	1    0    0    -1  
$EndComp
$Comp
L GND #PWR028
U 1 1 5A5B1644
P 5400 3550
F 0 "#PWR028" H 5400 3300 50  0001 C CNN
F 1 "GND" H 5475 3500 50  0000 C CNN
F 2 "" H 5400 3550 50  0001 C CNN
F 3 "" H 5400 3550 50  0001 C CNN
	1    5400 3550
	1    0    0    -1  
$EndComp
$Comp
L +3V3 #PWR029
U 1 1 5A5B170F
P 5225 3350
F 0 "#PWR029" H 5225 3200 50  0001 C CNN
F 1 "+3V3" H 5225 3400 50  0000 C CNN
F 2 "" H 5225 3350 50  0001 C CNN
F 3 "" H 5225 3350 50  0001 C CNN
	1    5225 3350
	1    0    0    -1  
$EndComp
Text Label 6300 1325 3    60   ~ 0
IO13
Text Label 6400 1325 3    60   ~ 0
IO12
Text Label 6500 1325 3    60   ~ 0
IO11
Text Label 6600 1325 3    60   ~ 0
IO10
Text Label 6700 1325 3    60   ~ 0
IO9
Text Label 6800 1325 3    60   ~ 0
IO8
Text Label 6900 1325 3    60   ~ 0
IO7
Text Label 7000 1325 3    60   ~ 0
IO6
Text Label 7100 1325 3    60   ~ 0
IO5
Text Label 7200 1325 3    60   ~ 0
IO4
Text Label 7700 1325 3    60   ~ 0
IO3
Text Label 7800 1325 3    60   ~ 0
IO2
Text Label 7900 1325 3    60   ~ 0
IO1
$Comp
L GND #PWR030
U 1 1 5A5B7B06
P 7450 1475
F 0 "#PWR030" H 7450 1225 50  0001 C CNN
F 1 "GND" H 7450 1325 50  0000 C CNN
F 2 "" H 7450 1475 50  0001 C CNN
F 3 "" H 7450 1475 50  0001 C CNN
	1    7450 1475
	1    0    0    -1  
$EndComp
$Comp
L +3V3 #PWR031
U 1 1 5A5B7B5A
P 7300 1325
F 0 "#PWR031" H 7300 1175 50  0001 C CNN
F 1 "+3V3" H 7300 1465 50  0000 C CNN
F 2 "" H 7300 1325 50  0001 C CNN
F 3 "" H 7300 1325 50  0001 C CNN
	1    7300 1325
	1    0    0    -1  
$EndComp
$Comp
L +5V #PWR032
U 1 1 5A5B7BAE
P 7600 1325
F 0 "#PWR032" H 7600 1175 50  0001 C CNN
F 1 "+5V" H 7600 1465 50  0000 C CNN
F 2 "" H 7600 1325 50  0001 C CNN
F 3 "" H 7600 1325 50  0001 C CNN
	1    7600 1325
	1    0    0    -1  
$EndComp
Text Label 8000 1325 3    60   ~ 0
IO0
Text Label 8100 1325 3    60   ~ 0
IO71
Text Label 8200 1325 3    60   ~ 0
IO70
Text Label 8300 1325 3    60   ~ 0
IO69
Text Label 8400 1325 3    60   ~ 0
IO68
Text Label 8500 1325 3    60   ~ 0
IO67
Text Label 8600 1325 3    60   ~ 0
IO66
Text Label 8700 1325 3    60   ~ 0
IO65
$Comp
L GND #PWR033
U 1 1 5A5B80B6
P 9600 3550
F 0 "#PWR033" H 9600 3300 50  0001 C CNN
F 1 "GND" H 9600 3400 50  0000 C CNN
F 2 "" H 9600 3550 50  0001 C CNN
F 3 "" H 9600 3550 50  0001 C CNN
	1    9600 3550
	1    0    0    -1  
$EndComp
$Comp
L +3V3 #PWR034
U 1 1 5A5B824A
P 9825 3350
F 0 "#PWR034" H 9825 3200 50  0001 C CNN
F 1 "+3V3" H 9825 3490 50  0000 C CNN
F 2 "" H 9825 3350 50  0001 C CNN
F 3 "" H 9825 3350 50  0001 C CNN
	1    9825 3350
	1    0    0    -1  
$EndComp
$Comp
L +5V #PWR035
U 1 1 5A5B829E
P 9825 3650
F 0 "#PWR035" H 9825 3500 50  0001 C CNN
F 1 "+5V" H 9825 3790 50  0000 C CNN
F 2 "" H 9825 3650 50  0001 C CNN
F 3 "" H 9825 3650 50  0001 C CNN
	1    9825 3650
	1    0    0    -1  
$EndComp
$Comp
L GND #PWR036
U 1 1 5A5B85DA
P 7450 5725
F 0 "#PWR036" H 7450 5475 50  0001 C CNN
F 1 "GND" H 7450 5575 50  0000 C CNN
F 2 "" H 7450 5725 50  0001 C CNN
F 3 "" H 7450 5725 50  0001 C CNN
	1    7450 5725
	1    0    0    -1  
$EndComp
$Comp
L +3V3 #PWR037
U 1 1 5A5B862E
P 7350 5900
F 0 "#PWR037" H 7350 5750 50  0001 C CNN
F 1 "+3V3" H 7350 6040 50  0000 C CNN
F 2 "" H 7350 5900 50  0001 C CNN
F 3 "" H 7350 5900 50  0001 C CNN
	1    7350 5900
	1    0    0    -1  
$EndComp
$Comp
L +5V #PWR038
U 1 1 5A5B87C2
P 7550 5900
F 0 "#PWR038" H 7550 5750 50  0001 C CNN
F 1 "+5V" H 7550 6040 50  0000 C CNN
F 2 "" H 7550 5900 50  0001 C CNN
F 3 "" H 7550 5900 50  0001 C CNN
	1    7550 5900
	1    0    0    -1  
$EndComp
Text Label 9725 2350 2    60   ~ 0
IO64
Text Label 9725 2450 2    60   ~ 0
IO63
Text Label 9725 2550 2    60   ~ 0
IO62
Text Label 9725 2650 2    60   ~ 0
IO61
Text Label 9725 2750 2    60   ~ 0
IO60
Text Label 9725 2850 2    60   ~ 0
IO59
Text Label 9725 2950 2    60   ~ 0
IO58
Text Label 9725 3050 2    60   ~ 0
IO57
Text Label 9725 3150 2    60   ~ 0
IO56
Text Label 9725 3250 2    60   ~ 0
IO55
Text Label 9725 3750 2    60   ~ 0
IO54
Text Label 9725 3850 2    60   ~ 0
IO53
Text Label 9725 3950 2    60   ~ 0
IO52
Text Label 9725 4050 2    60   ~ 0
IO51
Text Label 9725 4150 2    60   ~ 0
IO50
Text Label 9725 4250 2    60   ~ 0
IO49
Text Label 9725 4350 2    60   ~ 0
IO48
Text Label 9725 4450 2    60   ~ 0
IO47
Text Label 9725 4550 2    60   ~ 0
IO46
Text Label 9725 4650 2    60   ~ 0
IO45
Text Label 9725 4750 2    60   ~ 0
IO44
Text Label 8700 5800 1    60   ~ 0
IO43
Text Label 8600 5800 1    60   ~ 0
IO42
Text Label 8200 5800 1    60   ~ 0
IO39
Text Label 8100 5800 1    60   ~ 0
IO38
Text Label 8000 5800 1    60   ~ 0
IO37
Text Label 7900 5800 1    60   ~ 0
IO36
Text Label 7800 5800 1    60   ~ 0
IO35
Text Label 7700 5800 1    60   ~ 0
IO34
Wire Wire Line
	3075 6025 3075 5625
Wire Wire Line
	3375 6025 3375 5875
Wire Wire Line
	3375 5875 3475 5875
Wire Wire Line
	3475 5875 3475 6025
Wire Wire Line
	4675 3150 4750 3150
Wire Wire Line
	4675 2850 4800 2850
Wire Wire Line
	4675 2750 4800 2750
Wire Wire Line
	4675 3050 4800 3050
Wire Wire Line
	4000 3975 4000 4550
Wire Wire Line
	3900 3975 3900 4650
Wire Wire Line
	3800 3975 3800 4750
Wire Wire Line
	4000 1350 4000 1975
Wire Wire Line
	3900 1250 3900 1975
Wire Wire Line
	3800 1150 3800 1975
Wire Wire Line
	4100 1450 4100 1975
Wire Wire Line
	4675 2550 4800 2550
Wire Wire Line
	4800 2450 4675 2450
Wire Wire Line
	3200 1750 3200 1975
Wire Wire Line
	3100 1850 3100 1975
Wire Wire Line
	2675 2450 2600 2450
Wire Wire Line
	4200 3975 4200 4100
Wire Wire Line
	4200 4100 4300 4100
Wire Wire Line
	4100 4100 4100 3975
Wire Wire Line
	3200 1750 3500 1750
Wire Wire Line
	2675 3150 2450 3150
Wire Wire Line
	2675 3250 2625 3250
Wire Wire Line
	2625 3250 2625 3550
Wire Wire Line
	2625 3550 2500 3550
Wire Wire Line
	700  3050 2675 3050
Wire Wire Line
	1000 2950 1000 3250
Connection ~ 1000 3050
Wire Wire Line
	1000 3500 1000 3450
Wire Wire Line
	700  3500 1000 3500
Wire Wire Line
	700  3500 700  3450
Connection ~ 900  3500
Wire Wire Line
	1000 2750 1000 2700
Connection ~ 3275 1750
Wire Wire Line
	3500 1950 3500 1975
Wire Wire Line
	875  5250 875  5575
Wire Wire Line
	775  5250 775  5525
Wire Wire Line
	775  5525 875  5525
Connection ~ 875  5525
Wire Wire Line
	1175 4850 1425 4850
Connection ~ 1325 4850
Wire Wire Line
	1175 4950 1425 4950
Wire Wire Line
	1625 4850 1975 4850
Wire Wire Line
	1625 4950 1975 4950
Connection ~ 1325 4650
Wire Wire Line
	2675 4900 2675 5050
Wire Wire Line
	2275 4600 2275 4850
Connection ~ 2275 4650
Wire Wire Line
	2275 5050 3075 5050
Connection ~ 2675 5050
Wire Wire Line
	3075 4600 3075 4850
Connection ~ 3075 4650
Wire Wire Line
	1800 4650 1800 4600
Connection ~ 1800 4650
Wire Wire Line
	3425 5875 3425 5875
Connection ~ 3425 5875
Wire Wire Line
	1175 4650 2275 4650
Wire Wire Line
	2075 7200 2075 6900
Wire Wire Line
	950  7200 2075 7200
Wire Wire Line
	950  7200 950  6900
Wire Wire Line
	1175 6900 1175 7200
Connection ~ 1175 7200
Wire Wire Line
	1375 6900 1375 7200
Connection ~ 1375 7200
Wire Wire Line
	1675 6900 1675 7200
Connection ~ 1675 7200
Wire Wire Line
	1875 6900 1875 7200
Connection ~ 1875 7200
Wire Wire Line
	2075 6525 2075 6700
Wire Wire Line
	1675 6525 2075 6525
Wire Wire Line
	1675 6525 1675 6700
Wire Wire Line
	1875 6475 1875 6700
Connection ~ 1875 6525
Wire Wire Line
	1375 6525 1375 6700
Wire Wire Line
	950  6525 1375 6525
Wire Wire Line
	950  6525 950  6700
Wire Wire Line
	1175 6475 1175 6700
Connection ~ 1175 6525
Wire Wire Line
	1525 7225 1525 7200
Connection ~ 1525 7200
Wire Wire Line
	3000 800  3000 1050
Wire Wire Line
	3100 1050 3100 800 
Wire Wire Line
	3400 1050 3400 800 
Wire Wire Line
	3500 1050 3500 800 
Wire Wire Line
	3600 800  3600 1050
Wire Wire Line
	3700 1050 3700 800 
Wire Wire Line
	3800 800  3800 1050
Wire Wire Line
	3900 1050 3900 800 
Wire Wire Line
	5900 800  5900 1050
Wire Wire Line
	6000 1050 6000 800 
Wire Wire Line
	6100 800  6100 1050
Wire Wire Line
	6200 1050 6200 800 
Wire Wire Line
	6300 800  6300 1050
Wire Wire Line
	6400 1050 6400 800 
Wire Wire Line
	6500 800  6500 1050
Wire Wire Line
	6600 1050 6600 800 
Wire Wire Line
	8250 800  8250 1050
Wire Wire Line
	8350 1050 8350 800 
Wire Wire Line
	8450 800  8450 1050
Wire Wire Line
	8550 1050 8550 800 
Wire Wire Line
	8650 800  8650 1050
Wire Wire Line
	8750 1050 8750 800 
Wire Wire Line
	8850 800  8850 1050
Wire Wire Line
	8950 1050 8950 800 
Wire Wire Line
	9150 5925 9150 6150
Wire Wire Line
	9050 5925 9050 6150
Wire Wire Line
	8950 6150 8950 5925
Wire Wire Line
	8850 5925 8850 6150
Wire Wire Line
	8750 6150 8750 5925
Wire Wire Line
	8650 5925 8650 6150
Wire Wire Line
	8550 6150 8550 5925
Wire Wire Line
	8450 5925 8450 6150
Wire Wire Line
	6750 6150 6750 5925
Wire Wire Line
	6650 5925 6650 6150
Wire Wire Line
	6550 6150 6550 5925
Wire Wire Line
	6450 5925 6450 6150
Wire Wire Line
	6350 6150 6350 5925
Wire Wire Line
	6250 5925 6250 6150
Wire Wire Line
	6150 6150 6150 5925
Wire Wire Line
	6050 5925 6050 6150
Wire Wire Line
	11025 4575 11025 4425
Wire Wire Line
	11025 4425 10950 4425
Wire Wire Line
	11025 4575 10450 4575
Wire Wire Line
	10450 4575 10450 4425
Wire Wire Line
	11000 2525 11000 2725
Wire Wire Line
	11000 2725 10950 2725
Wire Wire Line
	10450 2725 10450 2525
Wire Wire Line
	10450 2525 11000 2525
Wire Wire Line
	10950 2825 11200 2825
Wire Wire Line
	11200 2925 10950 2925
Wire Wire Line
	10950 3025 11200 3025
Wire Wire Line
	11200 3125 10950 3125
Wire Wire Line
	10950 3225 11200 3225
Wire Wire Line
	11200 3325 10950 3325
Wire Wire Line
	10950 3425 11200 3425
Wire Wire Line
	11200 3525 10950 3525
Wire Wire Line
	10950 3625 11200 3625
Wire Wire Line
	11200 3725 10950 3725
Wire Wire Line
	10950 3825 11200 3825
Wire Wire Line
	11200 3925 10950 3925
Wire Wire Line
	10950 4025 11200 4025
Wire Wire Line
	11200 4125 10950 4125
Wire Wire Line
	10950 4225 11200 4225
Wire Wire Line
	11200 4325 10950 4325
Wire Wire Line
	10450 4325 10150 4325
Wire Wire Line
	10150 4225 10450 4225
Wire Wire Line
	10450 4125 10150 4125
Wire Wire Line
	10150 4025 10450 4025
Wire Wire Line
	10450 3925 10150 3925
Wire Wire Line
	10150 3825 10450 3825
Wire Wire Line
	10450 3725 10150 3725
Wire Wire Line
	10150 3625 10450 3625
Wire Wire Line
	10450 3525 10150 3525
Wire Wire Line
	10150 3425 10450 3425
Wire Wire Line
	10450 3325 10150 3325
Wire Wire Line
	10150 3225 10450 3225
Wire Wire Line
	10450 3125 10150 3125
Wire Wire Line
	10150 3025 10450 3025
Wire Wire Line
	10450 2925 10150 2925
Wire Wire Line
	10150 2825 10450 2825
Wire Wire Line
	4200 1975 4200 1550
Wire Wire Line
	5500 2350 5225 2350
Wire Wire Line
	5225 2550 5500 2550
Wire Wire Line
	5225 2650 5500 2650
Wire Wire Line
	5225 2750 5500 2750
Wire Wire Line
	5225 2850 5500 2850
Wire Wire Line
	5225 2950 5500 2950
Wire Wire Line
	5225 3050 5500 3050
Wire Wire Line
	5225 3150 5500 3150
Wire Wire Line
	5225 3250 5500 3250
Wire Wire Line
	5500 3350 5225 3350
Wire Wire Line
	5400 3450 5500 3450
Wire Wire Line
	5500 3550 5400 3550
Wire Wire Line
	5225 3650 5500 3650
Wire Wire Line
	5050 3750 5500 3750
Wire Wire Line
	4000 4550 5500 4550
Wire Wire Line
	3900 4650 5500 4650
Wire Wire Line
	3800 4750 5500 4750
Wire Wire Line
	6300 5800 6300 5550
Wire Wire Line
	6400 5550 6400 5800
Wire Wire Line
	6500 5800 6500 5550
Wire Wire Line
	6600 5550 6600 5800
Wire Wire Line
	6700 5800 6700 5550
Wire Wire Line
	6800 5550 6800 5800
Wire Wire Line
	6900 5800 6900 5550
Wire Wire Line
	7000 5550 7000 5800
Wire Wire Line
	7100 5800 7100 5550
Wire Wire Line
	7200 5550 7200 5800
Wire Wire Line
	7300 5550 7300 5900
Wire Wire Line
	7400 5550 7400 5700
Wire Wire Line
	7500 5700 7500 5550
Wire Wire Line
	7600 5550 7600 5900
Wire Wire Line
	7700 5800 7700 5550
Wire Wire Line
	7800 5550 7800 5800
Wire Wire Line
	7900 5800 7900 5550
Wire Wire Line
	8000 5550 8000 5800
Wire Wire Line
	8100 5800 8100 5550
Wire Wire Line
	8200 5550 8200 5800
Wire Wire Line
	8300 5800 8300 5550
Wire Wire Line
	8400 5550 8400 5800
Wire Wire Line
	8500 5800 8500 5550
Wire Wire Line
	8600 5550 8600 5800
Wire Wire Line
	8700 5800 8700 5550
Wire Wire Line
	9500 4750 9725 4750
Wire Wire Line
	9725 4650 9500 4650
Wire Wire Line
	9500 4550 9725 4550
Wire Wire Line
	9725 4450 9500 4450
Wire Wire Line
	9500 4350 9725 4350
Wire Wire Line
	9725 4250 9500 4250
Wire Wire Line
	9500 4150 9725 4150
Wire Wire Line
	9725 4050 9500 4050
Wire Wire Line
	9500 3950 9725 3950
Wire Wire Line
	9725 3850 9500 3850
Wire Wire Line
	9500 3750 9725 3750
Wire Wire Line
	9500 3650 9825 3650
Wire Wire Line
	9500 3550 9600 3550
Wire Wire Line
	9600 3450 9500 3450
Wire Wire Line
	9500 3350 9825 3350
Wire Wire Line
	9725 3250 9500 3250
Wire Wire Line
	9500 3150 9725 3150
Wire Wire Line
	9725 3050 9500 3050
Wire Wire Line
	9500 2950 9725 2950
Wire Wire Line
	9725 2850 9500 2850
Wire Wire Line
	9500 2750 9725 2750
Wire Wire Line
	9725 2650 9500 2650
Wire Wire Line
	9500 2550 9725 2550
Wire Wire Line
	9725 2450 9500 2450
Wire Wire Line
	9500 2350 9725 2350
Wire Wire Line
	8700 1550 8700 1325
Wire Wire Line
	8600 1325 8600 1550
Wire Wire Line
	8500 1550 8500 1325
Wire Wire Line
	8400 1325 8400 1550
Wire Wire Line
	8300 1550 8300 1325
Wire Wire Line
	8200 1325 8200 1550
Wire Wire Line
	8100 1550 8100 1325
Wire Wire Line
	8000 1325 8000 1550
Wire Wire Line
	7900 1550 7900 1325
Wire Wire Line
	7800 1325 7800 1550
Wire Wire Line
	7700 1550 7700 1325
Wire Wire Line
	7600 1325 7600 1550
Wire Wire Line
	7500 1450 7500 1550
Wire Wire Line
	7400 1450 7400 1550
Wire Wire Line
	7300 1550 7300 1325
Wire Wire Line
	7200 1325 7200 1550
Wire Wire Line
	7100 1550 7100 1325
Wire Wire Line
	7000 1325 7000 1550
Wire Wire Line
	6900 1550 6900 1325
Wire Wire Line
	6800 1325 6800 1550
Wire Wire Line
	6700 1550 6700 1325
Wire Wire Line
	6600 1325 6600 1550
Wire Wire Line
	6500 1550 6500 1325
Wire Wire Line
	6400 1325 6400 1550
Wire Wire Line
	6300 1550 6300 1325
Wire Wire Line
	3800 1150 5050 1150
Wire Wire Line
	3900 1250 5000 1250
Wire Wire Line
	4000 1350 4950 1350
Wire Wire Line
	4100 1450 4900 1450
Wire Wire Line
	5225 2450 5500 2450
Wire Wire Line
	5400 3550 5400 3450
Wire Wire Line
	7400 1450 7500 1450
Wire Wire Line
	9600 3550 9600 3450
Wire Wire Line
	7400 5700 7500 5700
Wire Wire Line
	7300 5900 7350 5900
Wire Wire Line
	7600 5900 7550 5900
Wire Wire Line
	4750 3150 4750 4350
Wire Wire Line
	4800 3050 4800 4250
Wire Wire Line
	4850 1550 4850 4150
Wire Wire Line
	4200 1550 4850 1550
Wire Wire Line
	4900 1450 4900 4050
Wire Wire Line
	4950 1350 4950 3950
Wire Wire Line
	5000 1250 5000 3850
Wire Wire Line
	5050 1150 5050 3750
Text Label 5225 3250 0    60   ~ 0
IO23
Text Label 5225 3150 0    60   ~ 0
IO22
Text Label 5225 3050 0    60   ~ 0
IO21
Text Label 5225 2950 0    60   ~ 0
IO20
Text Label 5225 2850 0    60   ~ 0
IO19
Text Label 5225 2750 0    60   ~ 0
IO18
Text Label 5225 2650 0    60   ~ 0
IO17
Text Label 5225 2550 0    60   ~ 0
IO16
Text Label 5225 2450 0    60   ~ 0
IO15
Text Label 5225 2350 0    60   ~ 0
IO14
Text Label 6300 5800 1    60   ~ 0
IO24
Text Label 6400 5800 1    60   ~ 0
IO25
Text Label 6500 5800 1    60   ~ 0
IO26
Text Label 6600 5800 1    60   ~ 0
IO27
Text Label 6700 5800 1    60   ~ 0
IO28
Text Label 6800 5800 1    60   ~ 0
IO29
Text Label 6900 5800 1    60   ~ 0
IO30
Text Label 7000 5800 1    60   ~ 0
IO31
Text Label 7100 5800 1    60   ~ 0
IO32
Text Label 7200 5800 1    60   ~ 0
IO33
NoConn ~ 8300 5800
Wire Wire Line
	7450 5725 7450 5700
Connection ~ 7450 5700
Wire Wire Line
	7450 1475 7450 1450
Connection ~ 7450 1450
Text Label 8500 5800 1    60   ~ 0
IO41
$Comp
L Crystal_GND24 Y1
U 1 1 5A5D29FC
P 1900 2625
F 0 "Y1" H 2025 2825 50  0000 L CNN
F 1 "8MHz,18pF" V 1725 2600 50  0000 C CNN
F 2 "Crystals:Crystal_SMD_Abracon_ABM3B-4pin_5.0x3.2mm" H 1900 2625 50  0001 C CNN
F 3 "" H 1900 2625 50  0001 C CNN
F 4 "ABM3B-8.000MHZ-B2-T" H 1900 2625 60  0001 C CNN "MPN"
	1    1900 2625
	0    1    1    0   
$EndComp
Wire Wire Line
	1900 2475 1900 2375
Wire Wire Line
	1900 2375 2500 2375
Wire Wire Line
	2500 2375 2500 2850
Wire Wire Line
	2500 2850 2675 2850
Wire Wire Line
	1900 2775 1900 2950
Wire Wire Line
	1900 2950 2675 2950
Wire Wire Line
	1700 2625 1500 2625
$Comp
L GND #PWR039
U 1 1 5A5D2EF3
P 1500 2625
F 0 "#PWR039" H 1500 2375 50  0001 C CNN
F 1 "GND" H 1500 2475 50  0000 C CNN
F 2 "" H 1500 2625 50  0001 C CNN
F 3 "" H 1500 2625 50  0001 C CNN
	1    1500 2625
	1    0    0    -1  
$EndComp
$Comp
L C_Small C10
U 1 1 5A5D2FE2
P 2225 2500
F 0 "C10" H 2235 2570 50  0000 L CNN
F 1 "18pF,5%,50V" V 2235 2420 50  0000 C CNN
F 2 "Capacitors_SMD:C_0603" H 2225 2500 50  0001 C CNN
F 3 "" H 2225 2500 50  0001 C CNN
F 4 "GPC0603180" H 2225 2500 60  0001 C CNN "MPN"
	1    2225 2500
	1    0    0    -1  
$EndComp
$Comp
L C_Small C11
U 1 1 5A5D30FF
P 2225 2775
F 0 "C11" H 2235 2845 50  0000 L CNN
F 1 "18pF,5%,50V" V 2235 2695 50  0000 C CNN
F 2 "Capacitors_SMD:C_0603" H 2225 2775 50  0001 C CNN
F 3 "" H 2225 2775 50  0001 C CNN
F 4 "GPC0603180" H 2225 2775 60  0001 C CNN "MPN"
	1    2225 2775
	1    0    0    -1  
$EndComp
Wire Wire Line
	2100 2625 2375 2625
$Comp
L GND #PWR040
U 1 1 5A5D32D2
P 2375 2625
F 0 "#PWR040" H 2375 2375 50  0001 C CNN
F 1 "GND" H 2375 2475 50  0000 C CNN
F 2 "" H 2375 2625 50  0001 C CNN
F 3 "" H 2375 2625 50  0001 C CNN
	1    2375 2625
	1    0    0    -1  
$EndComp
Wire Wire Line
	2225 2600 2225 2675
Connection ~ 2225 2625
Wire Wire Line
	2225 2875 2225 2950
Connection ~ 2225 2950
Wire Wire Line
	2225 2400 2225 2375
Connection ~ 2225 2375
$Comp
L Fiducial F1
U 1 1 5A5D442E
P 9850 1325
F 0 "F1" H 9850 1275 60  0000 C CNN
F 1 "Fiducial" H 9850 1350 60  0000 C CNN
F 2 "Retro_uC:Fiducial" H 9850 1275 60  0001 C CNN
F 3 "" H 9850 1275 60  0000 C CNN
	1    9850 1325
	1    0    0    -1  
$EndComp
$Comp
L Fiducial F2
U 1 1 5A5D44F7
P 10350 1325
F 0 "F2" H 10350 1275 60  0000 C CNN
F 1 "Fiducial" H 10350 1350 60  0000 C CNN
F 2 "Retro_uC:Fiducial" H 10350 1275 60  0001 C CNN
F 3 "" H 10350 1275 60  0000 C CNN
	1    10350 1325
	1    0    0    -1  
$EndComp
$Comp
L Fiducial F3
U 1 1 5A5D459E
P 10850 1325
F 0 "F3" H 10850 1275 60  0000 C CNN
F 1 "Fiducial" H 10850 1350 60  0000 C CNN
F 2 "Retro_uC:Fiducial" H 10850 1275 60  0001 C CNN
F 3 "" H 10850 1275 60  0000 C CNN
	1    10850 1325
	1    0    0    -1  
$EndComp
Text Notes 10175 1550 0    60   ~ 0
Fiducials
Wire Wire Line
	4750 4350 5500 4350
Wire Wire Line
	4800 4250 5500 4250
Wire Wire Line
	4850 4150 5500 4150
Wire Wire Line
	4900 4050 5500 4050
Wire Wire Line
	4950 3950 5500 3950
Wire Wire Line
	5000 3850 5500 3850
$Comp
L GND #PWR041
U 1 1 5A5E3AA1
P 5025 4450
F 0 "#PWR041" H 5025 4200 50  0001 C CNN
F 1 "GND" H 5025 4300 50  0000 C CNN
F 2 "" H 5025 4450 50  0001 C CNN
F 3 "" H 5025 4450 50  0001 C CNN
	1    5025 4450
	1    0    0    -1  
$EndComp
Wire Wire Line
	5350 4450 5500 4450
Text Label 8400 5800 1    60   ~ 0
IO40
$Comp
L R_Small R6
U 1 1 5A5E51C8
P 5250 4450
F 0 "R6" V 5200 4400 50  0000 L CNN
F 1 "100k,5%" V 5280 4410 50  0000 L CNN
F 2 "Resistors_SMD:R_0603" H 5250 4450 50  0001 C CNN
F 3 "" H 5250 4450 50  0001 C CNN
F 4 "GPR0603100K" V 5250 4450 60  0001 C CNN "MPN"
	1    5250 4450
	0    1    1    0   
$EndComp
Wire Wire Line
	5150 4450 5025 4450
$EndSCHEMATC
