EESchema Schematic File Version 2
LIBS:power
LIBS:device
LIBS:transistors
LIBS:conn
LIBS:linear
LIBS:regul
LIBS:74xx
LIBS:cmos4000
LIBS:adc-dac
LIBS:memory
LIBS:xilinx
LIBS:microcontrollers
LIBS:dsp
LIBS:microchip
LIBS:analog_switches
LIBS:motorola
LIBS:texas
LIBS:intel
LIBS:audio
LIBS:interface
LIBS:digital-audio
LIBS:philips
LIBS:display
LIBS:cypress
LIBS:siliconi
LIBS:opto
LIBS:atmel
LIBS:contrib
LIBS:valves
LIBS:RuC_nano-cache
EELAYER 25 0
EELAYER END
$Descr A4 11693 8268
encoding utf-8
Sheet 1 1
Title ""
Date "jeu. 02 avril 2015"
Rev ""
Comp ""
Comment1 ""
Comment2 ""
Comment3 ""
Comment4 ""
$EndDescr
$Comp
L CONN_1 P3
U 1 1 551D9380
P 10800 650
F 0 "P3" H 10880 650 40  0000 L CNN
F 1 "CONN_1" H 10800 705 30  0001 C CNN
F 2 "Socket_Arduino_Nano:1pin_Nano" H 10800 650 60  0001 C CNN
F 3 "" H 10800 650 60  0000 C CNN
	1    10800 650 
	0    -1   -1   0   
$EndComp
$Comp
L CONN_1 P4
U 1 1 551D9414
P 10900 650
F 0 "P4" H 10980 650 40  0000 L CNN
F 1 "CONN_1" H 10900 705 30  0001 C CNN
F 2 "Socket_Arduino_Nano:1pin_Nano" H 10900 650 60  0001 C CNN
F 3 "" H 10900 650 60  0000 C CNN
	1    10900 650 
	0    -1   -1   0   
$EndComp
$Comp
L CONN_1 P5
U 1 1 551D9432
P 11000 650
F 0 "P5" H 11080 650 40  0000 L CNN
F 1 "CONN_1" H 11000 705 30  0001 C CNN
F 2 "Socket_Arduino_Nano:1pin_Nano" H 11000 650 60  0001 C CNN
F 3 "" H 11000 650 60  0000 C CNN
	1    11000 650 
	0    -1   -1   0   
$EndComp
$Comp
L CONN_1 P6
U 1 1 551D9466
P 11100 650
F 0 "P6" H 11180 650 40  0000 L CNN
F 1 "CONN_1" H 11100 705 30  0001 C CNN
F 2 "Socket_Arduino_Nano:1pin_Nano" H 11100 650 60  0001 C CNN
F 3 "" H 11100 650 60  0000 C CNN
	1    11100 650 
	0    -1   -1   0   
$EndComp
$Comp
L CONN_15 P1
U 1 1 551D9496
P 9625 2000
F 0 "P1" V 9595 2050 60  0000 C CNN
F 1 "Digital" V 9705 2050 60  0000 C CNN
F 2 "Socket_Arduino_Nano:Socket_Strip_Arduino_1x15" H 9625 2050 60  0001 C CNN
F 3 "" H 9625 2050 60  0000 C CNN
	1    9625 2000
	1    0    0    -1  
$EndComp
$Comp
L CONN_15 P2
U 1 1 551D94EF
P 10000 2000
F 0 "P2" V 9970 2050 60  0000 C CNN
F 1 "Analog" V 10080 2050 60  0000 C CNN
F 2 "Socket_Arduino_Nano:Socket_Strip_Arduino_1x15" H 10000 2050 60  0001 C CNN
F 3 "" H 10000 2050 60  0000 C CNN
	1    10000 2000
	-1   0    0    -1  
$EndComp
NoConn ~ 10800 800 
NoConn ~ 10900 800 
NoConn ~ 11000 800 
NoConn ~ 11100 800 
Text Label 8575 1600 0    60   ~ 0
IO1
Text Label 8575 1500 0    60   ~ 0
IO0
Text Label 8575 1400 0    60   ~ 0
RESET
Text Label 8575 1700 0    60   ~ 0
IO2
Text Label 8575 1800 0    60   ~ 0
IO3
Text Label 8575 1900 0    60   ~ 0
IO4
Text Label 8575 2000 0    60   ~ 0
IO5
Text Label 8575 2100 0    60   ~ 0
IO6
Text Label 8575 2200 0    60   ~ 0
IO7
Text Label 8575 2300 0    60   ~ 0
IO8
Text Label 8575 2400 0    60   ~ 0
IO9
Text Label 8575 2500 0    60   ~ 0
IO10
Text Label 8575 2600 0    60   ~ 0
IO11
Text Label 8575 2700 0    60   ~ 0
IO12
Text Label 10750 2700 0    60   ~ 0
IO13
Text Label 10750 2600 0    60   ~ 0
IO14
Text Label 10750 2500 0    60   ~ 0
IO15
Text Label 10750 2400 0    60   ~ 0
IO16
Text Label 10750 2300 0    60   ~ 0
IO17
Text Label 10750 2200 0    60   ~ 0
IO18
Text Label 10750 2100 0    60   ~ 0
IO19
Text Label 10750 2000 0    60   ~ 0
IO20
Text Label 10750 1900 0    60   ~ 0
TRST
Text Notes 10850 950  0    60   ~ 0
Holes
Wire Wire Line
	8550 2700 9275 2700
Wire Wire Line
	8550 2600 9275 2600
Wire Wire Line
	8550 2500 9275 2500
Wire Wire Line
	8550 2400 9275 2400
Wire Wire Line
	8550 2300 9275 2300
Wire Wire Line
	8550 2200 9275 2200
Wire Wire Line
	8550 2100 9275 2100
Wire Wire Line
	8550 2000 9275 2000
Wire Wire Line
	8550 1900 9275 1900
Wire Wire Line
	8550 1800 9275 1800
Wire Wire Line
	8550 1700 9275 1700
Wire Wire Line
	8550 1500 9275 1500
Wire Wire Line
	8550 1400 9275 1400
Wire Wire Line
	8550 1300 9275 1300
Wire Wire Line
	8550 1600 9275 1600
Wire Wire Line
	10425 1125 10425 1300
Wire Wire Line
	10425 1300 10350 1300
Wire Wire Line
	10350 2600 11125 2600
Wire Wire Line
	10350 1600 11125 1600
Wire Notes Line
	10700 475  10700 975 
Wire Notes Line
	10700 975  11225 975 
Wire Wire Line
	10425 1400 10425 2875
Wire Wire Line
	10425 1400 10350 1400
Wire Notes Line
	11225 3000 8525 3000
Wire Wire Line
	10350 1500 11125 1500
Wire Wire Line
	10350 1700 11125 1700
Wire Wire Line
	10350 1800 11125 1800
Wire Wire Line
	10350 1900 11125 1900
Wire Wire Line
	10350 2000 11125 2000
Wire Wire Line
	10350 2100 11125 2100
Wire Wire Line
	10350 2200 11125 2200
Wire Wire Line
	10350 2300 11125 2300
Wire Wire Line
	10350 2400 11125 2400
Wire Wire Line
	10350 2500 11125 2500
Wire Wire Line
	10350 2700 11125 2700
Wire Notes Line
	8550 3000 8475 3000
Wire Notes Line
	8475 3000 8475 475 
$Comp
L +5V #PWR01
U 1 1 59E91383
P 10425 1125
F 0 "#PWR01" H 10425 975 50  0001 C CNN
F 1 "+5V" H 10425 1265 50  0000 C CNN
F 2 "" H 10425 1125 50  0000 C CNN
F 3 "" H 10425 1125 50  0000 C CNN
	1    10425 1125
	1    0    0    -1  
$EndComp
Text Label 8575 1300 0    60   ~ 0
CLK
Text Label 10750 1500 0    60   ~ 0
TMS
Text Label 10750 1600 0    60   ~ 0
TCK
Text Label 10750 1700 0    60   ~ 0
TDO
Text Label 10750 1800 0    60   ~ 0
TDI
$Comp
L RuC_DIE D1
U 1 1 59EA5950
P 4250 3150
F 0 "D1" H 4250 3075 60  0000 C CNN
F 1 "RuC_DIE" H 4250 3200 60  0000 C CNN
F 2 "RuC_nano:CCBPS_WB_40" H 4575 3150 60  0001 C CNN
F 3 "" H 4575 3150 60  0000 C CNN
	1    4250 3150
	1    0    0    -1  
$EndComp
Text Notes 3475 1775 0    60   ~ 0
Bare die to be wirebonded on the PCB
Wire Wire Line
	3375 2700 3050 2700
Wire Wire Line
	3375 2800 3050 2800
Wire Wire Line
	3050 2900 3375 2900
Wire Wire Line
	3375 3000 3050 3000
Wire Wire Line
	2950 3100 3375 3100
Wire Wire Line
	2950 3200 3375 3200
Wire Wire Line
	2750 3300 3375 3300
Wire Wire Line
	3375 3400 3050 3400
Wire Wire Line
	3050 3500 3375 3500
Wire Wire Line
	3375 3600 3050 3600
Wire Wire Line
	3800 3950 3800 4250
Wire Wire Line
	3900 4250 3900 3950
Wire Wire Line
	4000 3950 4000 4250
Wire Wire Line
	4100 4250 4100 3950
Wire Wire Line
	4200 3950 4200 4500
Wire Wire Line
	4300 4250 4300 3950
Wire Wire Line
	4400 3950 4400 4500
Wire Wire Line
	4500 4250 4500 3950
Wire Wire Line
	4600 3950 4600 4250
Wire Wire Line
	4700 4250 4700 3950
Wire Wire Line
	5150 3600 5450 3600
Wire Wire Line
	5450 3500 5150 3500
Wire Wire Line
	5150 3400 5450 3400
Wire Wire Line
	5150 3300 5750 3300
Wire Wire Line
	5150 3200 5550 3200
Wire Wire Line
	5150 3100 5550 3100
Wire Wire Line
	5150 3000 5450 3000
Wire Wire Line
	5450 2900 5150 2900
Wire Wire Line
	5150 2800 5450 2800
Wire Wire Line
	5450 2700 5150 2700
Wire Wire Line
	4700 2350 4700 2100
Wire Wire Line
	4600 2100 4600 2350
Wire Wire Line
	4500 2350 4500 2100
Wire Wire Line
	4400 2000 4400 2350
Wire Wire Line
	4300 2050 4300 2350
Wire Wire Line
	4200 2000 4200 2350
Wire Wire Line
	4100 2350 4100 2100
Wire Wire Line
	4000 2100 4000 2350
Wire Wire Line
	3900 2350 3900 2100
Wire Wire Line
	3800 2100 3800 2350
Text Label 3050 2700 0    60   ~ 0
CLK
Text Label 3050 2800 0    60   ~ 0
RESET
Text Label 3050 2900 0    60   ~ 0
IO0
Text Label 3050 3000 0    60   ~ 0
IO1
Text Label 3050 3400 0    60   ~ 0
IO2
Text Label 3050 3500 0    60   ~ 0
IO3
Text Label 3050 3600 0    60   ~ 0
IO4
Text Label 3800 4250 1    60   ~ 0
IO5
Text Label 3900 4250 1    60   ~ 0
IO6
Text Label 4000 4250 1    60   ~ 0
IO7
Text Label 4100 4250 1    60   ~ 0
IO8
Text Label 4500 4250 1    60   ~ 0
IO9
Text Label 4600 4250 1    60   ~ 0
IO10
Text Label 4700 4250 1    60   ~ 0
IO11
Text Label 5450 3600 2    60   ~ 0
IO12
Text Label 5450 3500 2    60   ~ 0
IO13
Text Label 5450 3400 2    60   ~ 0
IO14
Text Label 5450 3000 2    60   ~ 0
IO15
Text Label 5450 2900 2    60   ~ 0
IO16
Text Label 5450 2800 2    60   ~ 0
IO17
Text Label 5450 2700 2    60   ~ 0
IO18
Text Label 4700 2100 3    60   ~ 0
IO19
Text Label 4600 2100 3    60   ~ 0
IO20
Text Label 4500 2100 3    60   ~ 0
TRST
Text Label 4100 2100 3    60   ~ 0
TDI
Text Label 4000 2100 3    60   ~ 0
TDO
Text Label 3900 2100 3    60   ~ 0
TCK
Text Label 3800 2100 3    60   ~ 0
TMS
Wire Wire Line
	2950 3100 2950 2900
Wire Wire Line
	2750 3300 2750 2900
Wire Wire Line
	2950 3200 2950 3400
$Comp
L +3.3V #PWR02
U 1 1 59EA69FF
P 2750 2900
F 0 "#PWR02" H 2750 2750 50  0001 C CNN
F 1 "+3.3V" H 2750 3040 50  0000 C CNN
F 2 "" H 2750 2900 50  0000 C CNN
F 3 "" H 2750 2900 50  0000 C CNN
	1    2750 2900
	1    0    0    -1  
$EndComp
$Comp
L +5V #PWR03
U 1 1 59EA6A86
P 2950 2900
F 0 "#PWR03" H 2950 2750 50  0001 C CNN
F 1 "+5V" H 2950 3040 50  0000 C CNN
F 2 "" H 2950 2900 50  0000 C CNN
F 3 "" H 2950 2900 50  0000 C CNN
	1    2950 2900
	1    0    0    -1  
$EndComp
$Comp
L GND #PWR04
U 1 1 59EA6AAA
P 2950 3400
F 0 "#PWR04" H 2950 3150 50  0001 C CNN
F 1 "GND" H 2950 3250 50  0000 C CNN
F 2 "" H 2950 3400 50  0000 C CNN
F 3 "" H 2950 3400 50  0000 C CNN
	1    2950 3400
	1    0    0    -1  
$EndComp
$Comp
L GND #PWR05
U 1 1 59EA6AFF
P 4300 4250
F 0 "#PWR05" H 4300 4000 50  0001 C CNN
F 1 "GND" H 4300 4100 50  0000 C CNN
F 2 "" H 4300 4250 50  0000 C CNN
F 3 "" H 4300 4250 50  0000 C CNN
	1    4300 4250
	1    0    0    -1  
$EndComp
$Comp
L +5V #PWR06
U 1 1 59EA6B23
P 4100 4450
F 0 "#PWR06" H 4100 4300 50  0001 C CNN
F 1 "+5V" H 4100 4590 50  0000 C CNN
F 2 "" H 4100 4450 50  0000 C CNN
F 3 "" H 4100 4450 50  0000 C CNN
	1    4100 4450
	1    0    0    -1  
$EndComp
$Comp
L +3.3V #PWR07
U 1 1 59EA6B47
P 4500 4450
F 0 "#PWR07" H 4500 4300 50  0001 C CNN
F 1 "+3.3V" H 4500 4590 50  0000 C CNN
F 2 "" H 4500 4450 50  0000 C CNN
F 3 "" H 4500 4450 50  0000 C CNN
	1    4500 4450
	1    0    0    -1  
$EndComp
Wire Wire Line
	4500 4450 4500 4500
Wire Wire Line
	4500 4500 4400 4500
Wire Wire Line
	4200 4500 4100 4500
Wire Wire Line
	4100 4500 4100 4450
Wire Wire Line
	5550 3100 5550 2900
Wire Wire Line
	5550 3200 5550 3400
Wire Wire Line
	5750 3300 5750 2900
$Comp
L +5V #PWR08
U 1 1 59EA6D8E
P 5550 2900
F 0 "#PWR08" H 5550 2750 50  0001 C CNN
F 1 "+5V" H 5550 3040 50  0000 C CNN
F 2 "" H 5550 2900 50  0000 C CNN
F 3 "" H 5550 2900 50  0000 C CNN
	1    5550 2900
	1    0    0    -1  
$EndComp
$Comp
L +3.3V #PWR09
U 1 1 59EA6DB2
P 5750 2900
F 0 "#PWR09" H 5750 2750 50  0001 C CNN
F 1 "+3.3V" H 5750 3040 50  0000 C CNN
F 2 "" H 5750 2900 50  0000 C CNN
F 3 "" H 5750 2900 50  0000 C CNN
	1    5750 2900
	1    0    0    -1  
$EndComp
$Comp
L GND #PWR010
U 1 1 59EA6DD6
P 5550 3400
F 0 "#PWR010" H 5550 3150 50  0001 C CNN
F 1 "GND" H 5550 3250 50  0000 C CNN
F 2 "" H 5550 3400 50  0000 C CNN
F 3 "" H 5550 3400 50  0000 C CNN
	1    5550 3400
	1    0    0    -1  
$EndComp
$Comp
L +5V #PWR011
U 1 1 59EA6E12
P 4200 2000
F 0 "#PWR011" H 4200 1850 50  0001 C CNN
F 1 "+5V" H 4200 2140 50  0000 C CNN
F 2 "" H 4200 2000 50  0000 C CNN
F 3 "" H 4200 2000 50  0000 C CNN
	1    4200 2000
	1    0    0    -1  
$EndComp
$Comp
L +3.3V #PWR012
U 1 1 59EA6E36
P 4400 2000
F 0 "#PWR012" H 4400 1850 50  0001 C CNN
F 1 "+3.3V" H 4400 2140 50  0000 C CNN
F 2 "" H 4400 2000 50  0000 C CNN
F 3 "" H 4400 2000 50  0000 C CNN
	1    4400 2000
	1    0    0    -1  
$EndComp
$Comp
L GND #PWR013
U 1 1 59EA6E7B
P 4850 2100
F 0 "#PWR013" H 4850 1850 50  0001 C CNN
F 1 "GND" H 4850 1950 50  0000 C CNN
F 2 "" H 4850 2100 50  0000 C CNN
F 3 "" H 4850 2100 50  0000 C CNN
	1    4850 2100
	1    0    0    -1  
$EndComp
Wire Wire Line
	4850 2100 4850 2050
Wire Wire Line
	4850 2050 4300 2050
$Comp
L APE8865NR-33-HF-3 U1
U 1 1 59EA711C
P 7125 3900
F 0 "U1" H 6825 4150 50  0000 C CNN
F 1 "APE8865NR-33-HF-3" H 7125 4100 50  0000 C CNN
F 2 "TO_SOT_Packages_SMD:SOT-23" H 7125 4000 50  0000 C CIN
F 3 "" H 7125 3900 50  0000 C CNN
	1    7125 3900
	1    0    0    -1  
$EndComp
Wire Wire Line
	7125 4425 7125 4200
$Comp
L GND #PWR014
U 1 1 59EA7300
P 7125 4425
F 0 "#PWR014" H 7125 4175 50  0001 C CNN
F 1 "GND" H 7125 4275 50  0000 C CNN
F 2 "" H 7125 4425 50  0000 C CNN
F 3 "" H 7125 4425 50  0000 C CNN
	1    7125 4425
	1    0    0    -1  
$EndComp
$Comp
L +5V #PWR015
U 1 1 59EA7326
P 6425 3825
F 0 "#PWR015" H 6425 3675 50  0001 C CNN
F 1 "+5V" H 6425 3965 50  0000 C CNN
F 2 "" H 6425 3825 50  0000 C CNN
F 3 "" H 6425 3825 50  0000 C CNN
	1    6425 3825
	1    0    0    -1  
$EndComp
$Comp
L +3.3V #PWR016
U 1 1 59EA734C
P 7875 3825
F 0 "#PWR016" H 7875 3675 50  0001 C CNN
F 1 "+3.3V" H 7875 3965 50  0000 C CNN
F 2 "" H 7875 3825 50  0000 C CNN
F 3 "" H 7875 3825 50  0000 C CNN
	1    7875 3825
	1    0    0    -1  
$EndComp
$Comp
L CP1_Small C1
U 1 1 59EA737B
P 6425 4300
F 0 "C1" H 6435 4370 50  0000 L CNN
F 1 "4.7uF" H 6435 4220 50  0000 L CNN
F 2 "Capacitors_SMD:C_0603" H 6425 4300 50  0001 C CNN
F 3 "" H 6425 4300 50  0000 C CNN
	1    6425 4300
	1    0    0    -1  
$EndComp
$Comp
L CP1_Small C4
U 1 1 59EA749A
P 7875 4300
F 0 "C4" H 7885 4370 50  0000 L CNN
F 1 "4.7uF" H 7885 4220 50  0000 L CNN
F 2 "Capacitors_SMD:C_0603" H 7875 4300 50  0001 C CNN
F 3 "" H 7875 4300 50  0000 C CNN
	1    7875 4300
	1    0    0    -1  
$EndComp
$Comp
L C_Small C2
U 1 1 59EA7593
P 6650 4300
F 0 "C2" H 6660 4370 50  0000 L CNN
F 1 "0.1uF" H 6660 4220 50  0000 L CNN
F 2 "Capacitors_SMD:C_0603" H 6650 4300 50  0001 C CNN
F 3 "" H 6650 4300 50  0000 C CNN
	1    6650 4300
	1    0    0    -1  
$EndComp
$Comp
L C_Small C3
U 1 1 59EA75C6
P 7650 4300
F 0 "C3" H 7660 4370 50  0000 L CNN
F 1 "0.1uF" H 7660 4220 50  0000 L CNN
F 2 "Capacitors_SMD:C_0603" H 7650 4300 50  0001 C CNN
F 3 "" H 7650 4300 50  0000 C CNN
	1    7650 4300
	1    0    0    -1  
$EndComp
Wire Wire Line
	7875 4425 7875 4400
Wire Wire Line
	6425 4425 7875 4425
Wire Wire Line
	6425 4425 6425 4400
Connection ~ 7125 4425
Wire Wire Line
	6650 4400 6650 4425
Connection ~ 6650 4425
Wire Wire Line
	7650 4425 7650 4400
Connection ~ 7650 4425
Wire Wire Line
	7875 4200 7875 3825
Wire Wire Line
	6650 4200 6650 4175
Wire Wire Line
	6650 4175 6425 4175
Wire Wire Line
	6425 3825 6425 4200
Connection ~ 6425 4175
Wire Wire Line
	6425 3850 6675 3850
Connection ~ 6425 3850
Wire Wire Line
	7875 3850 7575 3850
Connection ~ 7875 3850
Wire Wire Line
	7650 4200 7650 4175
Wire Wire Line
	7650 4175 7875 4175
Connection ~ 7875 4175
$Comp
L GND #PWR017
U 1 1 59EA6960
P 10425 2875
F 0 "#PWR017" H 10425 2625 50  0001 C CNN
F 1 "GND" H 10425 2725 50  0000 C CNN
F 2 "" H 10425 2875 50  0000 C CNN
F 3 "" H 10425 2875 50  0000 C CNN
	1    10425 2875
	1    0    0    -1  
$EndComp
$EndSCHEMATC
