EESchema Schematic File Version 2
LIBS:power
LIBS:device
LIBS:switches
LIBS:relays
LIBS:motors
LIBS:transistors
LIBS:conn
LIBS:linear
LIBS:regul
LIBS:74xx
LIBS:cmos4000
LIBS:adc-dac
LIBS:memory
LIBS:xilinx
LIBS:microcontrollers
LIBS:dsp
LIBS:microchip
LIBS:analog_switches
LIBS:motorola
LIBS:texas
LIBS:intel
LIBS:audio
LIBS:interface
LIBS:digital-audio
LIBS:philips
LIBS:display
LIBS:cypress
LIBS:siliconi
LIBS:opto
LIBS:atmel
LIBS:contrib
LIBS:valves
LIBS:C4M
LIBS:Retro_uC
LIBS:C4M_test
LIBS:Retro_uC-ProtoPlus-cache
EELAYER 25 0
EELAYER END
$Descr A4 11693 8268
encoding utf-8
Sheet 1 1
Title ""
Date ""
Rev ""
Comp ""
Comment1 ""
Comment2 ""
Comment3 ""
Comment4 ""
$EndDescr
$Comp
L Retro_uC-QFN100 RUC1
U 1 1 5A6CACE6
P 2850 2550
F 0 "RUC1" H 5075 1525 60  0000 R CNN
F 1 "Retro_uC-QFN100" H 5325 1400 60  0000 R CNN
F 2 "" H 2850 2550 60  0001 C CNN
F 3 "" H 2850 2550 60  0001 C CNN
	1    2850 2550
	1    0    0    -1  
$EndComp
$Comp
L GND #PWR01
U 1 1 5A6E0FB3
P 2650 3700
F 0 "#PWR01" H 2650 3450 50  0001 C CNN
F 1 "GND" H 2650 3625 50  0000 C CNN
F 2 "" H 2650 3700 50  0001 C CNN
F 3 "" H 2650 3700 50  0001 C CNN
	1    2650 3700
	1    0    0    -1  
$EndComp
Wire Wire Line
	2650 3700 2750 3700
Wire Wire Line
	2750 3650 2750 3750
Wire Wire Line
	2750 3650 2850 3650
Wire Wire Line
	2750 3750 2850 3750
Connection ~ 2750 3700
$Comp
L +3V3 #PWR02
U 1 1 5A6E0FD4
P 2650 3575
F 0 "#PWR02" H 2650 3425 50  0001 C CNN
F 1 "+3V3" H 2650 3650 50  0000 C CNN
F 2 "" H 2650 3575 50  0001 C CNN
F 3 "" H 2650 3575 50  0001 C CNN
	1    2650 3575
	1    0    0    -1  
$EndComp
Wire Wire Line
	2650 3575 2750 3575
Wire Wire Line
	2750 3575 2750 3550
Wire Wire Line
	2750 3550 2850 3550
$Comp
L +5V #PWR03
U 1 1 5A6E100D
P 2550 3850
F 0 "#PWR03" H 2550 3700 50  0001 C CNN
F 1 "+5V" H 2550 3990 50  0000 C CNN
F 2 "" H 2550 3850 50  0001 C CNN
F 3 "" H 2550 3850 50  0001 C CNN
	1    2550 3850
	1    0    0    -1  
$EndComp
Wire Wire Line
	2550 3850 2850 3850
$Comp
L GND #PWR04
U 1 1 5A6E1048
P 7025 3700
F 0 "#PWR04" H 7025 3450 50  0001 C CNN
F 1 "GND" H 7025 3600 50  0000 C CNN
F 2 "" H 7025 3700 50  0001 C CNN
F 3 "" H 7025 3700 50  0001 C CNN
	1    7025 3700
	1    0    0    -1  
$EndComp
Wire Wire Line
	7025 3700 6950 3700
Wire Wire Line
	6950 3650 6950 3750
Wire Wire Line
	6950 3650 6850 3650
Wire Wire Line
	6950 3750 6850 3750
Connection ~ 6950 3700
$Comp
L +3V3 #PWR05
U 1 1 5A6E107B
P 7025 3600
F 0 "#PWR05" H 7025 3450 50  0001 C CNN
F 1 "+3V3" H 7025 3700 50  0000 C CNN
F 2 "" H 7025 3600 50  0001 C CNN
F 3 "" H 7025 3600 50  0001 C CNN
	1    7025 3600
	1    0    0    -1  
$EndComp
Wire Wire Line
	7025 3600 6950 3600
Wire Wire Line
	6950 3600 6950 3550
Wire Wire Line
	6950 3550 6850 3550
$Comp
L +5V #PWR06
U 1 1 5A6E10CE
P 7150 3850
F 0 "#PWR06" H 7150 3700 50  0001 C CNN
F 1 "+5V" H 7150 3990 50  0000 C CNN
F 2 "" H 7150 3850 50  0001 C CNN
F 3 "" H 7150 3850 50  0001 C CNN
	1    7150 3850
	1    0    0    -1  
$EndComp
Wire Wire Line
	7150 3850 6850 3850
$Comp
L GND #PWR07
U 1 1 5A6E110C
P 4800 5875
F 0 "#PWR07" H 4800 5625 50  0001 C CNN
F 1 "GND" H 4800 5725 50  0000 C CNN
F 2 "" H 4800 5875 50  0001 C CNN
F 3 "" H 4800 5875 50  0001 C CNN
	1    4800 5875
	1    0    0    -1  
$EndComp
Wire Wire Line
	4800 5875 4800 5825
Wire Wire Line
	4750 5825 4850 5825
Wire Wire Line
	4750 5825 4750 5750
Wire Wire Line
	4850 5825 4850 5750
Connection ~ 4800 5825
$Comp
L +3V3 #PWR08
U 1 1 5A6E1151
P 4700 5900
F 0 "#PWR08" H 4700 5750 50  0001 C CNN
F 1 "+3V3" V 4625 5925 50  0000 C CNN
F 2 "" H 4700 5900 50  0001 C CNN
F 3 "" H 4700 5900 50  0001 C CNN
	1    4700 5900
	1    0    0    -1  
$EndComp
Wire Wire Line
	4700 5900 4650 5900
Wire Wire Line
	4650 5900 4650 5750
$Comp
L +5V #PWR09
U 1 1 5A6E1181
P 4900 5900
F 0 "#PWR09" H 4900 5750 50  0001 C CNN
F 1 "+5V" V 4975 5950 50  0000 C CNN
F 2 "" H 4900 5900 50  0001 C CNN
F 3 "" H 4900 5900 50  0001 C CNN
	1    4900 5900
	1    0    0    -1  
$EndComp
Wire Wire Line
	4900 5900 4950 5900
Wire Wire Line
	4950 5900 4950 5750
$Comp
L GND #PWR010
U 1 1 5A6E11E2
P 4800 1600
F 0 "#PWR010" H 4800 1350 50  0001 C CNN
F 1 "GND" H 4800 1450 50  0000 C CNN
F 2 "" H 4800 1600 50  0001 C CNN
F 3 "" H 4800 1600 50  0001 C CNN
	1    4800 1600
	1    0    0    -1  
$EndComp
Wire Wire Line
	4750 1600 4850 1600
Wire Wire Line
	4750 1600 4750 1750
Wire Wire Line
	4850 1600 4850 1750
Connection ~ 4800 1600
$Comp
L +3V3 #PWR011
U 1 1 5A6E1237
P 4650 1600
F 0 "#PWR011" H 4650 1450 50  0001 C CNN
F 1 "+3V3" H 4650 1740 50  0000 C CNN
F 2 "" H 4650 1600 50  0001 C CNN
F 3 "" H 4650 1600 50  0001 C CNN
	1    4650 1600
	1    0    0    -1  
$EndComp
Wire Wire Line
	4650 1600 4650 1750
Wire Wire Line
	4950 1750 4950 1600
$Comp
L +5V #PWR012
U 1 1 5A6E1292
P 4950 1600
F 0 "#PWR012" H 4950 1450 50  0001 C CNN
F 1 "+5V" H 4950 1740 50  0000 C CNN
F 2 "" H 4950 1600 50  0001 C CNN
F 3 "" H 4950 1600 50  0001 C CNN
	1    4950 1600
	1    0    0    -1  
$EndComp
$Comp
L PERF+_24_15_LRBT P1
U 2 1 5A70A0E0
P 1725 2550
F 0 "P1" H 1925 2800 60  0000 L CNN
F 1 "PERF+_24_15_LRBT" H 1925 2700 60  0000 L CNN
F 2 "" H 1725 2550 60  0001 C CNN
F 3 "" H 1725 2550 60  0001 C CNN
	2    1725 2550
	-1   0    0    -1  
$EndComp
Wire Wire Line
	1725 2550 2850 2550
Wire Wire Line
	1725 2650 2850 2650
Wire Wire Line
	1725 2750 2850 2750
Wire Wire Line
	1725 2850 2850 2850
Wire Wire Line
	1725 2950 2850 2950
Wire Wire Line
	1725 3050 2850 3050
Wire Wire Line
	1725 3150 2850 3150
Wire Wire Line
	1725 3250 2850 3250
Wire Wire Line
	1725 3350 2850 3350
Wire Wire Line
	2850 3450 1725 3450
Wire Wire Line
	1725 3550 2450 3550
Wire Wire Line
	2450 3550 2450 3950
Wire Wire Line
	2450 3950 2850 3950
Wire Wire Line
	1725 3650 2400 3650
Wire Wire Line
	2400 3650 2400 4050
Wire Wire Line
	2400 4050 2850 4050
Wire Wire Line
	1725 3750 2350 3750
Wire Wire Line
	2350 3750 2350 4150
Wire Wire Line
	2350 4150 2850 4150
Wire Wire Line
	2850 4250 2300 4250
Wire Wire Line
	2300 4250 2300 3850
Wire Wire Line
	2300 3850 1725 3850
Wire Wire Line
	1725 3950 2250 3950
Wire Wire Line
	2250 3950 2250 4350
Wire Wire Line
	2250 4350 2850 4350
Wire Wire Line
	2850 4450 2200 4450
Wire Wire Line
	2200 4450 2200 4050
Wire Wire Line
	2200 4050 1725 4050
Wire Wire Line
	1725 4150 2150 4150
Wire Wire Line
	2150 4150 2150 4550
Wire Wire Line
	2150 4550 2850 4550
Wire Wire Line
	2850 4650 2100 4650
Wire Wire Line
	2100 4650 2100 4250
Wire Wire Line
	2100 4250 1725 4250
Wire Wire Line
	1725 4350 2050 4350
Wire Wire Line
	2050 4350 2050 4750
Wire Wire Line
	2050 4750 2850 4750
Wire Wire Line
	2000 4850 2850 4850
Wire Wire Line
	2000 4850 2000 4450
Wire Wire Line
	2000 4450 1725 4450
Wire Wire Line
	1725 4550 1950 4550
Wire Wire Line
	1950 4550 1950 4950
Wire Wire Line
	1950 4950 2850 4950
$Comp
L GND #PWR013
U 1 1 5A70A86F
P 1775 4850
F 0 "#PWR013" H 1775 4600 50  0001 C CNN
F 1 "GND" H 1775 4700 50  0000 C CNN
F 2 "" H 1775 4850 50  0001 C CNN
F 3 "" H 1775 4850 50  0001 C CNN
	1    1775 4850
	1    0    0    -1  
$EndComp
Wire Wire Line
	1775 4850 1725 4850
$Comp
L +5V #PWR014
U 1 1 5A70A8D7
P 1850 4775
F 0 "#PWR014" H 1850 4625 50  0001 C CNN
F 1 "+5V" H 1850 4825 50  0000 C CNN
F 2 "" H 1850 4775 50  0001 C CNN
F 3 "" H 1850 4775 50  0001 C CNN
	1    1850 4775
	1    0    0    -1  
$EndComp
Wire Wire Line
	1850 4775 1725 4775
Wire Wire Line
	1725 4775 1725 4750
$Comp
L +3.3V #PWR015
U 1 1 5A70A951
P 1850 4650
F 0 "#PWR015" H 1850 4500 50  0001 C CNN
F 1 "+3.3V" H 1850 4700 50  0000 C CNN
F 2 "" H 1850 4650 50  0001 C CNN
F 3 "" H 1850 4650 50  0001 C CNN
	1    1850 4650
	1    0    0    -1  
$EndComp
Wire Wire Line
	1850 4650 1725 4650
$Comp
L PERF+_24_15_LRBT P2
U 2 1 5A70C901
P 6125 1225
F 0 "P2" H 6325 1475 60  0000 L CNN
F 1 "PERF+_24_15_LRBT" H 6325 1375 60  0000 L CNN
F 2 "" H 6125 1225 60  0001 C CNN
F 3 "" H 6125 1225 60  0001 C CNN
	2    6125 1225
	0    1    -1   0   
$EndComp
Wire Wire Line
	3825 1225 3650 1225
Wire Wire Line
	3650 1225 3650 1750
Wire Wire Line
	3750 1300 3750 1750
Wire Wire Line
	3750 1300 3925 1300
Wire Wire Line
	3925 1300 3925 1225
Wire Wire Line
	3850 1750 3850 1350
Wire Wire Line
	3850 1350 4025 1350
Wire Wire Line
	4025 1350 4025 1225
Wire Wire Line
	4125 1400 4125 1225
Wire Wire Line
	3950 1400 4125 1400
Wire Wire Line
	3950 1400 3950 1750
Wire Wire Line
	4050 1750 4050 1450
Wire Wire Line
	4050 1450 4225 1450
Wire Wire Line
	4225 1450 4225 1225
Wire Wire Line
	4325 1225 4325 1500
Wire Wire Line
	4325 1500 4150 1500
Wire Wire Line
	4150 1500 4150 1750
Wire Wire Line
	4250 1750 4250 1550
Wire Wire Line
	4250 1550 4425 1550
Wire Wire Line
	4425 1550 4425 1225
Wire Wire Line
	4525 1225 4525 1600
Wire Wire Line
	4525 1600 4350 1600
Wire Wire Line
	4350 1600 4350 1750
Wire Wire Line
	4450 1750 4450 1650
Wire Wire Line
	4450 1650 4575 1650
Wire Wire Line
	4575 1650 4575 1225
Wire Wire Line
	4575 1225 4625 1225
Wire Wire Line
	4725 1225 4725 1350
Wire Wire Line
	4725 1350 4600 1350
Wire Wire Line
	4600 1350 4600 1750
Wire Wire Line
	4600 1750 4550 1750
Wire Wire Line
	6050 1750 6050 1400
Wire Wire Line
	6050 1400 5825 1400
Wire Wire Line
	5825 1400 5825 1225
Wire Wire Line
	5725 1225 5725 1425
Wire Wire Line
	5725 1425 5950 1425
Wire Wire Line
	5950 1425 5950 1750
Wire Wire Line
	5850 1750 5850 1450
Wire Wire Line
	5850 1450 5625 1450
Wire Wire Line
	5625 1450 5625 1225
Wire Wire Line
	5525 1225 5525 1475
Wire Wire Line
	5525 1475 5750 1475
Wire Wire Line
	5750 1475 5750 1750
Wire Wire Line
	5650 1750 5650 1500
Wire Wire Line
	5650 1500 5425 1500
Wire Wire Line
	5425 1500 5425 1225
Wire Wire Line
	5325 1225 5325 1525
Wire Wire Line
	5325 1525 5550 1525
Wire Wire Line
	5550 1525 5550 1750
Wire Wire Line
	5450 1750 5450 1550
Wire Wire Line
	5450 1550 5225 1550
Wire Wire Line
	5225 1550 5225 1225
Wire Wire Line
	5125 1225 5125 1575
Wire Wire Line
	5125 1575 5350 1575
Wire Wire Line
	5350 1575 5350 1750
Wire Wire Line
	5250 1750 5250 1600
Wire Wire Line
	5250 1600 5100 1600
Wire Wire Line
	5100 1600 5100 1225
Wire Wire Line
	5100 1225 5025 1225
Wire Wire Line
	4925 1225 4925 1275
Wire Wire Line
	4925 1275 5075 1275
Wire Wire Line
	5075 1275 5075 1625
Wire Wire Line
	5075 1625 5150 1625
Wire Wire Line
	5150 1625 5150 1750
Wire Wire Line
	5050 1750 5050 1325
Wire Wire Line
	5050 1325 4825 1325
Wire Wire Line
	4825 1325 4825 1225
$Comp
L GND #PWR016
U 1 1 5A70D949
P 6125 1225
F 0 "#PWR016" H 6125 975 50  0001 C CNN
F 1 "GND" H 6125 1075 50  0000 C CNN
F 2 "" H 6125 1225 50  0001 C CNN
F 3 "" H 6125 1225 50  0001 C CNN
	1    6125 1225
	1    0    0    -1  
$EndComp
$Comp
L +5V #PWR017
U 1 1 5A70D963
P 5975 1325
F 0 "#PWR017" H 5975 1175 50  0001 C CNN
F 1 "+5V" V 5975 1350 50  0000 C CNN
F 2 "" H 5975 1325 50  0001 C CNN
F 3 "" H 5975 1325 50  0001 C CNN
	1    5975 1325
	1    0    0    -1  
$EndComp
Wire Wire Line
	5975 1325 6025 1325
Wire Wire Line
	6025 1325 6025 1225
$Comp
L +3.3V #PWR018
U 1 1 5A70DA28
P 5875 1325
F 0 "#PWR018" H 5875 1175 50  0001 C CNN
F 1 "+3.3V" V 5875 1350 50  0000 C CNN
F 2 "" H 5875 1325 50  0001 C CNN
F 3 "" H 5875 1325 50  0001 C CNN
	1    5875 1325
	1    0    0    -1  
$EndComp
Wire Wire Line
	5875 1325 5925 1325
Wire Wire Line
	5925 1325 5925 1225
$Comp
L PERF+_24_15_LRBT P3
U 1 1 5A70DD2A
P 7750 2650
F 0 "P3" H 7950 2900 60  0000 L CNN
F 1 "PERF+_24_15_LRBT" H 7950 2800 60  0000 L CNN
F 2 "" H 7750 2650 60  0001 C CNN
F 3 "" H 7750 2650 60  0001 C CNN
	1    7750 2650
	1    0    0    -1  
$EndComp
Wire Wire Line
	6850 4950 7750 4950
Wire Wire Line
	7750 4850 6850 4850
Wire Wire Line
	6850 4750 7750 4750
Wire Wire Line
	7750 4650 6850 4650
Wire Wire Line
	6850 4550 7750 4550
Wire Wire Line
	7750 4450 6850 4450
Wire Wire Line
	6850 4350 7750 4350
Wire Wire Line
	7750 4250 6850 4250
Wire Wire Line
	6850 4150 7750 4150
Wire Wire Line
	7750 4050 6850 4050
Wire Wire Line
	6850 3950 7750 3950
Wire Wire Line
	7750 2950 7625 2950
Wire Wire Line
	7625 2950 7625 2550
Wire Wire Line
	7625 2550 6850 2550
Wire Wire Line
	6850 2650 7600 2650
Wire Wire Line
	7600 2650 7600 3050
Wire Wire Line
	7600 3050 7750 3050
Wire Wire Line
	7750 3150 7550 3150
Wire Wire Line
	7550 3150 7550 2750
Wire Wire Line
	7550 2750 6850 2750
Wire Wire Line
	6850 2850 7500 2850
Wire Wire Line
	7500 2850 7500 3250
Wire Wire Line
	7500 3250 7750 3250
Wire Wire Line
	7750 3350 7450 3350
Wire Wire Line
	7450 3350 7450 2950
Wire Wire Line
	7450 2950 6850 2950
Wire Wire Line
	6850 3050 7400 3050
Wire Wire Line
	7400 3050 7400 3450
Wire Wire Line
	7400 3450 7750 3450
Wire Wire Line
	6850 3150 7350 3150
Wire Wire Line
	7350 3150 7350 3550
Wire Wire Line
	7350 3550 7750 3550
Wire Wire Line
	7750 3650 7300 3650
Wire Wire Line
	7300 3650 7300 3250
Wire Wire Line
	7300 3250 6850 3250
Wire Wire Line
	6850 3350 7250 3350
Wire Wire Line
	7250 3350 7250 3750
Wire Wire Line
	7250 3750 7750 3750
Wire Wire Line
	7750 3850 7200 3850
Wire Wire Line
	7200 3850 7200 3450
Wire Wire Line
	7200 3450 6850 3450
$Comp
L +3.3V #PWR019
U 1 1 5A70EC6B
P 7675 2900
F 0 "#PWR019" H 7675 2750 50  0001 C CNN
F 1 "+3.3V" H 7700 2950 50  0000 C CNN
F 2 "" H 7675 2900 50  0001 C CNN
F 3 "" H 7675 2900 50  0001 C CNN
	1    7675 2900
	1    0    0    -1  
$EndComp
Wire Wire Line
	7675 2900 7750 2900
Wire Wire Line
	7750 2900 7750 2850
$Comp
L +5V #PWR020
U 1 1 5A70ED67
P 7675 2750
F 0 "#PWR020" H 7675 2600 50  0001 C CNN
F 1 "+5V" H 7675 2800 50  0000 C CNN
F 2 "" H 7675 2750 50  0001 C CNN
F 3 "" H 7675 2750 50  0001 C CNN
	1    7675 2750
	1    0    0    -1  
$EndComp
Wire Wire Line
	7675 2750 7750 2750
$Comp
L GND #PWR021
U 1 1 5A70EE61
P 7675 2500
F 0 "#PWR021" H 7675 2250 50  0001 C CNN
F 1 "GND" H 7675 2425 50  0000 C CNN
F 2 "" H 7675 2500 50  0001 C CNN
F 3 "" H 7675 2500 50  0001 C CNN
	1    7675 2500
	1    0    0    -1  
$EndComp
Wire Wire Line
	7675 2500 7750 2500
Wire Wire Line
	7750 2500 7750 2650
$Comp
L PERF+_24_15_LRBT P4
U 1 1 5A70F288
P 5900 6400
F 0 "P4" H 6100 6650 60  0000 L CNN
F 1 "PERF+_24_15_LRBT" H 6100 6550 60  0000 L CNN
F 2 "" H 5900 6400 60  0001 C CNN
F 3 "" H 5900 6400 60  0001 C CNN
	1    5900 6400
	0    1    1    0   
$EndComp
Wire Wire Line
	5900 6400 6050 6400
Wire Wire Line
	6050 6400 6050 5750
Wire Wire Line
	5950 5750 5950 6350
Wire Wire Line
	5950 6350 5800 6350
Wire Wire Line
	5800 6350 5800 6400
Wire Wire Line
	5700 6400 5700 6300
Wire Wire Line
	5700 6300 5850 6300
Wire Wire Line
	5850 6300 5850 5750
Wire Wire Line
	5750 5750 5750 6250
Wire Wire Line
	5750 6250 5600 6250
Wire Wire Line
	5600 6250 5600 6400
Wire Wire Line
	5500 6400 5500 6200
Wire Wire Line
	5500 6200 5650 6200
Wire Wire Line
	5650 6200 5650 5750
Wire Wire Line
	5550 5750 5550 6150
Wire Wire Line
	5550 6150 5400 6150
Wire Wire Line
	5400 6150 5400 6400
Wire Wire Line
	5300 6400 5300 6100
Wire Wire Line
	5300 6100 5450 6100
Wire Wire Line
	5450 6100 5450 5750
Wire Wire Line
	5350 5750 5350 6050
Wire Wire Line
	5350 6050 5200 6050
Wire Wire Line
	5200 6050 5200 6400
Wire Wire Line
	5100 6400 5100 6025
Wire Wire Line
	5100 6025 5250 6025
Wire Wire Line
	5250 6025 5250 5750
Wire Wire Line
	5150 5750 5150 6000
Wire Wire Line
	5150 6000 5000 6000
Wire Wire Line
	5000 6000 5000 6400
Wire Wire Line
	4900 6400 4900 5950
Wire Wire Line
	4900 5950 5050 5950
Wire Wire Line
	5050 5950 5050 5750
Wire Wire Line
	3900 6400 3900 6250
Wire Wire Line
	3900 6250 3650 6250
Wire Wire Line
	3650 6250 3650 5750
Wire Wire Line
	3750 5750 3750 6225
Wire Wire Line
	3750 6225 4000 6225
Wire Wire Line
	4000 6225 4000 6400
Wire Wire Line
	4100 6400 4100 6200
Wire Wire Line
	4100 6200 3850 6200
Wire Wire Line
	3850 6200 3850 5750
Wire Wire Line
	3950 5750 3950 6175
Wire Wire Line
	3950 6175 4200 6175
Wire Wire Line
	4200 6175 4200 6400
Wire Wire Line
	4300 6400 4300 6150
Wire Wire Line
	4300 6150 4050 6150
Wire Wire Line
	4050 6150 4050 5750
Wire Wire Line
	4150 5750 4150 6125
Wire Wire Line
	4150 6125 4400 6125
Wire Wire Line
	4400 6125 4400 6400
Wire Wire Line
	4500 6400 4500 6100
Wire Wire Line
	4500 6100 4250 6100
Wire Wire Line
	4250 6100 4250 5750
Wire Wire Line
	4350 5750 4350 6075
Wire Wire Line
	4350 6075 4600 6075
Wire Wire Line
	4600 6075 4600 6400
Wire Wire Line
	4700 6400 4700 6050
Wire Wire Line
	4700 6050 4450 6050
Wire Wire Line
	4450 6050 4450 5750
Wire Wire Line
	4550 5750 4550 6025
Wire Wire Line
	4550 6025 4800 6025
Wire Wire Line
	4800 6025 4800 6400
$Comp
L GND #PWR022
U 1 1 5A710931
P 3500 6400
F 0 "#PWR022" H 3500 6150 50  0001 C CNN
F 1 "GND" H 3500 6250 50  0000 C CNN
F 2 "" H 3500 6400 50  0001 C CNN
F 3 "" H 3500 6400 50  0001 C CNN
	1    3500 6400
	1    0    0    -1  
$EndComp
Wire Wire Line
	3500 6400 3600 6400
$Comp
L +5V #PWR023
U 1 1 5A710A59
P 3700 6400
F 0 "#PWR023" H 3700 6250 50  0001 C CNN
F 1 "+5V" H 3700 6500 50  0000 C CNN
F 2 "" H 3700 6400 50  0001 C CNN
F 3 "" H 3700 6400 50  0001 C CNN
	1    3700 6400
	1    0    0    -1  
$EndComp
$Comp
L +3.3V #PWR024
U 1 1 5A710A9E
P 3800 6400
F 0 "#PWR024" H 3800 6250 50  0001 C CNN
F 1 "+3.3V" H 3800 6540 50  0000 C CNN
F 2 "" H 3800 6400 50  0001 C CNN
F 3 "" H 3800 6400 50  0001 C CNN
	1    3800 6400
	1    0    0    -1  
$EndComp
$EndSCHEMATC
