(module Fiducial (layer F.Cu) (tedit 5A106286)
  (fp_text reference F1 (at 0 1.0795) (layer F.CrtYd)
    (effects (font (size 1 1) (thickness 0.15)))
  )
  (fp_text value Fiducial (at 0 -0.9525) (layer F.Fab)
    (effects (font (size 1 1) (thickness 0.15)))
  )
  (pad "" smd circle (at 0 0) (size 0.2 0.2) (layers F.Cu F.Mask)
    (solder_mask_margin 0.2))
)
