(module MOUNTHOLE locked (layer F.Cu) (tedit 5A0F193B)
  (descr "module 1 pin (ou trou mecanique de percage)")
  (tags DEV)
  (fp_text reference REF** (at 0 -2.032) (layer F.SilkS) hide
    (effects (font (size 1 1) (thickness 0.15)))
  )
  (fp_text value MOUNTHOLE (at 0 2.032) (layer F.Fab) hide
    (effects (font (size 1 1) (thickness 0.15)))
  )
  (pad 1 thru_hole circle (at 0 0) (size 2.54 2.54) (drill 1.778) (layers *.Cu *.Mask F.SilkS))
)
